<?xml version="1.0" encoding="UTF-8" standalone="no"?>
<!-- Created with Inkscape (http://www.inkscape.org/) -->

<svg
   width="500mm"
   height="500mm"
   viewBox="0 0 500 500"
   version="1.1"
   id="svg5"
   inkscape:version="1.1.2 (0a00cf5, 2022-02-04)"
   sodipodi:docname="QR_Speaker.svg"
   xmlns:inkscape="http://www.inkscape.org/namespaces/inkscape"
   xmlns:sodipodi="http://sodipodi.sourceforge.net/DTD/sodipodi-0.dtd"
   xmlns="http://www.w3.org/2000/svg"
   xmlns:svg="http://www.w3.org/2000/svg">
  <sodipodi:namedview
     id="namedview7"
     pagecolor="#505050"
     bordercolor="#ffffff"
     borderopacity="1"
     inkscape:pageshadow="0"
     inkscape:pageopacity="0"
     inkscape:pagecheckerboard="1"
     inkscape:document-units="mm"
     showgrid="false"
     width="500mm"
     inkscape:zoom="0.17323025"
     inkscape:cx="932.28521"
     inkscape:cy="1134.3284"
     inkscape:window-width="1330"
     inkscape:window-height="743"
     inkscape:window-x="36"
     inkscape:window-y="0"
     inkscape:window-maximized="1"
     inkscape:current-layer="layer1">
    <sodipodi:guide
       position="0,500"
       orientation="0,1889.7638"
       id="guide1881" />
    <sodipodi:guide
       position="500,500"
       orientation="1889.7638,0"
       id="guide1883" />
    <sodipodi:guide
       position="500,0"
       orientation="0,-1889.7638"
       id="guide1885" />
    <sodipodi:guide
       position="0,0"
       orientation="-1889.7638,0"
       id="guide1887" />
  </sodipodi:namedview>
  <defs
     id="defs2" />
  <g
     inkscape:label="Capa 1"
     inkscape:groupmode="layer"
     id="layer1">
    <rect
       style="fill:#ffffff;stroke-width:0.264999"
       id="rect2147"
       width="500"
       height="500"
       x="0"
       y="-1.9073485e-06" />
    <path
       style="fill:#000000;stroke-width:2.85473"
       d="m 15.91206,444.12171 v -39.96623 h 39.966231 39.966243 v 39.96623 39.96623 H 55.878291 15.91206 Z m 68.513547,0 V 415.57439 H 55.878291 27.330987 v 28.54732 28.5473 h 28.547304 28.547316 z m -45.675694,0 v -17.12839 h 17.128378 17.128403 v 17.12839 17.12838 H 55.878291 38.749913 Z m 68.513547,28.5473 v -11.41892 h 5.70946 5.70947 v -5.70945 -5.70947 h -5.70947 -5.70946 v -11.41892 -11.41893 h 5.70946 5.70947 v -5.70946 -5.70947 h 5.70946 5.70945 v -5.70946 -5.70945 h 17.12839 17.12839 v 5.70945 5.70946 h -11.41893 -11.41892 v 11.41893 11.41893 H 130.1013 118.68239 v 5.70946 5.70946 h 5.70946 5.70945 v 5.70947 5.70945 h -5.70945 -5.70946 v 11.41892 11.41893 h -5.70947 -5.70946 z m 45.67569,5.70947 v -5.70947 h -5.70946 -5.70946 v -11.41892 -11.41892 h 11.41892 11.41893 v 5.70947 5.70945 h -5.70946 -5.70947 v 5.70946 5.70946 h 5.70947 5.70946 v 5.70947 5.70946 h -5.70946 -5.70947 z m 79.93247,0 v -5.70947 h 5.70946 5.70946 v 5.70947 5.70946 h -5.70946 -5.70946 z m 45.67569,-5.70947 v -11.41892 h 5.70946 5.70947 v -5.70945 -5.70947 H 278.54731 267.1284 v 5.70947 5.70945 h -17.12839 -17.12839 v -5.70945 -5.70947 h 5.70946 5.70946 v -5.70946 -5.70946 h -11.41892 -11.41893 v 5.70946 5.70946 h -5.70945 -5.70946 v 5.70947 5.70945 h -5.70947 -5.70946 v 5.70946 5.70946 H 187.19592 175.777 v -5.70946 -5.70946 h 11.41892 11.41893 V 449.83117 438.41225 H 175.777 152.93915 v -5.70947 -5.70946 h 11.41893 11.41892 v -11.41893 -11.41891 h 11.41892 11.41893 v 5.70945 5.70946 h -5.70946 -5.70947 v 5.70947 5.70946 h 11.41893 11.41893 v -11.41893 -11.41891 h 5.70946 5.70945 v -5.70946 -5.70947 h 5.70946 5.70947 V 381.31763 369.8987 h -11.41893 -11.41891 v -5.70946 -5.70946 h -5.70947 -5.70946 v 5.70946 5.70946 H 187.19592 175.777 v 5.70946 5.70947 h 17.12839 17.12839 v 5.70946 5.70946 h -22.83786 -22.83784 v -5.70946 -5.70946 h -5.70946 -5.70947 v -5.70947 -5.70946 h -5.70946 -5.70946 v 11.41893 11.41892 H 130.1013 118.68239 v 5.70947 5.70946 h -5.70947 -5.70946 V 392.73655 381.31763 H 101.554 95.844534 v 5.70946 5.70946 h -5.709463 -5.709464 v -5.70946 -5.70946 h 5.709464 5.709463 v -5.70947 -5.70946 h -5.709463 -5.709464 v -5.70946 -5.70946 h -5.709463 -5.70945 v -5.70946 -5.70946 H 61.587754 50.16884 v 5.70946 5.70946 h -5.709463 -5.709464 v -5.70946 -5.70946 H 33.04045 27.330987 v -5.70947 -5.70946 H 21.621523 15.91206 v -5.70946 -5.70947 h 5.709463 5.709464 v -5.70946 -5.70946 h 5.709463 5.709463 v -5.70945 -5.70947 h 5.709464 5.709463 v -5.70946 -5.70946 h -5.709463 -5.709464 v -5.70947 -5.70946 H 33.04045 27.330987 v 5.70946 5.70947 H 21.621523 15.91206 v -11.41893 -11.41893 h 11.418927 11.418926 v -5.70946 -5.70945 H 33.04045 27.330987 v -5.70946 -5.70947 h 5.709463 5.709463 V 232.87162 221.45269 H 33.04045 27.330987 v 5.70946 5.70947 H 21.621523 15.91206 v -17.12839 -17.12838 h 11.418927 11.418926 v 5.70946 5.70945 h 5.709464 5.709463 v 11.41893 11.41893 h 11.418914 11.41894 v -5.70947 -5.70946 h 11.418913 11.418927 v -5.70946 -5.70947 h -5.709463 -5.709464 v -5.70945 -5.70946 h -5.709463 -5.70945 v 5.70946 5.70945 H 67.29723 61.587754 v -5.70945 -5.70946 H 55.878291 50.16884 V 187.19592 175.777 H 38.749913 27.330987 v 5.70946 5.70946 H 21.621523 15.91206 V 175.777 164.35807 h 5.709463 5.709464 v -5.70946 -5.70945 h 5.709463 5.709463 v 5.70945 5.70946 h 5.709464 5.709463 v -11.41891 -11.41893 h 5.709451 5.709463 v -5.70946 -5.70947 H 55.878291 50.16884 v -11.41892 -11.41893 h 11.418914 11.41894 v 5.70946 5.70947 h 5.70945 5.709463 v -5.70947 -5.70946 h 5.709464 5.709463 v 5.70946 5.70947 h 5.709466 5.70946 v 5.70946 5.70946 H 101.554 95.844534 v 5.70947 5.70946 h -5.709463 -5.709464 v -5.70946 -5.70947 h -5.709463 -5.70945 v 5.70947 5.70946 H 67.29723 61.587754 v 11.41893 11.41891 h 5.709476 5.709464 v 11.41893 11.41892 h 5.70945 5.709463 v -5.70946 -5.70946 h 5.709464 5.709463 v -5.70947 -5.70946 h -5.709463 -5.709464 v -5.70946 -5.70945 h 5.709464 5.709463 v 5.70945 5.70946 h 5.709466 5.70946 v -11.41891 -11.41893 h 5.70946 5.70947 v 5.70946 5.70947 h 5.70946 5.70945 V 141.52023 130.1013 h 17.12839 17.12839 v -5.70946 -5.70946 h -5.70946 -5.70947 v -5.70947 -5.70946 h -5.70946 -5.70946 V 101.554 95.844529 h -5.70947 -5.70946 v 11.418921 11.41893 h -5.70945 -5.70946 v -5.70947 -5.70946 h -5.70947 -5.70946 V 95.844529 84.425609 h 5.70946 5.70947 v 5.70946 5.70946 h 5.70946 5.70945 V 84.425609 73.00668 h -5.70945 -5.70946 v -5.709463 -5.709463 h 11.41891 11.41893 V 44.459363 27.330986 h -5.70947 -5.70946 v -5.709467 -5.709462 h 5.70946 5.70947 v 5.709462 5.709467 h 5.70946 5.70946 v -5.709467 -5.709462 h 11.41893 11.41892 v 5.709462 5.709467 h 5.70946 5.70946 v -5.709467 -5.709462 h 5.70947 5.70946 v 5.709462 5.709467 h 5.70946 5.70947 v -5.709467 -5.709462 h 11.41891 11.41893 v 5.709462 5.709467 h 5.70946 5.70946 v 5.709451 5.709463 h 5.70947 5.70946 V 27.330986 15.912057 h 5.70946 5.70947 v 17.12838 17.12839 h 11.41891 11.41893 V 44.459363 38.7499 h 11.41892 11.41893 v 11.418927 11.418927 h 5.70945 5.70946 V 50.168827 38.7499 h 5.70947 5.70946 v -5.709463 -5.709451 h 5.70946 5.70947 v -5.709467 -5.709462 h 11.41892 11.41892 v 5.709462 5.709467 h 11.41892 11.41893 V 38.7499 50.168827 h -5.70946 -5.70947 v 5.709463 5.709464 h 5.70947 5.70946 v 5.709463 5.709463 H 381.31762 369.8987 v -5.709463 -5.709463 h -5.70945 -5.70947 V 73.00668 84.425609 h 5.70947 5.70945 v 5.70946 5.70946 h 5.70946 5.70946 v -5.70946 -5.70946 h 5.70947 5.70946 v 11.41892 11.418921 H 381.31762 369.8987 v 5.70946 5.70947 h 5.70946 5.70946 v 5.70946 5.70946 H 369.8987 358.47978 v 11.41893 11.41893 h 5.70947 5.70945 v -5.70947 -5.70946 h 11.41892 11.41893 v -5.70946 -5.70947 h 5.70946 5.70947 v 5.70947 5.70946 h -5.70947 -5.70946 v 11.41893 11.41891 h 5.70946 5.70947 v -5.70946 -5.70945 h 5.70946 5.70945 v 5.70945 5.70946 h 5.70947 5.70946 v -5.70946 -5.70945 h 5.70946 5.70947 v -5.70947 -5.70946 h 5.70946 5.70946 v -5.70946 -5.70947 h -17.12839 -17.12839 v -5.70946 -5.70946 h -5.70945 -5.70946 v -5.70947 -5.70946 h 5.70946 5.70945 v 5.70946 5.70947 h 22.83786 22.83785 v 11.41892 11.41893 h -5.70946 -5.70947 v 5.70946 5.70947 h -5.70946 -5.70946 v 11.41891 11.41893 h 5.70946 5.70946 v 5.70946 5.70946 h 5.70947 5.70946 v 11.41893 11.41891 h -5.70946 -5.70947 v -5.70945 -5.70946 h -11.41892 -11.41893 v 5.70946 5.70945 h 5.70946 5.70947 v 5.70947 5.70946 h 11.41892 11.41893 v 11.41893 11.41892 h 5.70945 5.70946 v -17.12839 -17.12839 h 5.70947 5.70946 v 17.12839 17.12839 h -5.70946 -5.70947 v 11.41893 11.41891 h -5.70946 -5.70945 v 5.70947 5.70946 h -5.70946 -5.70947 v 5.70946 5.70947 h 11.41893 11.41891 v -5.70947 -5.70946 h 5.70947 5.70946 v 5.70946 5.70947 h -5.70946 -5.70947 v 5.70946 5.70946 h 5.70947 5.70946 V 324.223 347.06086 H 472.66901 461.2501 v 5.70946 5.70946 h -5.70946 -5.70947 v -5.70946 -5.70946 h -5.70946 -5.70946 v 11.41892 11.41892 h 11.41892 11.41893 v 11.41893 11.41892 h -5.70946 -5.70947 v -5.70946 -5.70946 h -5.70946 -5.70946 v 22.83785 22.83784 h 5.70946 5.70946 v 5.70946 5.70947 h 11.41893 11.41891 v -11.41893 -11.41893 h 5.70947 5.70946 v 28.54732 28.5473 h -5.70946 -5.70947 V 461.25009 449.83117 H 461.2501 449.83117 v -5.70946 -5.70946 h -22.83785 -22.83784 v 11.41892 11.41892 h 11.41891 11.41893 v -5.70945 -5.70947 h 5.70946 5.70947 v 5.70947 5.70945 h -5.70947 -5.70946 v 5.70946 5.70946 h -11.41893 -11.41891 v -5.70946 -5.70946 h -5.70947 -5.70946 V 449.83117 438.41225 H 381.31762 369.8987 v 5.70946 5.70946 h -17.12838 -17.12839 v 11.41892 11.41892 h -5.70946 -5.70947 v 5.70947 5.70946 h -22.83784 -22.83785 z m 45.67569,-5.70946 v -5.70946 h -17.12837 -17.12839 v 5.70946 5.70946 h 17.12839 17.12837 z m -57.0946,-28.5473 v -11.41893 h 5.70945 5.70946 v 5.70946 5.70947 h 5.70946 5.70947 v 5.70946 5.70946 h 5.70946 5.70946 v -5.70946 -5.70946 h 5.70947 5.70946 v 5.70946 5.70946 h 5.70945 5.70946 v -5.70946 -5.70946 h 17.12839 17.12839 v -5.70947 -5.70946 h 5.70947 5.70945 v -11.41893 -11.41891 h 5.70946 5.70946 v -11.41893 -11.41892 h 11.41893 11.41893 v -5.70947 -5.70946 h 5.70946 5.70945 v 5.70946 5.70947 h 5.70947 5.70946 v -5.70947 -5.70946 h -5.70946 -5.70947 v -11.41892 -11.41892 h 11.41893 11.41893 v -5.70947 -5.70946 h 5.70946 5.70946 v 5.70946 5.70947 h 5.70947 5.70946 v -5.70947 -5.70946 h 5.70945 5.70946 V 324.223 312.80408 h -5.70946 -5.70945 v 11.41892 11.41893 h -5.70946 -5.70947 V 324.223 312.80408 h -11.41892 -11.41893 v 11.41892 11.41893 h -17.12838 -17.12839 v -5.70946 -5.70947 h -5.70946 -5.70947 v 5.70947 5.70946 h 5.70947 5.70946 v 11.41893 11.41892 h -5.70946 -5.70947 v 5.70946 5.70946 h -5.70946 -5.70946 v -5.70946 -5.70946 h -5.70945 -5.70947 v -5.70946 -5.70946 h 5.70947 5.70945 v -5.70947 -5.70946 h -5.70945 -5.70947 v -5.70946 -5.70947 h -11.41892 -11.41893 v 17.12839 17.12839 h 5.70946 5.70947 v 11.41892 11.41893 h 5.70946 5.70946 v 5.70946 5.70946 h -11.41892 -11.41893 v 5.70947 5.70946 h 5.70946 5.70947 v 5.70945 5.70946 h -5.70947 -5.70946 v 5.70947 5.70946 H 324.223 312.80409 v -5.70946 -5.70947 h 5.70945 5.70946 v -5.70946 -5.70945 h -5.70946 -5.70945 v 5.70945 5.70946 h -5.70946 -5.70947 v -5.70946 -5.70945 h -5.70946 -5.70946 v 5.70945 5.70946 H 278.54731 267.1284 v -11.41891 -11.41893 h 22.83784 22.83785 v -5.70946 -5.70946 h 5.70945 5.70946 V 369.8987 358.47978 h -17.12837 -17.12839 v -5.70946 -5.70946 h 5.70946 5.70946 v -5.70947 -5.70946 h 11.41893 11.41891 v -5.70946 -5.70947 h -11.41891 -11.41893 v -5.70946 -5.70946 h 5.70947 5.70946 v -11.41892 -11.41892 h 5.70945 5.70946 v 5.70946 5.70946 h 5.70947 5.70946 v -11.41892 -11.41893 h -5.70946 -5.70947 v -5.70946 -5.70947 h -5.70946 -5.70945 v -11.41891 -11.41893 h -5.70946 -5.70947 v -5.70946 -5.70946 h 5.70947 5.70946 v -5.70947 -5.70946 h 5.70945 5.70946 v -11.41893 -11.41891 h 11.41893 11.41893 v 5.70946 5.70945 h -5.70947 -5.70946 v 11.41893 11.41893 h 5.70946 5.70947 v 11.41892 11.41893 h -5.70947 -5.70946 v -5.70946 -5.70947 h -5.70946 -5.70947 v 5.70947 5.70946 h 5.70947 5.70946 v 5.70945 5.70946 h 5.70946 5.70947 v 5.70947 5.70946 h 5.70946 5.70946 v 5.70946 5.70947 h -5.70946 -5.70946 v 5.70946 5.70946 h 11.41892 11.41892 v 5.70947 5.70945 h 17.12839 17.12839 v -5.70945 -5.70947 h -11.41893 -11.41893 v -11.41892 -11.41893 h 5.70947 5.70946 v -5.70946 -5.70947 h 5.70946 5.70947 v 11.41893 11.41893 h 5.70946 5.70945 v -5.70947 -5.70946 h 11.41893 11.41893 v -5.70946 -5.70947 h 5.70946 5.70946 v -17.12837 -17.12839 h -5.70946 -5.70946 v 5.70946 5.70946 h -5.70947 -5.70946 v 5.70947 5.70946 h 5.70946 5.70947 v 5.70945 5.70946 h -17.12839 -17.12838 v -11.41891 -11.41893 h -5.70947 -5.70946 v -11.41892 -11.41893 h -5.70946 -5.70947 v 5.70946 5.70947 h -5.70946 -5.70946 v -5.70947 -5.70946 h -11.41892 -11.41892 v -5.70946 -5.70947 h 17.12839 17.12837 v -5.70945 -5.70946 H 369.8987 358.47978 v -5.70946 -5.70947 h 5.70947 5.70945 V 175.777 164.35807 h -5.70945 -5.70947 v -5.70946 -5.70945 h -11.41892 -11.41893 v 5.70945 5.70946 h 11.41893 11.41892 v 11.41893 11.41892 h -5.70946 -5.70946 v -5.70946 -5.70946 h -5.70947 -5.70946 v 5.70946 5.70946 H 324.223 312.80409 v -5.70946 -5.70946 h 5.70945 5.70946 v -11.41893 -11.41891 h -5.70946 -5.70945 v -5.70947 -5.70946 h 5.70945 5.70946 v -5.70946 -5.70947 h -5.70946 -5.70945 v 5.70947 5.70946 h -5.70946 -5.70947 V 130.1013 118.68238 H 312.80409 324.223 V 107.26345 95.844529 h 5.70947 5.70946 v -5.70946 -5.70946 h 5.70946 5.70947 v 11.41892 11.418921 h 11.41892 11.41892 V 101.554 95.844529 h -5.70945 -5.70947 v -5.70946 -5.70946 h -5.70946 -5.70946 V 78.716144 73.00668 h -5.70947 -5.70946 v -5.709463 -5.709463 h -5.70946 -5.70947 v 5.709463 5.709463 h -5.70946 -5.70945 V 67.297217 61.587754 H 295.6757 278.54731 v 5.709463 5.709463 h 17.12839 17.12839 v 5.709464 5.709465 h -5.70946 -5.70947 v 5.70946 5.70946 h -5.70946 -5.70946 v -5.70946 -5.70946 h -5.70947 -5.70946 v 5.70946 5.70946 h -5.70946 -5.70945 V 84.425609 73.00668 h -5.70947 -5.70946 V 61.587754 50.168827 h -5.70946 -5.70947 V 44.459363 38.7499 h -5.70946 -5.70946 v 11.418927 11.418927 h -5.70947 -5.70946 V 73.00668 84.425609 h -5.70945 -5.70946 v 11.41892 11.418921 h -11.41893 -11.41893 v 5.70946 5.70947 h -5.70946 -5.70946 v 22.83785 22.83784 h 5.70946 5.70946 v 5.70946 5.70947 h -5.70946 -5.70946 v 5.70946 5.70946 h -5.70945 -5.70947 v -5.70946 -5.70946 h -5.70946 -5.70947 v -5.70947 -5.70946 h 5.70947 5.70946 v -11.41891 -11.41893 h -11.41893 -11.41892 v 5.70946 5.70947 h -5.70947 -5.70946 v 11.41891 11.41893 h 5.70946 5.70947 v 5.70946 5.70946 H 130.1013 118.68239 V 181.48646 175.777 H 107.26346 95.844534 v 5.70946 5.70946 h -5.709463 -5.709464 v 5.70947 5.70946 h 5.709464 5.709463 v 5.70946 5.70945 h 11.418926 11.41893 v -5.70945 -5.70946 h 17.12837 17.12839 v 17.12838 17.12839 h 5.70947 5.70946 v -5.70947 -5.70946 h 5.70947 5.70945 v -5.70946 -5.70947 h 5.70946 5.70946 v -5.70945 -5.70946 h 5.70947 5.70946 v -5.70946 -5.70947 h 5.70946 5.70947 v 11.41893 11.41891 h -5.70947 -5.70946 v 17.12839 17.12839 h 5.70946 5.70947 v 5.70947 5.70946 h -11.41893 -11.41893 v -11.41893 -11.41892 h -5.70946 -5.70946 v 11.41892 11.41893 h -11.41892 -11.41893 v -5.70946 -5.70947 h -5.70946 -5.70946 v 5.70947 5.70946 h -5.70947 -5.70946 v 11.41891 11.41893 h -5.70945 -5.70946 v -17.12839 -17.12838 h -5.70947 -5.70946 V 232.87162 221.45269 H 101.554 95.844534 v 5.70946 5.70947 h -5.709463 -5.709464 v 5.70946 5.70946 H 61.587754 38.749913 v 5.70947 5.70946 h 5.709464 5.709463 v 5.70945 5.70946 h 5.709451 5.709463 v 5.70947 5.70946 H 55.878291 50.16884 v 5.70946 5.70947 h 11.418914 11.41894 v 5.70946 5.70946 h 5.70945 5.709463 v 5.70947 5.70945 h -5.709463 -5.70945 v 5.70946 5.70946 H 67.29723 61.587754 v -5.70946 -5.70946 H 50.16884 38.749913 v 5.70946 5.70946 H 33.04045 27.330987 v 5.70947 5.70946 h 5.709463 5.709463 v 5.70946 5.70947 h 5.709464 5.709463 v -5.70947 -5.70946 h 11.418914 11.41894 v -5.70946 -5.70947 h 5.70945 5.709463 v 5.70947 5.70946 h 5.709464 5.709463 v -5.70946 -5.70947 h -5.709463 -5.709464 v -5.70946 -5.70946 h 5.709464 5.709463 v -5.70945 -5.70947 h -5.709463 -5.709464 v -5.70946 -5.70946 h 11.418927 11.418926 v 5.70946 5.70946 h 17.12839 17.12838 v 11.41892 11.41892 h 5.70946 5.70946 v 11.41893 11.41893 h 11.41893 11.41892 v 5.70946 5.70946 h 11.41892 11.41893 v -11.41892 -11.41893 h 5.70946 5.70947 V 324.223 312.80408 h -5.70947 -5.70946 v 11.41892 11.41893 h -17.12839 -17.12838 v -5.70946 -5.70947 h 5.70947 5.70945 v -5.70946 -5.70946 h 5.70946 5.70946 v -5.70945 -5.70947 h 11.41893 11.41893 v -22.83785 -22.83784 h 5.70946 5.70945 v -11.41893 -11.41892 h -5.70945 -5.70946 v -11.41893 -11.41893 h 11.41891 11.41893 v 5.70947 5.70946 h 5.70946 5.70946 v 5.70946 5.70947 h -5.70946 -5.70946 v 11.41892 11.41893 h 5.70946 5.70946 v 5.70945 5.70946 h -11.41892 -11.41893 v 28.54732 28.5473 h 5.70946 5.70947 v 5.70947 5.70946 h -5.70947 -5.70946 v 5.70946 5.70947 h -5.70945 -5.70946 v 5.70946 5.70946 h 5.70946 5.70945 v -5.70946 -5.70946 h 5.70946 5.70947 v -5.70947 -5.70946 h 11.41892 11.41893 v 5.70946 5.70947 h -5.70946 -5.70947 v 11.41892 11.41892 h 5.70947 5.70946 v 5.70946 5.70947 h -5.70946 -5.70947 v 11.41892 11.41893 h -5.70946 -5.70946 v 5.70945 5.70946 h -5.70947 -5.70946 v 5.70947 5.70946 h 11.41893 11.41892 v 5.70946 5.70947 h 5.70947 5.70946 v 5.70946 5.70946 h 5.70946 5.70947 z m 22.83784,-5.70947 v -5.70946 h 5.70946 5.70946 v 5.70946 5.70947 h -5.70946 -5.70946 z m 57.09462,-11.41892 v -5.70947 h 5.70946 5.70946 v 5.70947 5.70946 h -5.70946 -5.70946 z m 11.41892,-22.83784 v -5.70947 h 5.70947 5.70945 v 5.70947 5.70946 h -5.70945 -5.70947 z M 267.1284,369.8987 v -11.41892 h 11.41891 11.41893 v 5.70946 5.70946 h 11.41892 11.41893 v 5.70946 5.70947 H 289.96624 267.1284 Z m 0,-34.25677 V 324.223 h 5.70945 5.70946 v 5.70947 5.70946 h 5.70946 5.70947 v -5.70946 -5.70947 h 5.70946 5.70946 v 5.70947 5.70946 h -5.70946 -5.70946 v 5.70946 5.70947 H 278.54731 267.1284 Z M 152.93915,318.51354 v -5.70946 h 5.70947 5.70946 v 5.70946 5.70946 h -5.70946 -5.70947 z m 79.93247,-17.12838 v -22.83785 h 5.70946 5.70946 v -5.70946 -5.70947 h 5.70947 5.70946 v -5.70946 -5.70945 h 5.70946 5.70947 v -5.70946 -5.70947 h 5.70945 5.70946 v -5.70946 -5.70946 H 267.1284 255.70947 v -5.70947 -5.70946 h -5.70946 -5.70947 v -5.70946 -5.70947 h 5.70947 5.70946 v -5.70945 -5.70946 h 17.12838 17.12839 V 187.19592 175.777 h -5.70947 -5.70946 v 5.70946 5.70946 H 267.1284 255.70947 v -5.70946 -5.70946 h 5.70946 5.70947 v -11.41893 -11.41891 h 5.70945 5.70946 v -5.70947 -5.70946 H 267.1284 255.70947 v 11.41893 11.41891 h -17.12839 -17.12839 v -5.70946 -5.70945 h -11.41891 -11.41893 v 5.70945 5.70946 h -5.70946 -5.70947 v -22.83784 -22.83785 h 22.83786 22.83784 v 5.70946 5.70946 h -5.70947 -5.70946 v 11.41893 11.41893 h 11.41893 11.41892 v -5.70947 -5.70946 h 5.70947 5.70946 v -17.12839 -17.12839 h 5.70946 5.70947 v 11.41893 11.41892 h 11.41891 11.41893 v 5.70947 5.70946 h 5.70946 5.70946 v 28.5473 28.54732 h 5.70947 5.70946 v 5.70946 5.70945 h -11.41893 -11.41892 v 5.70947 5.70946 h 5.70946 5.70946 v 5.70946 5.70947 h -5.70946 -5.70946 v 5.70946 5.70946 h -5.70947 -5.70946 v 5.70947 5.70946 h 11.41893 11.41892 v 5.70945 5.70946 h -5.70946 -5.70946 v 11.41893 11.41893 h 5.70946 5.70946 v 5.70946 5.70946 h -5.70946 -5.70946 v -5.70946 -5.70946 H 278.54731 267.1284 v 5.70946 5.70946 h 5.70945 5.70946 v 5.70947 5.70945 h -5.70946 -5.70945 v -5.70945 -5.70947 h -5.70947 -5.70946 v -5.70946 -5.70946 h -5.70946 -5.70947 v 11.41892 11.41892 h 5.70947 5.70946 v 5.70946 5.70946 h -11.41893 -11.41892 z m 34.25678,-17.12839 v -5.70946 h -5.70947 -5.70946 v 5.70946 5.70947 h 5.70946 5.70947 z m 0,-68.51354 v -5.70947 h -5.70947 -5.70946 v 5.70947 5.70946 h 5.70946 5.70947 z m -57.09462,-79.93246 v -5.70947 h -5.70947 -5.70946 v 5.70947 5.70946 h 5.70946 5.70947 z m -79.93248,148.446 v -5.70946 h 5.70946 5.70947 v 5.70946 5.70947 h -5.70947 -5.70946 z m 45.6757,0 v -5.70946 h -11.41892 -11.41893 v -5.70946 -5.70947 h 17.1284 17.12837 v 5.70947 5.70946 h 5.70947 5.70946 v 5.70946 5.70947 H 187.19592 175.777 Z M 84.425607,272.83785 v -5.70947 h -5.709463 -5.70945 v -5.70946 -5.70945 h 5.70945 5.709463 v -5.70946 -5.70947 h 5.709464 5.709463 v 5.70947 5.70946 h 5.709466 5.70946 v 11.41891 11.41893 H 95.844534 84.425607 Z m 11.418927,-11.41893 v -5.70945 h -5.709463 -5.709464 v 5.70945 5.70946 h 5.709464 5.709463 z m 262.635246,5.70946 v -11.41891 h 11.41892 11.41892 v -5.70946 -5.70947 h 5.70947 5.70946 v 5.70947 5.70946 h -5.70946 -5.70947 v 5.70945 5.70946 h -5.70946 -5.70946 v 5.70947 5.70946 h -5.70945 -5.70947 z m 0,-28.5473 v -5.70946 h 5.70947 5.70945 v 5.70946 5.70946 h -5.70945 -5.70947 z M 95.844534,192.90539 v -5.70947 h 11.418926 11.41893 v 5.70947 5.70946 H 107.26346 95.844534 Z m 57.094616,0 v -5.70947 h 5.70947 5.70946 v 5.70947 5.70946 h -5.70946 -5.70947 z m 79.93247,0 v -5.70947 h -5.70947 -5.70946 v -5.70946 -5.70946 h 11.41893 11.41892 v 11.41892 11.41893 h -5.70946 -5.70946 z m -45.6757,-11.41893 V 175.777 h 5.70947 5.70946 v 5.70946 5.70946 h -5.70946 -5.70947 z m 102.77032,-68.51355 v -5.70946 h -5.70947 -5.70946 V 101.554 95.844529 h 5.70946 5.70947 v 5.709471 5.70945 h 5.70946 5.70946 V 101.554 95.844529 h 5.70947 5.70946 v -5.70946 -5.70946 h 5.70945 5.70946 v 5.70946 5.70946 h -5.70946 -5.70945 v 5.709471 5.70945 h -5.70946 -5.70947 v 5.70946 5.70947 h -5.70946 -5.70946 z M 232.87162,101.554 v -5.709471 h -5.70947 -5.70946 v -5.70946 -5.70946 h 5.70946 5.70947 v 5.70946 5.70946 h 5.70946 5.70946 v -5.70946 -5.70946 h 5.70947 5.70946 v 5.70946 5.70946 h -5.70946 -5.70947 v 5.709471 5.70945 h -5.70946 -5.70946 z m 0,-34.256783 v -5.709463 h 5.70946 5.70946 v 5.709463 5.709463 h -5.70946 -5.70946 z m 194.1217,342.567713 v -17.12838 h -17.12838 -17.12839 v 17.12838 17.12839 h 17.12839 17.12838 z m -22.83784,0 v -5.70945 h 5.70946 5.70945 v 5.70945 5.70946 h -5.70945 -5.70946 z M 130.1013,364.18924 v -5.70946 h 5.70946 5.70947 v -11.41892 -11.41893 h -5.70947 -5.70946 v -5.70946 -5.70947 h -5.70945 -5.70946 v -5.70946 -5.70946 h -5.70947 -5.70946 v 5.70946 5.70946 h 5.70946 5.70947 v 5.70947 5.70946 h 5.70946 5.70945 v 11.41893 11.41892 h -5.70945 -5.70946 v -5.70946 -5.70946 h -5.70947 -5.70946 v 5.70946 5.70946 H 101.554 95.844534 v -5.70946 -5.70946 h -5.709463 -5.709464 v 5.70946 5.70946 h 5.709464 5.709463 v 5.70946 5.70946 h 17.128386 17.12838 z m 34.25678,0 v -5.70946 h -5.70946 -5.70947 v 5.70946 5.70946 h 5.70947 5.70946 z M 438.41225,295.6757 v -5.70946 h -5.70947 -5.70946 v 5.70946 5.70946 h 5.70946 5.70947 z M 141.52023,221.45269 v -11.41893 h -5.70947 -5.70946 v 5.70947 5.70946 h -5.70945 -5.70946 v 5.70946 5.70947 h 11.41891 11.41893 z m 285.47309,-5.70946 v -5.70947 h -5.70946 -5.70947 v -5.70945 -5.70946 h 5.70947 5.70946 v -5.70946 -5.70947 h 5.70946 5.70947 v -5.70946 -5.70946 h -5.70947 -5.70946 v 5.70946 5.70946 h -11.41893 -11.41891 v 5.70947 5.70946 h -5.70947 -5.70946 v 5.70946 5.70945 h 5.70946 5.70947 v 5.70947 5.70946 h 11.41891 11.41893 z M 61.587754,170.06753 v -5.70946 H 55.878291 50.16884 v 5.70946 5.70947 h 5.709451 5.709463 z m 331.148796,0 v -5.70946 h -5.70946 -5.70947 v 5.70946 5.70947 h 5.70947 5.70946 z m 22.83784,0 v -5.70946 h -5.70945 -5.70946 v 5.70946 5.70947 h 5.70946 5.70945 z m -68.51353,-34.25676 v -5.70947 h 5.70946 5.70946 v -5.70946 -5.70946 h -11.41892 -11.41893 v 11.41892 11.41893 h 5.70946 5.70947 z M 95.844534,124.39184 v -5.70946 h -5.709463 -5.709464 v 5.70946 5.70946 h 5.709464 5.709463 z M 164.35808,101.554 v -5.709471 h 5.70947 5.70945 v -5.70946 -5.70946 h -5.70945 -5.70947 v 5.70946 5.70946 h -5.70946 -5.70947 V 84.425609 73.00668 h 17.1284 17.12837 V 67.297217 61.587754 H 181.48646 175.777 V 55.87829 50.168827 h -5.70945 -5.70947 V 44.459363 38.7499 h -5.70946 -5.70947 v 17.12839 17.12839 h -5.70946 -5.70946 v 11.418929 11.41892 h 5.70946 5.70946 v 5.709471 5.70945 h 5.70947 5.70946 z m 34.25677,-11.418931 v -5.70946 h -5.70946 -5.70947 v 5.70946 5.70946 h 5.70947 5.70946 z M 221.45269,44.459363 V 38.7499 h -5.70945 -5.70946 v 5.709463 5.709464 h 5.70946 5.70945 z M 369.8987,38.7499 V 27.330986 h -5.70945 -5.70947 v 5.709451 5.709463 h -11.41892 -11.41893 v 5.709463 5.709464 h 17.12839 17.12838 z M 198.61485,33.040437 v -5.709451 h -5.70946 -5.70947 v 5.709451 5.709463 h 5.70947 5.70946 z M 358.47978,478.37848 v -5.70947 h 17.12838 17.12839 v 5.70947 5.70946 h -17.12839 -17.12838 z m 79.93247,0 v -5.70947 h 5.70946 5.70946 v -5.70946 -5.70946 h 5.70947 5.70946 v 5.70946 5.70946 h -5.70946 -5.70947 v 5.70947 5.70946 h -5.70946 -5.70946 z M 61.587754,387.02709 v -5.70946 H 55.878291 50.16884 v -5.70947 -5.70946 h 11.418914 11.41894 v 11.41893 11.41892 H 67.29723 61.587754 Z M 472.66901,375.60816 v -17.12838 h 5.70947 5.70946 v 17.12838 17.12839 h -5.70946 -5.70947 z m 0,-188.41224 V 175.777 h -5.70946 -5.70945 v -5.70947 -5.70946 h 11.41891 11.41893 v 17.12839 17.12839 h -5.70946 -5.70947 z M 15.91206,124.39184 v -17.12839 h 11.418927 11.418926 v 5.70946 5.70947 H 33.04045 27.330987 v 5.70946 5.70946 h 5.709463 5.709463 v 5.70947 5.70946 H 27.330987 15.91206 Z m 456.75695,-11.41893 v -5.70946 h 5.70947 5.70946 v 5.70946 5.70947 h -5.70946 -5.70947 z M 15.91206,55.87829 V 15.912057 H 55.878291 95.844534 V 55.87829 95.844529 H 55.878291 15.91206 Z m 68.513547,0 V 27.330986 H 55.878291 27.330987 V 55.87829 84.425609 h 28.547304 28.547316 z m -45.675694,0 V 38.7499 H 55.878291 73.006694 V 55.87829 73.00668 H 55.878291 38.749913 Z m 365.405567,0 V 15.912057 h 39.96623 39.96623 V 55.87829 95.844529 h -39.96623 -39.96623 z m 68.51353,0 V 27.330986 h -28.5473 -28.54732 V 55.87829 84.425609 h 28.54732 28.5473 z m -45.67569,0 V 38.7499 h 17.12839 17.12839 V 55.87829 73.00668 H 444.12171 426.99332 Z M 118.68239,44.459363 V 38.7499 h 5.70946 5.70945 v 5.709463 5.709464 h -5.70945 -5.70946 z M 107.26346,21.621519 v -5.709462 h 5.70946 5.70947 v 5.709462 5.709467 h -5.70947 -5.70946 z m 194.1217,0 v -5.709462 h 5.70947 5.70946 v 5.709462 5.709467 h -5.70946 -5.70947 z"
       id="path2025" />
  </g>
</svg>
