<?xml version="1.0" encoding="UTF-8" standalone="no"?>
<svg
   version="1.1"
   id="Capa_1"
   x="0"
   y="0"
   viewBox="0 0 500.00001 540.00001"
   xml:space="preserve"
   sodipodi:docname="Eslogan_SLUD.svg"
   inkscape:version="1.1.2 (0a00cf5, 2022-02-04)"
   width="500"
   height="540"
   xmlns:inkscape="http://www.inkscape.org/namespaces/inkscape"
   xmlns:sodipodi="http://sodipodi.sourceforge.net/DTD/sodipodi-0.dtd"
   xmlns:xlink="http://www.w3.org/1999/xlink"
   xmlns="http://www.w3.org/2000/svg"
   xmlns:svg="http://www.w3.org/2000/svg"><sodipodi:namedview
   id="namedview218"
   pagecolor="#ffffff"
   bordercolor="#666666"
   borderopacity="1.0"
   inkscape:pageshadow="2"
   inkscape:pageopacity="0"
   inkscape:pagecheckerboard="true"
   showgrid="false"
   inkscape:zoom="1.072935"
   inkscape:cx="189.66667"
   inkscape:cy="103.92056"
   inkscape:window-width="1330"
   inkscape:window-height="743"
   inkscape:window-x="36"
   inkscape:window-y="0"
   inkscape:window-maximized="1"
   inkscape:current-layer="g2010"
   showborder="false" />
   <defs
   id="defs386">
     <radialGradient
   xlink:href="#linearGradient2159-3"
   id="radialGradient9920"
   cx="181.65199"
   cy="433.79199"
   fx="181.65199"
   fy="433.79199"
   r="172.2"
   gradientTransform="matrix(2.05358,0,0,0.71153,-191.385,16.691)"
   gradientUnits="userSpaceOnUse" />
     <linearGradient
   id="linearGradient2159-3"
   gradientUnits="userSpaceOnUse"
   x1="260.94"
   y1="208.67"
   x2="260.98001"
   y2="258.01001"
   spreadMethod="pad">
       <stop
   offset="0"
   id="stop2183"
   stop-color="#868686"
   stop-opacity="1" />
       <stop
   offset=".136"
   id="stop9650"
   stop-color="#6e6e6e"
   stop-opacity="1" />
       <stop
   offset=".235"
   id="stop2181"
   stop-color="#000"
   stop-opacity="1" />
       <stop
   offset=".343"
   id="stop7082"
   stop-color="#fff"
   stop-opacity="1" />
       <stop
   offset=".431"
   id="stop2173"
   stop-color="#c1c1c1"
   stop-opacity="1" />
       <stop
   offset=".483"
   id="stop2169"
   stop-color="#fcfcfc"
   stop-opacity="1" />
       <stop
   offset=".582"
   id="stop2165"
   stop-color="#888"
   stop-opacity="1" />
       <stop
   offset=".582"
   id="stop2163"
   stop-color="#868686"
   stop-opacity="1" />
       <stop
   offset=".721"
   id="stop12520"
   stop-color="#b8b8b8"
   stop-opacity="1" />
       <stop
   offset=".849"
   id="stop6246"
   stop-color="#e7e7e7"
   stop-opacity="1" />
       <stop
   offset=".85"
   id="stop8108"
   stop-color="#fff"
   stop-opacity="1" />
       <stop
   offset=".861"
   id="stop12390"
   stop-color="#f7f7f7"
   stop-opacity="1" />
       <stop
   offset=".933"
   id="stop6504"
   stop-color="#f4f4f4"
   stop-opacity="1" />
       <stop
   offset=".971"
   id="stop9070"
   stop-color="#acacac"
   stop-opacity="1" />
       <stop
   offset="1"
   id="stop2161"
   stop-color="#fff"
   stop-opacity="1" />
     </linearGradient>
   <radialGradient
   inkscape:collect="always"
   xlink:href="#linearGradient2159-3"
   id="radialGradient1035"
   gradientUnits="userSpaceOnUse"
   gradientTransform="matrix(2.05358,0,0,0.71153,-191.385,16.691)"
   cx="181.65199"
   cy="433.79199"
   fx="181.65199"
   fy="433.79199"
   r="172.2" /><radialGradient
   inkscape:collect="always"
   xlink:href="#linearGradient2159-3"
   id="radialGradient1037"
   gradientUnits="userSpaceOnUse"
   gradientTransform="matrix(2.05358,0,0,0.71153,-191.385,16.691)"
   cx="181.65199"
   cy="433.79199"
   fx="181.65199"
   fy="433.79199"
   r="172.2" /><radialGradient
   inkscape:collect="always"
   xlink:href="#linearGradient2159-3"
   id="radialGradient1039"
   gradientUnits="userSpaceOnUse"
   gradientTransform="matrix(2.05358,0,0,0.71153,-191.385,16.691)"
   cx="181.65199"
   cy="433.79199"
   fx="181.65199"
   fy="433.79199"
   r="172.2" /><radialGradient
   inkscape:collect="always"
   xlink:href="#linearGradient2159-3"
   id="radialGradient1041"
   gradientUnits="userSpaceOnUse"
   gradientTransform="matrix(2.05358,0,0,0.71153,-191.385,16.691)"
   cx="181.65199"
   cy="433.79199"
   fx="181.65199"
   fy="433.79199"
   r="172.2" /></defs>
   <style
   type="text/css"
   id="style2">
     .st0,.st1{fill:none;stroke:#08d6ff;stroke-width:16;stroke-miterlimit:10}.st1{fill:#3c597a;stroke:#061124;stroke-width:8}.st6{fill:#54575b}.st8{fill:#061124}.st9{fill:#8a1c13;stroke:#333;stroke-width:.25;stroke-miterlimit:10}.st13{fill:#384356}.st14{fill:#576270}.st15,.st17{stroke:#061124;stroke-miterlimit:10}.st15{fill:#fff;stroke-width:.25}.st17{fill:#fdfdfd}.st18{opacity:.38}
   </style>
   <g
   id="g381">
     <g
   id="g14944">
       
       
       
       
       
       <g
   id="g2010"
   inkscape:export-filename="/home/stivel/Documentos/2022-1/Glud/slud-xix-material-grafico/Entregables/Logo/Logo.png"
   inkscape:export-xdpi="300"
   inkscape:export-ydpi="300"><g
     id="g267"
     transform="matrix(1.0635327,0,0,1.0844685,-6.7442422,-201.55264)">
         <g
   id="g253">
           <g
   id="g251">
             <path
   class="st0"
   d="m 34.11,318.73 c -6.54,1 -11.53,1.44 -15.01,1.15 v -23.27 c 8.33,-3.25 16.73,-6.25 25.19,-9 0,2.43 0.54,4.02 1.62,4.77 1.08,0.75 3.04,0.67 5.9,-0.2 2.39,-0.73 4.12,-1.61 5.16,-2.66 1.04,-1.05 1.57,-2.32 1.57,-3.81 0,-1.25 -0.5,-2.19 -1.51,-2.79 -1.01,-0.6 -2.75,-1.01 -5.22,-1.2 -3.32,-0.16 -6.63,-0.28 -9.94,-0.36 -8.52,-0.46 -14.59,-2.08 -18.27,-5.15 -3.68,-3.07 -5.51,-8.37 -5.51,-15.97 0,-9.24 2.93,-17.45 8.82,-24.46 5.9,-6.99 15.76,-12.96 29.77,-17.1 6.73,-1.98 13.1,-3 19.07,-3.11 5.98,-0.11 10.82,0.64 14.51,2.12 v 21.04 c -7.85,1.68 -15.68,3.57 -23.45,5.66 0,-3.91 -2.42,-5.24 -7.22,-3.87 -2.33,0.67 -3.97,1.45 -4.94,2.33 -0.97,0.88 -1.45,2.06 -1.45,3.55 0,1.33 0.56,2.22 1.68,2.67 1.12,0.45 2.96,0.73 5.52,0.86 3.37,0.21 6.76,0.47 10.15,0.76 8.26,0.67 14.32,2.99 18.13,6.66 3.81,3.68 5.72,9.2 5.72,16.48 0,9.96 -3.37,18.13 -10.07,24.74 -6.7,6.63 -16.5,11.53 -29.27,15.32 -7.43,2.21 -14.41,3.84 -20.95,4.84 z"
   id="path243" />
             <path
   class="st0"
   d="m 97.69,301.72 v -19.27 c 1.97,-0.39 3.94,-0.76 5.91,-1.12 v -52.88 c -1.97,0.36 -3.94,0.73 -5.91,1.12 V 210.3 c 16.62,-3.27 33.37,-5.61 50.18,-7.02 v 19.27 c -3.67,0.31 -7.33,0.66 -10.99,1.06 v 52.88 c 3.58,-0.39 7.16,-0.73 10.75,-1.04 v -10.81 c 7.93,-0.67 15.87,-1.14 23.82,-1.39 v 30.08 c -24.72,0.8 -49.39,3.6 -73.76,8.39 z"
   id="path245" />
             <path
   class="st0"
   d="m 187.69,286.62 c -6.83,-5.42 -10.25,-14.08 -10.25,-26.24 v -39.37 c -2,0.04 -3.99,0.09 -5.99,0.16 V 201.9 c 14.77,-0.48 29.57,-0.25 44.32,0.69 v 19.27 c -1.6,-0.1 -3.19,-0.2 -4.79,-0.28 v 45.36 c 0,2.59 0.58,4.52 1.74,5.8 1.16,1.28 2.89,1.99 5.21,2.15 2.31,0.16 4.04,-0.31 5.2,-1.43 1.15,-1.12 1.73,-2.97 1.73,-5.56 v -45.36 c -1.59,-0.13 -3.19,-0.26 -4.78,-0.38 v -19.27 c 13.67,1 27.31,2.62 40.88,4.84 V 227 c -1.98,-0.32 -3.96,-0.64 -5.94,-0.93 v 39.37 c 0,12.15 -3.28,20.4 -9.87,24.95 -6.59,4.56 -16.05,6.17 -28.42,5.35 -12.52,-0.84 -22.21,-3.69 -29.04,-9.12 z"
   id="path247" />
             <path
   class="st0"
   d="m 265.23,280.6 c 1.97,0.34 3.95,0.7 5.92,1.07 V 228.9 c -1.97,-0.37 -3.94,-0.73 -5.92,-1.07 v -19.39 c 16.04,2.79 31.96,6.43 47.7,10.93 12.95,3.71 23.12,10.79 30.63,20.69 7.5,9.91 11.22,23.08 11.22,39.21 0,16.15 -3.72,26.29 -11.22,30.72 -7.51,4.45 -17.68,4.53 -30.63,0.82 -15.74,-4.5 -31.66,-8.15 -47.7,-10.93 z m 45.6,10.35 c 2.64,0.74 4.61,0.61 5.93,-0.41 1.32,-1.02 1.97,-3.02 1.97,-5.99 v -35.49 c 0,-5.79 -2.63,-9.5 -7.9,-10.99 -2.25,-0.63 -4.51,-1.25 -6.76,-1.84 v 52.88 c 2.26,0.59 4.51,1.2 6.76,1.84 z"
   id="path249" />
           </g>
         </g>
         <g
   id="g265">
           <g
   id="g263">
             <path
   class="st1"
   d="m 34.22,320.13 c -6.52,1.06 -11.5,1.54 -14.97,1.28 v -23.27 c 8.31,-3.33 16.69,-6.4 25.13,-9.21 0,2.43 0.54,4.01 1.61,4.75 1.08,0.75 3.03,0.65 5.89,-0.25 2.39,-0.75 4.11,-1.64 5.15,-2.7 1.04,-1.06 1.57,-2.33 1.57,-3.82 0,-1.25 -0.5,-2.18 -1.51,-2.78 -1.01,-0.6 -2.74,-0.99 -5.21,-1.16 -3.32,-0.14 -6.62,-0.23 -9.92,-0.29 -8.51,-0.4 -14.56,-1.96 -18.23,-5 -3.67,-3.04 -5.5,-8.32 -5.5,-15.92 0,-9.24 2.92,-17.48 8.8,-24.54 5.88,-7.04 15.73,-13.1 29.72,-17.33 6.72,-2.03 13.08,-3.08 19.05,-3.23 5.97,-0.14 10.81,0.58 14.5,2.04 v 21.04 c -7.85,1.72 -15.66,3.65 -23.43,5.79 0,-3.91 -2.41,-5.23 -7.21,-3.82 -2.32,0.68 -3.97,1.48 -4.93,2.36 -0.97,0.88 -1.45,2.07 -1.45,3.56 0,1.33 0.56,2.22 1.68,2.66 1.12,0.44 2.95,0.71 5.51,0.82 3.37,0.19 6.75,0.42 10.13,0.7 8.25,0.62 14.31,2.91 18.11,6.56 3.8,3.66 5.71,9.17 5.71,16.45 0,9.96 -3.37,18.14 -10.06,24.79 -6.69,6.66 -16.48,11.62 -29.23,15.5 -7.43,2.28 -14.39,3.97 -20.91,5.02 z"
   id="path255" />
             <path
   class="st1"
   d="m 97.71,302.71 v -19.27 c 1.97,-0.4 3.94,-0.78 5.91,-1.15 v -52.88 c -1.97,0.37 -3.94,0.75 -5.91,1.15 v -19.27 c 16.6,-3.34 33.35,-5.74 50.16,-7.18 v 19.27 c -3.66,0.32 -7.33,0.68 -10.98,1.08 v 52.88 c 3.58,-0.4 7.16,-0.75 10.75,-1.06 v -10.81 c 7.93,-0.69 15.87,-1.16 23.82,-1.43 v 30.08 c -24.73,0.83 -49.39,3.69 -73.75,8.59 z"
   id="path257" />
             <path
   class="st1"
   d="m 187.69,287.41 c -6.83,-5.42 -10.25,-14.08 -10.25,-26.24 V 221.8 c -2,0.04 -3.99,0.09 -5.99,0.16 v -19.27 c 14.77,-0.49 29.57,-0.26 44.32,0.71 v 19.27 c -1.6,-0.1 -3.19,-0.2 -4.79,-0.29 v 45.36 c 0,2.59 0.58,4.52 1.74,5.8 1.16,1.28 2.89,1.99 5.2,2.16 2.31,0.16 4.04,-0.31 5.2,-1.43 1.15,-1.12 1.73,-2.97 1.73,-5.55 v -45.36 c -1.59,-0.14 -3.19,-0.26 -4.78,-0.38 v -19.27 c 13.67,1.03 27.31,2.68 40.87,4.96 v 19.27 c -1.98,-0.33 -3.95,-0.65 -5.93,-0.96 v 39.37 c 0,12.15 -3.28,20.38 -9.87,24.91 -6.59,4.54 -16.05,6.12 -28.41,5.28 -12.52,-0.84 -22.21,-3.69 -29.04,-9.13 z"
   id="path259" />
             <path
   class="st1"
   d="m 265.21,281.56 c 1.97,0.35 3.95,0.72 5.92,1.09 v -52.77 c -1.97,-0.38 -3.94,-0.74 -5.92,-1.09 V 209.4 a 447.33,447.33 0 0 1 47.65,11.19 c 12.93,3.8 23.08,10.96 30.57,20.92 7.49,9.97 11.19,23.18 11.19,39.3 0,16.15 -3.71,26.25 -11.19,30.62 -7.49,4.38 -17.64,4.38 -30.57,0.59 a 448.476,448.476 0 0 0 -47.65,-11.19 z m 45.57,10.58 c 2.64,0.76 4.61,0.65 5.92,-0.37 1.31,-1.01 1.97,-3 1.97,-5.98 V 250.3 c 0,-5.79 -2.62,-9.52 -7.89,-11.05 -2.25,-0.65 -4.5,-1.28 -6.75,-1.89 v 52.88 c 2.25,0.62 4.5,1.25 6.75,1.9 z"
   id="path261" />
           </g>
         </g>
       </g><g
     id="g369"
     fill="url(#radialGradient9920)"
     fill-opacity="1"
     style="fill:url(#radialGradient9920)"
     transform="matrix(1.0635327,0,0,1.0635327,-6.8718662,-197.78501)">
         <linearGradient
   id="SVGID_00000041293135197254196560000013797447786630394241_"
   gradientUnits="userSpaceOnUse"
   x1="56.602001"
   y1="216.664"
   x2="56.602001"
   y2="321.48401">
           <stop
   offset="0"
   id="stop269"
   stop-color="#868686"
   fill-opacity="1"
   fill="url(#radialGradient9920)" />
           <stop
   offset=".293"
   id="stop271"
   stop-color="#fff"
   fill-opacity="1"
   fill="url(#radialGradient9920)" />
           <stop
   offset=".547"
   id="stop273"
   stop-color="#fff"
   fill-opacity="1"
   fill="url(#radialGradient9920)" />
           <stop
   offset=".548"
   id="stop275"
   stop-color="#fbfbfb"
   fill-opacity="1"
   fill="url(#radialGradient9920)" />
           <stop
   offset=".552"
   id="stop277"
   stop-color="#dcdcdc"
   fill-opacity="1"
   fill="url(#radialGradient9920)" />
           <stop
   offset=".556"
   id="stop279"
   stop-color="#c1c1c1"
   fill-opacity="1"
   fill="url(#radialGradient9920)" />
           <stop
   offset=".56"
   id="stop281"
   stop-color="#ababab"
   fill-opacity="1"
   fill="url(#radialGradient9920)" />
           <stop
   offset=".566"
   id="stop283"
   stop-color="#9a9a9a"
   fill-opacity="1"
   fill="url(#radialGradient9920)" />
           <stop
   offset=".573"
   id="stop285"
   stop-color="#8f8f8f"
   fill-opacity="1"
   fill="url(#radialGradient9920)" />
           <stop
   offset=".582"
   id="stop287"
   stop-color="#888"
   fill-opacity="1"
   fill="url(#radialGradient9920)" />
           <stop
   offset=".609"
   id="stop289"
   stop-color="#868686"
   fill-opacity="1"
   fill="url(#radialGradient9920)" />
         </linearGradient>
         <path
   d="m 34.5,320.13 c -6.52,1.06 -11.5,1.54 -14.97,1.28 v -23.27 c 8.31,-3.33 16.69,-6.4 25.13,-9.21 0,2.43 0.54,4.01 1.61,4.75 1.08,0.75 3.04,0.65 5.89,-0.25 2.39,-0.75 4.11,-1.64 5.15,-2.7 1.04,-1.06 1.57,-2.33 1.57,-3.82 0,-1.25 -0.5,-2.18 -1.51,-2.78 -1.01,-0.6 -2.75,-0.99 -5.21,-1.16 -3.32,-0.14 -6.62,-0.23 -9.92,-0.29 -8.51,-0.4 -14.56,-1.96 -18.23,-5 -3.67,-3.04 -5.5,-8.32 -5.5,-15.92 0,-9.24 2.92,-17.48 8.8,-24.54 5.88,-7.04 15.73,-13.1 29.72,-17.33 6.72,-2.03 13.08,-3.08 19.05,-3.23 5.97,-0.14 10.81,0.58 14.5,2.04 v 21.04 c -7.85,1.72 -15.66,3.65 -23.43,5.79 0,-3.91 -2.41,-5.23 -7.21,-3.82 -2.32,0.68 -3.97,1.48 -4.93,2.36 -0.97,0.88 -1.45,2.07 -1.45,3.56 0,1.33 0.56,2.22 1.68,2.66 1.12,0.44 2.95,0.71 5.51,0.82 3.37,0.19 6.75,0.42 10.13,0.7 8.25,0.62 14.31,2.91 18.11,6.56 3.8,3.66 5.71,9.17 5.71,16.45 0,9.96 -3.37,18.14 -10.06,24.79 -6.69,6.66 -16.48,11.62 -29.23,15.5 -7.42,2.28 -14.38,3.97 -20.91,5.02 z"
   id="path292"
   stroke="#061124"
   stroke-width="8"
   stroke-miterlimit="10"
   style="fill:url(#radialGradient1035)" />
         <linearGradient
   id="SVGID_00000062168603948953996480000009807334341154683578_"
   gradientUnits="userSpaceOnUse"
   x1="134.867"
   y1="204.10201"
   x2="134.867"
   y2="302.715">
           <stop
   offset="0"
   id="stop294"
   stop-color="#868686"
   fill-opacity="1"
   fill="url(#radialGradient9920)" />
           <stop
   offset=".293"
   id="stop296"
   stop-color="#fff"
   fill-opacity="1"
   fill="url(#radialGradient9920)" />
           <stop
   offset=".523"
   id="stop298"
   stop-color="#fff"
   fill-opacity="1"
   fill="url(#radialGradient9920)" />
           <stop
   offset=".524"
   id="stop300"
   stop-color="#fbfbfb"
   fill-opacity="1"
   fill="url(#radialGradient9920)" />
           <stop
   offset=".536"
   id="stop302"
   stop-color="#dcdcdc"
   fill-opacity="1"
   fill="url(#radialGradient9920)" />
           <stop
   offset=".548"
   id="stop304"
   stop-color="#c1c1c1"
   fill-opacity="1"
   fill="url(#radialGradient9920)" />
           <stop
   offset=".562"
   id="stop306"
   stop-color="#ababab"
   fill-opacity="1"
   fill="url(#radialGradient9920)" />
           <stop
   offset=".579"
   id="stop308"
   stop-color="#9a9a9a"
   fill-opacity="1"
   fill="url(#radialGradient9920)" />
           <stop
   offset=".6"
   id="stop310"
   stop-color="#8f8f8f"
   fill-opacity="1"
   fill="url(#radialGradient9920)" />
           <stop
   offset=".629"
   id="stop312"
   stop-color="#888"
   fill-opacity="1"
   fill="url(#radialGradient9920)" />
           <stop
   offset=".71"
   id="stop314"
   stop-color="#868686"
   fill-opacity="1"
   fill="url(#radialGradient9920)" />
         </linearGradient>
         <path
   d="m 98,302.71 v -19.27 c 1.97,-0.4 3.94,-0.78 5.91,-1.15 v -52.88 c -1.97,0.37 -3.94,0.75 -5.91,1.15 v -19.27 c 16.6,-3.34 33.35,-5.74 50.16,-7.18 v 19.27 c -3.66,0.32 -7.33,0.68 -10.98,1.08 v 52.88 c 3.58,-0.4 7.16,-0.75 10.75,-1.06 v -10.81 c 7.93,-0.69 15.87,-1.16 23.82,-1.43 v 30.08 c -24.73,0.83 -49.4,3.69 -73.75,8.59 z"
   id="path317"
   stroke="#061124"
   stroke-width="8"
   stroke-miterlimit="10"
   style="fill:url(#radialGradient1037)" />
         <linearGradient
   id="SVGID_00000174602950631366302720000001410080400941283509_"
   gradientUnits="userSpaceOnUse"
   x1="216.485"
   y1="202.44701"
   x2="216.485"
   y2="296.76001">
           <stop
   offset="0"
   id="stop319"
   stop-color="#868686"
   fill-opacity="1"
   fill="url(#radialGradient9920)" />
           <stop
   offset=".234"
   id="stop321"
   stop-color="#fff"
   fill-opacity="1"
   fill="url(#radialGradient9920)" />
           <stop
   offset=".547"
   id="stop323"
   stop-color="#fff"
   fill-opacity="1"
   fill="url(#radialGradient9920)" />
           <stop
   offset=".548"
   id="stop325"
   stop-color="#fbfbfb"
   fill-opacity="1"
   fill="url(#radialGradient9920)" />
           <stop
   offset=".552"
   id="stop327"
   stop-color="#dcdcdc"
   fill-opacity="1"
   fill="url(#radialGradient9920)" />
           <stop
   offset=".556"
   id="stop329"
   stop-color="#c1c1c1"
   fill-opacity="1"
   fill="url(#radialGradient9920)" />
           <stop
   offset=".56"
   id="stop331"
   stop-color="#ababab"
   fill-opacity="1"
   fill="url(#radialGradient9920)" />
           <stop
   offset=".566"
   id="stop333"
   stop-color="#9a9a9a"
   fill-opacity="1"
   fill="url(#radialGradient9920)" />
           <stop
   offset=".573"
   id="stop335"
   stop-color="#8f8f8f"
   fill-opacity="1"
   fill="url(#radialGradient9920)" />
           <stop
   offset=".582"
   id="stop337"
   stop-color="#888"
   fill-opacity="1"
   fill="url(#radialGradient9920)" />
           <stop
   offset=".609"
   id="stop339"
   stop-color="#868686"
   fill-opacity="1"
   fill="url(#radialGradient9920)" />
         </linearGradient>
         <path
   d="m 187.97,287.41 c -6.83,-5.42 -10.25,-14.08 -10.25,-26.24 V 221.8 c -2,0.04 -3.99,0.09 -5.99,0.16 v -19.27 c 14.77,-0.49 29.57,-0.26 44.32,0.71 v 19.27 c -1.6,-0.1 -3.19,-0.2 -4.79,-0.29 v 45.36 c 0,2.59 0.58,4.52 1.74,5.8 1.16,1.28 2.89,1.99 5.2,2.16 2.31,0.16 4.04,-0.31 5.2,-1.43 1.15,-1.12 1.73,-2.97 1.73,-5.55 v -45.36 c -1.59,-0.14 -3.19,-0.26 -4.78,-0.38 v -19.27 c 13.67,1.03 27.31,2.68 40.87,4.96 v 19.27 c -1.98,-0.33 -3.95,-0.65 -5.93,-0.96 v 39.37 c 0,12.15 -3.28,20.38 -9.87,24.91 -6.59,4.54 -16.05,6.12 -28.41,5.28 -12.52,-0.84 -22.21,-3.69 -29.04,-9.13 z"
   id="path342"
   stroke="#061124"
   stroke-width="8"
   stroke-miterlimit="10"
   style="fill:url(#radialGradient1039)" />
         <linearGradient
   id="SVGID_00000052820731710317805040000011026942546751797906_"
   gradientUnits="userSpaceOnUse"
   x1="310.20901"
   y1="209.40199"
   x2="310.20901"
   y2="314.79599">
           <stop
   offset="0"
   id="stop344"
   stop-color="#868686"
   fill-opacity="1"
   fill="url(#radialGradient9920)" />
           <stop
   offset=".293"
   id="stop346"
   stop-color="#fff"
   fill-opacity="1"
   fill="url(#radialGradient9920)" />
           <stop
   offset=".547"
   id="stop348"
   stop-color="#fff"
   fill-opacity="1"
   fill="url(#radialGradient9920)" />
           <stop
   offset=".548"
   id="stop350"
   stop-color="#fbfbfb"
   fill-opacity="1"
   fill="url(#radialGradient9920)" />
           <stop
   offset=".552"
   id="stop352"
   stop-color="#dcdcdc"
   fill-opacity="1"
   fill="url(#radialGradient9920)" />
           <stop
   offset=".556"
   id="stop354"
   stop-color="#c1c1c1"
   fill-opacity="1"
   fill="url(#radialGradient9920)" />
           <stop
   offset=".56"
   id="stop356"
   stop-color="#ababab"
   fill-opacity="1"
   fill="url(#radialGradient9920)" />
           <stop
   offset=".566"
   id="stop358"
   stop-color="#9a9a9a"
   fill-opacity="1"
   fill="url(#radialGradient9920)" />
           <stop
   offset=".573"
   id="stop360"
   stop-color="#8f8f8f"
   fill-opacity="1"
   fill="url(#radialGradient9920)" />
           <stop
   offset=".582"
   id="stop362"
   stop-color="#888"
   fill-opacity="1"
   fill="url(#radialGradient9920)" />
           <stop
   offset=".582"
   id="stop364"
   stop-color="#868686"
   fill-opacity="1"
   fill="url(#radialGradient9920)" />
         </linearGradient>
         <path
   d="m 265.5,281.56 c 1.97,0.35 3.95,0.72 5.92,1.09 v -52.77 c -1.97,-0.38 -3.94,-0.74 -5.92,-1.09 V 209.4 a 447.33,447.33 0 0 1 47.65,11.19 c 12.93,3.8 23.08,10.96 30.57,20.92 7.49,9.97 11.19,23.18 11.19,39.3 0,16.15 -3.71,26.25 -11.19,30.62 -7.49,4.38 -17.64,4.38 -30.57,0.59 A 448.476,448.476 0 0 0 265.5,300.83 Z m 45.56,10.58 c 2.63,0.76 4.61,0.65 5.92,-0.37 1.31,-1.01 1.97,-3 1.97,-5.98 V 250.3 c 0,-5.79 -2.62,-9.52 -7.89,-11.05 -2.25,-0.65 -4.5,-1.28 -6.75,-1.89 v 52.88 c 2.25,0.62 4.5,1.25 6.75,1.9 z"
   id="path367"
   stroke="#061124"
   stroke-width="8"
   stroke-miterlimit="10"
   style="fill:url(#radialGradient1041)" />
       </g><g
     id="g379"
     transform="matrix(1.0635327,0,0,1.0635327,-6.7442422,-197.33079)">
         <text
   transform="translate(114.674,350.854)"
   id="text377"
   font-size="69.56px"
   font-family="AlfaSlabOne-Regular"
   fill="#06dafa"
   stroke="#061124"
   stroke-width="6"
   stroke-miterlimit="10"><tspan
     style="-inkscape-font-specification:'Alfa Slab One'"
     id="tspan12535"
     font-style="normal"
     font-variant="normal"
     font-weight="400"
     font-stretch="normal"
     font-family="'Alfa Slab One'">XIX</tspan></text>
       </g></g>
     </g>
   </g>
 </svg>
