<?xml version="1.0" encoding="UTF-8" standalone="no"?>
<svg
   version="1.1"
   id="Capa_1"
   x="0"
   y="0"
   viewBox="0 0 375.71 405.43"
   xml:space="preserve"
   sodipodi:docname="Logo_SLUD.svg"
   inkscape:version="1.1.2 (0a00cf5, 2022-02-04)"
   xmlns:inkscape="http://www.inkscape.org/namespaces/inkscape"
   xmlns:sodipodi="http://sodipodi.sourceforge.net/DTD/sodipodi-0.dtd"
   xmlns:xlink="http://www.w3.org/1999/xlink"
   xmlns="http://www.w3.org/2000/svg"
   xmlns:svg="http://www.w3.org/2000/svg"><sodipodi:namedview
   id="namedview218"
   pagecolor="#ffffff"
   bordercolor="#666666"
   borderopacity="1.0"
   inkscape:pageshadow="2"
   inkscape:pageopacity="0.0"
   inkscape:pagecheckerboard="0"
   showgrid="false"
   inkscape:zoom="0.75867958"
   inkscape:cx="168.71418"
   inkscape:cy="218.14216"
   inkscape:window-width="1330"
   inkscape:window-height="743"
   inkscape:window-x="36"
   inkscape:window-y="0"
   inkscape:window-maximized="1"
   inkscape:current-layer="g14944" />
   <defs
   id="defs386">
     <radialGradient
   xlink:href="#linearGradient2159-3"
   id="radialGradient9920"
   cx="181.652"
   cy="433.792"
   fx="181.652"
   fy="433.792"
   r="172.2"
   gradientTransform="matrix(2.05358,0,0,0.71153,-191.385,16.691)"
   gradientUnits="userSpaceOnUse" />
     <linearGradient
   id="linearGradient2159-3"
   gradientUnits="userSpaceOnUse"
   x1="260.94"
   y1="208.67"
   x2="260.98"
   y2="258.01"
   spreadMethod="pad">
       <stop
   offset="0"
   id="stop2183"
   stop-color="#868686"
   stop-opacity="1" />
       <stop
   offset=".136"
   id="stop9650"
   stop-color="#6e6e6e"
   stop-opacity="1" />
       <stop
   offset=".235"
   id="stop2181"
   stop-color="#000"
   stop-opacity="1" />
       <stop
   offset=".343"
   id="stop7082"
   stop-color="#fff"
   stop-opacity="1" />
       <stop
   offset=".431"
   id="stop2173"
   stop-color="#c1c1c1"
   stop-opacity="1" />
       <stop
   offset=".483"
   id="stop2169"
   stop-color="#fcfcfc"
   stop-opacity="1" />
       <stop
   offset=".582"
   id="stop2165"
   stop-color="#888"
   stop-opacity="1" />
       <stop
   offset=".582"
   id="stop2163"
   stop-color="#868686"
   stop-opacity="1" />
       <stop
   offset=".721"
   id="stop12520"
   stop-color="#b8b8b8"
   stop-opacity="1" />
       <stop
   offset=".849"
   id="stop6246"
   stop-color="#e7e7e7"
   stop-opacity="1" />
       <stop
   offset=".85"
   id="stop8108"
   stop-color="#fff"
   stop-opacity="1" />
       <stop
   offset=".861"
   id="stop12390"
   stop-color="#f7f7f7"
   stop-opacity="1" />
       <stop
   offset=".933"
   id="stop6504"
   stop-color="#f4f4f4"
   stop-opacity="1" />
       <stop
   offset=".971"
   id="stop9070"
   stop-color="#acacac"
   stop-opacity="1" />
       <stop
   offset="1"
   id="stop2161"
   stop-color="#fff"
   stop-opacity="1" />
     </linearGradient>
   <radialGradient
   inkscape:collect="always"
   xlink:href="#linearGradient2159-3"
   id="radialGradient1035"
   gradientUnits="userSpaceOnUse"
   gradientTransform="matrix(2.05358,0,0,0.71153,-191.385,16.691)"
   cx="181.652"
   cy="433.792"
   fx="181.652"
   fy="433.792"
   r="172.2" /><radialGradient
   inkscape:collect="always"
   xlink:href="#linearGradient2159-3"
   id="radialGradient1037"
   gradientUnits="userSpaceOnUse"
   gradientTransform="matrix(2.05358,0,0,0.71153,-191.385,16.691)"
   cx="181.652"
   cy="433.792"
   fx="181.652"
   fy="433.792"
   r="172.2" /><radialGradient
   inkscape:collect="always"
   xlink:href="#linearGradient2159-3"
   id="radialGradient1039"
   gradientUnits="userSpaceOnUse"
   gradientTransform="matrix(2.05358,0,0,0.71153,-191.385,16.691)"
   cx="181.652"
   cy="433.792"
   fx="181.652"
   fy="433.792"
   r="172.2" /><radialGradient
   inkscape:collect="always"
   xlink:href="#linearGradient2159-3"
   id="radialGradient1041"
   gradientUnits="userSpaceOnUse"
   gradientTransform="matrix(2.05358,0,0,0.71153,-191.385,16.691)"
   cx="181.652"
   cy="433.792"
   fx="181.652"
   fy="433.792"
   r="172.2" /></defs>
   <style
   type="text/css"
   id="style2">
     .st0,.st1{fill:none;stroke:#08d6ff;stroke-width:16;stroke-miterlimit:10}.st1{fill:#3c597a;stroke:#061124;stroke-width:8}.st6{fill:#54575b}.st8{fill:#061124}.st9{fill:#8a1c13;stroke:#333;stroke-width:.25;stroke-miterlimit:10}.st13{fill:#384356}.st14{fill:#576270}.st15,.st17{stroke:#061124;stroke-miterlimit:10}.st15{fill:#fff;stroke-width:.25}.st17{fill:#fdfdfd}.st18{opacity:.38}
   </style>
   <g
   id="g381">
     <g
   id="g14944">
       
       
       
       
       
       <g
   id="g2010"
   inkscape:export-filename="/home/stivel/Documentos/2022-1/Glud/slud-xix-material-grafico/Entregables/Logo/Logo.png"
   inkscape:export-xdpi="300"
   inkscape:export-ydpi="300"><g
     id="g101">
         <path
   class="st0"
   d="M308.52 128.6s-88.51-55.99-122.09-55.99S64.34 128.6 64.34 128.6s14.3 108.31 28.63 137.67c13.08 26.82 65.7 83.66 85.87 104.96 4.52 5.2 7.26 8.3 7.26 8.3s.12-.13.33-.34c.21.22.33.34.33.34s2.74-3.09 7.26-8.3c20.17-21.3 72.78-78.14 85.87-104.96 14.33-29.36 28.63-137.67 28.63-137.67z"
   id="path4" />
         <path
   class="st1"
   d="M308.52 128.6s-88.51-55.99-122.09-55.99S64.34 128.6 64.34 128.6s14.3 108.31 28.63 137.67c13.08 26.82 65.7 83.66 85.87 104.96 4.52 5.2 7.26 8.3 7.26 8.3s.12-.13.33-.34c.21.22.33.34.33.34s2.74-3.09 7.26-8.3c20.17-21.3 72.78-78.14 85.87-104.96 14.33-29.36 28.63-137.67 28.63-137.67z"
   id="path6" />
         <linearGradient
   id="SVGID_1_"
   gradientUnits="userSpaceOnUse"
   x1="94.691"
   y1="102.413"
   x2="277.009"
   y2="284.732">
           <stop
   offset="0"
   id="stop8"
   stop-color="#fff" />
           <stop
   offset=".035"
   id="stop10"
   stop-color="#fcfcfc" />
           <stop
   offset=".062"
   id="stop12"
   stop-color="#f2f2f2" />
           <stop
   offset=".086"
   id="stop14"
   stop-color="#e2e2e2" />
           <stop
   offset=".108"
   id="stop16"
   stop-color="#cbcbcb" />
           <stop
   offset=".129"
   id="stop18"
   stop-color="#adadad" />
           <stop
   offset=".149"
   id="stop20"
   stop-color="#898989" />
           <stop
   offset=".151"
   id="stop22"
   stop-color="#868686" />
           <stop
   offset=".152"
   id="stop24"
   stop-color="#8a8a8a" />
           <stop
   offset=".16"
   id="stop26"
   stop-color="#a9a9a9" />
           <stop
   offset=".17"
   id="stop28"
   stop-color="#c4c4c4" />
           <stop
   offset=".181"
   id="stop30"
   stop-color="#dadada" />
           <stop
   offset=".194"
   id="stop32"
   stop-color="#ebebeb" />
           <stop
   offset=".209"
   id="stop34"
   stop-color="#f6f6f6" />
           <stop
   offset=".232"
   id="stop36"
   stop-color="#fdfdfd" />
           <stop
   offset=".293"
   id="stop38"
   stop-color="#fff" />
           <stop
   offset=".665"
   id="stop40"
   stop-color="#fff" />
           <stop
   offset=".667"
   id="stop42"
   stop-color="#efefef" />
           <stop
   offset=".674"
   id="stop44"
   stop-color="#cfcfcf" />
           <stop
   offset=".681"
   id="stop46"
   stop-color="#b4b4b4" />
           <stop
   offset=".688"
   id="stop48"
   stop-color="#a0a0a0" />
           <stop
   offset=".697"
   id="stop50"
   stop-color="#919191" />
           <stop
   offset=".707"
   id="stop52"
   stop-color="#898989" />
           <stop
   offset=".724"
   id="stop54"
   stop-color="#868686" />
           <stop
   offset=".732"
   id="stop56"
   stop-color="#a6a6a6" />
           <stop
   offset=".741"
   id="stop58"
   stop-color="#c1c1c1" />
           <stop
   offset=".751"
   id="stop60"
   stop-color="#d8d8d8" />
           <stop
   offset=".763"
   id="stop62"
   stop-color="#eaeaea" />
           <stop
   offset=".778"
   id="stop64"
   stop-color="#f6f6f6" />
           <stop
   offset=".798"
   id="stop66"
   stop-color="#fdfdfd" />
           <stop
   offset=".846"
   id="stop68"
   stop-color="#fff" />
           <stop
   offset=".852"
   id="stop70"
   stop-color="#e3e3e3" />
           <stop
   offset=".858"
   id="stop72"
   stop-color="#c8c8c8" />
           <stop
   offset=".865"
   id="stop74"
   stop-color="#b1b1b1" />
           <stop
   offset=".874"
   id="stop76"
   stop-color="#a0a0a0" />
           <stop
   offset=".884"
   id="stop78"
   stop-color="#949494" />
           <stop
   offset=".899"
   id="stop80"
   stop-color="#8d8d8d" />
           <stop
   offset=".936"
   id="stop82"
   stop-color="#8b8b8b" />
           <stop
   offset=".94"
   id="stop84"
   stop-color="#a9a9a9" />
           <stop
   offset=".944"
   id="stop86"
   stop-color="#c4c4c4" />
           <stop
   offset=".949"
   id="stop88"
   stop-color="#dadada" />
           <stop
   offset=".955"
   id="stop90"
   stop-color="#ebebeb" />
           <stop
   offset=".962"
   id="stop92"
   stop-color="#f6f6f6" />
           <stop
   offset=".972"
   id="stop94"
   stop-color="#fdfdfd" />
           <stop
   offset="1"
   id="stop96"
   stop-color="#fff" />
         </linearGradient>
         <path
   d="M185.85 75.81c-32.8 0-119.24 54.69-119.24 54.69s13.97 105.79 27.96 134.46c12.78 26.19 64.17 81.71 83.87 102.51 4.41 5.08 7.1 8.1 7.1 8.1s.12-.12.32-.33c.2.21.32.33.32.33s2.68-3.02 7.1-8.1c19.7-20.8 71.09-76.32 83.87-102.51 13.99-28.67 27.96-134.46 27.96-134.46s-86.46-54.69-119.26-54.69zm75.13 182.2c-10.52 21.56-52.81 67.25-69.02 84.37-3.63 4.18-5.84 6.67-5.84 6.67l-.27-.27-.27.27s-2.21-2.48-5.84-6.67c-16.21-17.12-58.51-62.81-69.02-84.37-11.51-23.6-23.01-110.66-23.01-110.66s71.15-45.01 98.14-45.01c26.99 0 98.14 45.01 98.14 45.01s-11.5 87.06-23.01 110.66z"
   id="path99"
   fill="url(#SVGID_1_)"
   stroke="#061124"
   stroke-width="5"
   stroke-miterlimit="10" />
       </g><g
     id="g239">
         <path
   d="M183.75 21.29s51.09 20.86 43 89.67l25.5 15.8s20.44 41.66 12.29 57.02c-8.16 15.36-12.29 18.5-12.29 18.5H115.7s-19.37-10.79-12.23-33.73 6.12-34.15 14.27-44.86l22.94-14.27s-4.66-8.16-4.62-19.37c.03-11.2 18.39-58.01 47.69-68.76z"
   id="path103"
   fill="#d2e1fb" />
         <path
   d="M223.03 75.81s-4.63-3.87-13.27-7.5c-1.69-.71-4.04-2.85-6.03-3.51-.34-.11 2.17 2.46 1.82 2.35-6.51-2.06-12.86-5.8-27.78-4.35-20.42 1.98-52.62 25.46-32.23 52.67 0 0 4.96 4.85 15.67 8.77 10.72 3.93-13.8-2.08-19.54-11.08s0 22.72 0 22.72l.97 17.34s-7.39-13.09-8.26-14.24c-.87-1.15-3.29-10.17-13.2-11.03 0 0-2.61 2.88 9.62 14.73 5.75 5.58 5.31 9.92 5.75 12.06.44 2.14-3.88 3.86-9.22 0-5.34-3.86-8.34-6-8.34-6s-4.12 6.31 13.21 14.29c11.39 5.24.49 4.12-3.36 2.31-3.85-1.81-12.02-.3-14.16 2.6.51-.69 8.55-2.54 9.26-2.45 2.76.35 5.07 1.16 7.11 3.15 1.95 1.91 3.27 4.38 4.22 6.94.96 2.59 1.58 5.37 1.18 8.1-.95 6.54-9.11 11.07-15.27 10.76 0 0 9.81 2.66 16.24.02 6.43-2.64 18.22-3.31 24.65-.72 6.43 2.58 8.69 5.27 15.7 1.89 7.02-3.38 8.8-7.45 19.27-4.88s20.9 7.5 27.36 4.71 7.25-.74 8.6-6.43c1.35-5.69 10.46 1.13 11.71 3.14 1.25 2-.77-8.92-7.41-12.78-6.64-3.86-1.05-2.71 1.72-10.89 2.78-8.18 5.3-13.87 5.13-19.33-.17-5.46 9.44-13.66 7.18-17.65-2.25-3.99-25.14-11.66-25.14-11.66s27.81 7.49 16.88 20.33c-10.93 12.84-4.93 16.7-14.14 17.34-9.22.64-.03-8.01-.03-8.01s-10.06 2.74-5.87-3.2c4.18-5.94 15.01-13.61 14.47-22.08-.54-8.47-1.8-6.15-1.8-6.15s5.58 8.82-11.31 22.09 1.8-7.85 1.8-7.85 9.86-5.06-4.52-6.21c-3.93-.31-7.35-1.6-16.12-.1-8.77 1.5-21.37 14.16-21.37 14.16s10.46 3.2-.9 6.63-13.26-6.67 2.05-14.48 22.96-12.36 29.66-16.86c6.69-4.5 4.62-3.43 4.11 0-.5 3.43.2 4.5 3.93 0s9.1-14.55 6.76-19.88-2.9-17.69-6.76-7.93c-3.86 9.76-5.89 17.52-12.53 23.76-6.64 6.24-20 14.99-22.64 15.22-2.65.23-7.79 3.02 1.21-5.12s15.64-11.57 19.5-18.22c3.86-6.64 6.64-6.69 8.14-14.06s3.67-10.66 6.32-11.67c2.64-1.01 0-1.76 0-1.76z"
   id="path105"
   opacity=".35"
   fill="#14e0fa" />
         <g
   id="g119">
           <g
   id="g115"
   opacity=".41">
             <path
   class="st6"
   d="M183.01 31.39s14.73 9.82 12.85 14.02-5.89 7.54-5.89 7.54 11.33 8.24 12.05 8.24-9.51-1.93-9.51-1.93l8.36 6.66s-20.19-5.08-26.95 1.58-31.47 22.61-23.59 36.63c7.89 14.02 21.11 18.45 20.81 19.39s-5.38 5.33-5.38 5.33l-14.9-5.08-.7 29.45s-16.24-16.13-14.78-29.45c1.46-13.32 3.74-17.74 3.74-18.07s9.99-34.34 9.99-34.34l10.69-25.94 23.21-14.03z"
   id="path107" />
             <path
   class="st6"
   d="M124.13 132.33s13.93 6.05 14.29 28.11c0 0-10.58-1.01-15.65-5.4-.42-.36-.83-.71-1.33-.91.91 2.29 3.73 4.43 5.57 6.1 1.91 1.73 3.91 3.37 6.03 4.87 1.92 1.36 5.17 2.39 6.7 4 .51.54.79 1.25 1.01 1.94.46 1.45.28 3.8 1.6 4.82.59.46 1.32.71 2.02 1 1.89.77 3.66 1.8 5.24 3.04.44.35.91.78.92 1.32.02.6-.51 1.08-1 1.46-2.49 1.92-5.27 3.27-8.05 4.78-5.32 2.88-11.64 5.99-17.9 6.25-1.66.07-3.38-.2-4.77-1.04-.79-.48-1.46-1.12-2.02-1.83-.47-.59-.88-1.29-.81-2.02.08-.82.75-1.47 1.45-1.97 2.97-2.1 6.92-2.48 10.32-3.91 5.2-2.19 0-5.66-2.59-7.38-1.53-1.02-3.28-1.9-5.15-1.84-2.52.08-4.6 1.83-6.21 3.64-2.4 2.71-4.3 5.82-5.59 9.13.33-.86-.27-2.47-.29-3.41-.05-2.25.19-4.54.28-6.79.03-.64.05-1.29.28-1.89 1.8-4.69 10.4-10.33 15.65-8.39 7.42 2.75 7.84.18 7.84.18s-9.6 2.2-15.26-6.41 1.92-18.31 12-13c10.07 5.33-4.58-14.45-4.58-14.45z"
   id="path109" />
             <path
   class="st6"
   d="M144.73 185.64c.16.27-19.51 11.62-22.61 11.39-.32-.02-.65-.04-.94.04 2.49 1.07 6 .82 8.64.79 6.07-.06 11.79-1.07 17.59-2.76 2.73-.8 5.72-1.31 8.37-.28 2.29.89 3.99 2.8 5.81 4.46 5.5 5.03 12.82 6.53 20.13 6.17l52.41.02s13.49-2.16 13.5-2.16c-.24.04-3.05-3.69-3.36-4-2.25-2.22-5.72-5.12-9-5.27.92.04.79 5.76.58 6.43-.5 1.59-1.64 2.68-3.38 2.82.28-1.81-.85-3.61-2.36-4.63s-3.36-1.41-5.17-1.71c-7.18-1.19-14.58-1.38-21.84-1.39l5.61-5.36c-1.62 1.55-5.49 2.48-7.52 3.36-3.73 1.61-7.51 3.12-11.33 4.52-1.93.71-3.9 1.4-5.95 1.57-.36.03-.81-.02-.93-.36-.06-.18.01-.38.07-.56 2.53-6.53 8.9-12.52 15.48-14.85.44-.15.88-.31 1.28-.52-3.99.47-8.05 2.06-11.91 3.15-5.59 1.58-11.18 3.15-16.76 4.76.42-.12.89-6.2.96-6.71-2.82-.26-5.61-.86-8.44-.92-2.83-.07-5.8.47-8.02 2.22-1.37 1.08-4.13 8.5-6.65 5.42-1.48-1.82-2.85-3.76-4.26-5.64z"
   id="path111" />
             <path
   class="st6"
   d="M219.93 96.77c-11.12 9.43-22.04 19.28-32.07 29.87-3.4 3.59-6.79 7.32-9.26 11.63-2.22 3.87-4.76 10.15-3.29 14.63 1.74-2.35 2.78-5.52 4.25-8.1 1.54-2.7 3.26-5.32 5.28-7.69 8.62-10.14 21.72-12.31 34.04-8.62 1.72.52 2.94-3.11 2.98-3.24-.89 2.7 1.03 5.42.8 8.12-.24 2.69-2.47 5.76-4 7.93-2.71 3.84-6.12 7.13-9.82 10.01-1.72 1.34-3.5 2.58-5.2 3.92-.76.59-5.63 5.05-6.31 4.82 6.82 2.25 14.65 3.69 21.8 2.61 10.33-1.57 15.81-13.23 17.11-22.66-2.34 3.75-7.66 12.1-12.57 12.15 1.7-4.03 5.1-7.66 6.99-11.78 2.64-5.76 5.75-13.83 4.63-20.3-2.19 2.63-3.63 6.19-5.69 9.01-.29.39-.64.81-1.12.84-.69.04-1.14-.76-1.15-1.45-.01-.79.54-2.24-.06-2.96-.32-.38-2.48-.64-2.39-.19-.39-2.16.13-4.36.55-6.51 1.33-6.92 1.4-13.98.83-20.99l-6.33-1.05z"
   id="path113" />
           </g>
           <path
   d="M255.62 191.99c-.53-.35-16.11-14.53-18.23-14.72-.84-.08 1.47-1.87 1.77-2.14 1.35-1.24 2.57-2.58 3.61-4.1 2.06-3.01 3.39-6.53 3.77-10.16.05-.46 5.95.96 6.43 1.15 2.23.88 4.22 2.45 4.57 4.97-.57-4.03-2.82-9.12-5.95-11.76-.47-.4-.99-.79-1.2-1.37-.29-.82.14-1.71.62-2.45 1.23-1.91 2.8-3.61 4.61-4.99-4.15.04-8.6-.7-12.37 1.41 1.32-2.44 3.06-4.62 4.85-6.72 1.67-1.95 4.18-3.95 5.32-6.2-.36-.09-2.56-.44-2.84-.12-3.85 4.36-7.28 9.39-9.7 14.68-1.47 3.21-2.12 6.68-3.46 9.94-2.32 5.67-5.56 10.99-8.92 16.09-.77 1.17-1.68 2.31-2.33 3.54.3-.58 10.25 4.27 11.15 4.9 5.19 3.58 7.41 8.63 10.77 13.68.78 1.18 2.5 4.44 4.18 4.72l3.35-10.35z"
   id="path117"
   opacity=".41"
   fill="#54575b" />
         </g>
         <g
   id="g203">
           <g
   id="g127">
             <path
   class="st8"
   d="M130.67 167.93c-2.27-.82-4.35-1.45-5.86-1.9 0 .01 2.61.86 5.86 1.9z"
   id="path121" />
             <path
   class="st8"
   d="M136.55 143.17c-1.03-3.01-2.42-5.86-4.35-8.38 1.02 2.03 1.53 4.47 4.35 8.38z"
   id="path123" />
             <path
   class="st8"
   d="M254.54 123.91c-.32-.3-.74-.53-1.13-.72-6.66-3.32-13.9-5.85-20.36-9.43 1.88-5.48 4.52-10.78 3.92-16.8C231.72 43.43 184.19 21 184.19 21c-12.87 4.36-20.09 12.09-27.1 21.8-7.82 10.83-14.67 21.56-19.08 35.4-2.35 7.38-6.61 14.39-6.05 22.11.36 5.01 2.07 7.89 4.47 10.38-1.51.6-17.14 6.89-19.8 10.11-2.79 3.39-10.52 14.37-13.51 30.11s-1.24 39.04-1.24 39.04l7.97 11.96h14.75c-15.52-7.15-16.66-21.64-14.16-37.23.17-1.04.37-2.12.97-3 2.23-3.31 11.22-2.75 14.59-1.82-4.05-1.11-10.2-3.03-11.74-7.38-1.31-3.7-.56-8.13-.49-11.97.02-1.17.11-2.5 1-3.26 2.69-2.32 12.36 2.79 15.22 3.55 0 0-4.35-8.77-6.16-11-1.22-1.51 5.47 1.82 6.28 2.61.76.75 1.45 1.55 2.09 2.38-1.06-2.1-2.68-3.77-7.99-6.21 0 0 13.59-8.45 18.98-11.7 2.26 2.42 3.04 5.98 3.43 9.15.21 1.7-.98 8.12-.13 9.21-1.13-1.44-2.26-2.87-3.39-4.31-1.26 8.49 1.09 17.41 6.18 24.31-2.45-1.45-5.49-3.83-9.13-7.73-1.52-1.63-2.68-3.06-3.6-4.33 1.7 4.99 2.45 10.41 3.17 15.46-6-.05-11.98-1.98-16.88-5.44 7.79 5.51 18.17 8.41 20.2 18.77-1.08-.38-7.46-2.44-12.37-4.02 6.24 2.25 13.86 5.89 14.78 10.89 1.22 6.63-14.04 15.77-19.25 16.5 0 0 14.15-1.99 19.73-8.77l4.78 4.18c-1.95-1.7 3.92-9.31 5.23-10.11 1.91-1.17 4.22-1.4 6.45-1.57 7.1-.56 16.18-2.13 23.03-.59-2.9 1.65-5.09 4.58-8 6.09 8.66-4.51 32.98-13.65 41.44-5.18 3.39 3.39.4 6.77 0 7.57-.4.8 4.78-5.11 9.96-4.95 5.18.17 12.35 4.35 14.94 8.53s-1-8.37-9.77-10.76c-2.38-.65-4.79-1.24-7.27-1.12 3.86-.18 9.35-10.1 10.72-13.07 2.44-5.29 3.83-11.19 4.93-16.89.75-3.91 6.38-11.1 9.1-14.4 3.2 5.86 9.26 17.89 10.57 27.16 1.79 12.74-12.56 40.83-12.56 40.83h8.24s13.76-14.83 13.76-24.52c-.01-9.68-11.71-51.07-16.94-53.86zm-88.09.08c-5.05-.84-12.75-4.38-17.54-10.56-1.49-1.93-1.96-.94-1.89 1.33-8.68-13.06-4.38-30.36 6.99-40.95a42.954 42.954 0 0 1 19.95-10.46c.49-.11 9.3-1.44 9.31-.94 0-.05-.54-25.68-.54-25.68-9.96 1.74-28.75 25.86-28.75 25.86 13.92-25.5 30.21-30.92 30.21-30.92 20.08 2.35 37.61 45.39 37.61 45.39-4.62-2.66-12.92-7.97-17.08-11.21.91.71 4.27 4.51 5.16 5.25-7.63-5.14-18.2-8.59-32.47-7.09 0 0-26.1 4.38-30.49 30.09-4.38 25.7 32.88 29.89 32.88 29.89s-10.05.55-13.35 0zm71.54 28.5c-8.77 15.95-27.18 13.92-41.1 7.39 3.86 1.81 16.8-5.46 19.79-7.84 4.42-3.51 12.04-10.43 12.94-16.28.4-2.59-9.76 7.57-9.76 7.57l12.95-16.74-8.97 6.58v-8.77c-.72 2.87-1.48 5.74-2.12 8.62-3.18-1.18-6.38-3.15-9.84-4.04-3.43-.88-7.19-.9-10.37.66-2.36 1.16-4.24 3.09-6.01 5.03-6.16 6.73-11.58 14.07-16.57 21.64-1.32-6.46 2.05-14.34 5.65-19.55 7.17-10.36 18.93-15.14 24.91-20.52 5.98-5.38 9.37-7.97 13.35-17.93 0 0 1.59 6.38-.8 11.56-1.87 4.06 3.72-3.26 4.69-11.23.35 4.32-.29 8.65-2.23 12.52-2.4 4.79-6.51 8.47-10.55 12.01 4.33-2.06 9.1-4.18 13.76-3.04 1.58.39 3.04 1.13 4.49 1.87 5.76 2.93 11.51 5.87 17.27 8.8.01.01.74 1.24 1.86 3.27-2.54 2.47-7.78 8.29-13.34 18.42z"
   id="path125" />
           </g>
           <g
   id="g201">
             <g
   id="g155">
               <path
   class="st9"
   d="m184.82 115.21 6.76-6.19c.64-.58.22-1.64-.64-1.64h-13.53c-.86 0-1.28 1.06-.64 1.64l6.76 6.19c.37.33.92.33 1.29 0z"
   id="path129" />
               <g
   id="g139">
                 <defs
   id="defs132">
                   <path
   id="SVGID_00000024697531637942283230000014172444891191630735_"
   d="m184.82 115.21 6.76-6.19c.64-.58.22-1.64-.64-1.64h-13.53c-.86 0-1.28 1.06-.64 1.64l6.76 6.19c.37.33.92.33 1.29 0z" />
                 </defs>
                 <clipPath
   id="SVGID_00000099634913943654754230000004309403123890958003_">
                   <use
   xlink:href="#SVGID_00000024697531637942283230000014172444891191630735_"
   id="use134"
   overflow="visible" />
                 </clipPath>
                 <path
   d="M192.92 106.65c.11-.35 3.74 1.2 2.34 2.89-3.01 3.66-7.19 6.07-10.17 9.8-.42.53-.83 1.08-1.1 1.7-.12.27-.21.59-.11.87.17.45.76.59 1.23.5-1.57-.16-6.76.18-5.42-2.88 1.47-3.35 13.23-12.88 13.23-12.88z"
   clip-path="url(#SVGID_00000099634913943654754230000004309403123890958003_)"
   id="path137"
   fill="#a73b36" />
               </g>
               <path
   class="st9"
   d="m185.24 98.35 11.27 10.32c1.06.97.37 2.74-1.07 2.74H172.9c-1.44 0-2.13-1.77-1.07-2.74l11.27-10.32c.61-.55 1.54-.55 2.14 0z"
   id="path141" />
               <g
   id="g153">
                 <g
   id="g151">
                   <defs
   id="defs144">
                     <path
   id="SVGID_00000103260597509428808330000004756641564295373974_"
   d="m185.24 98.35 11.27 10.32c1.06.97.37 2.74-1.07 2.74H172.9c-1.44 0-2.13-1.77-1.07-2.74l11.27-10.32c.61-.55 1.54-.55 2.14 0z" />
                   </defs>
                   <clipPath
   id="SVGID_00000165221004256332169790000009841979933269750928_">
                     <use
   xlink:href="#SVGID_00000103260597509428808330000004756641564295373974_"
   id="use146"
   overflow="visible" />
                   </clipPath>
                   <path
   d="M197.2 108.24s-15.89 5.23-26.23.58c0 0-2.51 8.95 15.23 6.08s11-6.66 11-6.66z"
   clip-path="url(#SVGID_00000165221004256332169790000009841979933269750928_)"
   id="path149"
   fill="#a73b36" />
                 </g>
               </g>
             </g>
             <g
   id="g177">
               <g
   id="g173">
                 <defs
   id="defs158">
                   <circle
   id="SVGID_00000087401524890075001400000016285936864657069720_"
   cx="172.31"
   cy="89.24"
   r="5.45" />
                 </defs>
                 <clipPath
   id="SVGID_00000099652481103092012110000000622108389987454903_">
                   <use
   xlink:href="#SVGID_00000087401524890075001400000016285936864657069720_"
   id="use160"
   overflow="visible" />
                 </clipPath>
                 <g
   clip-path="url(#SVGID_00000099652481103092012110000000622108389987454903_)"
   id="g171">
                   <circle
   class="st13"
   cx="172.47"
   cy="89.24"
   r="5.45"
   id="circle163" />
                   <circle
   class="st14"
   cx="172.15"
   cy="93.69"
   r="5.45"
   id="circle165" />
                   <circle
   class="st8"
   cx="172.47"
   cy="89.24"
   r="1.82"
   id="circle167" />
                   <circle
   class="st15"
   cx="173.82"
   cy="88.03"
   r="1.21"
   id="circle169" />
                 </g>
               </g>
               <path
   class="st8"
   id="polygon175"
   d="m165.04 82.96 14.65 8.81 1.82-10.39-14.59-5.57z" />
             </g>
             <g
   id="g199">
               <g
   id="g195">
                 <defs
   id="defs180">
                   <circle
   id="SVGID_00000055688515122760669770000008838657463372093628_"
   cx="196.59"
   cy="89.24"
   r="5.45" />
                 </defs>
                 <clipPath
   id="SVGID_00000011019051915976754580000008412525461151162786_">
                   <use
   xlink:href="#SVGID_00000055688515122760669770000008838657463372093628_"
   id="use182"
   overflow="visible" />
                 </clipPath>
                 <g
   clip-path="url(#SVGID_00000011019051915976754580000008412525461151162786_)"
   id="g193">
                   <circle
   class="st13"
   cx="196.75"
   cy="89.24"
   r="5.45"
   id="circle185" />
                   <circle
   class="st14"
   cx="196.43"
   cy="93.69"
   r="5.45"
   id="circle187" />
                   <circle
   class="st8"
   cx="196.75"
   cy="89.24"
   r="1.82"
   id="circle189" />
                   <circle
   class="st15"
   cx="198.1"
   cy="88.03"
   r="1.21"
   id="circle191" />
                 </g>
               </g>
               <path
   class="st8"
   id="polygon197"
   d="m203.19 84.72-14.65 8.8-1.83-10.38 14.6-5.57z" />
             </g>
           </g>
         </g>
         <g
   id="g237">
           <path
   class="st17"
   d="M229.6 195.85h-90.57c-2.55 0-4.67-1.95-4.89-4.49l-4.13-47.95a4.903 4.903 0 0 1 4.89-5.33h98.56c2.87 0 5.12 2.45 4.89 5.3l-3.86 47.95a4.906 4.906 0 0 1-4.89 4.52z"
   id="path205" />
           <g
   class="st18"
   id="g215">
             <defs
   id="defs208">
               <path
   id="SVGID_00000080920374391072134450000005035094420178829234_"
   class="st18"
   d="M226.93 198.34h-90.57c-2.55 0-4.67-1.95-4.89-4.49l-4.13-47.95a4.903 4.903 0 0 1 4.89-5.33h98.56c2.87 0 5.12 2.45 4.89 5.3l-3.86 47.95a4.898 4.898 0 0 1-4.89 4.52z" />
             </defs>
             <clipPath
   id="SVGID_00000145033756012024774010000016590805017895636159_">
               <use
   xlink:href="#SVGID_00000080920374391072134450000005035094420178829234_"
   id="use210"
   overflow="visible" />
             </clipPath>
             <ellipse
   cx="222.44"
   cy="143.78"
   rx="47.99"
   ry="45.07"
   clip-path="url(#SVGID_00000145033756012024774010000016590805017895636159_)"
   id="ellipse213"
   fill="#b1b1b1" />
           </g>
           <g
   id="g221">
             <path
   transform="rotate(34.805 174.153 162.88)"
   id="rect217"
   fill="#f1082a"
   d="M173.37 160.75h1.55v4.23h-1.55z" />
             <path
   d="M171.37 173.29c-1.7.04-4.18-2.02-4.43-3.66-.07-.45.12-.68.5-.88 1.26-.66 2.26-1.62 3.06-2.79.56-.83.44-1.05-.41-1.14.68-1.05 1.42-2.13 2.1-3.25.85-1.4 1.92-2.61 3.19-3.63 2.82-2.26 5.14-5 7.47-7.72.22-.26.44-.53.69-.77-.87 2.44-2.12 4.66-3.72 6.71 2.56-2.19 4.8-4.67 6.83-7.35.06.04.13.08.19.12-1.16 2.13-2.32 4.26-3.49 6.4 1.89-.28 3.39-1.49 5.16-2.4l-.14 1.57c1.3-.53 2.53-1.03 3.92-1.6-.21.67-.37 1.21-.57 1.85 1.46-.15 2.81-.28 4.29-.43l-1.29 1.68c1.43.27 2.78.52 4.29.8-.52.44-.95.81-1.43 1.22 1.08.71 2.11 1.38 3.31 2.17-.72.23-1.27.41-1.89.6.79 1.09 1.56 2.15 2.41 3.33-.73.05-1.33.09-2.03.13.29 1.25.57 2.47.89 3.85-.68-.31-1.19-.54-1.78-.8-.36 1.24-.7 2.42-1.06 3.68l-1.08-1.02c-1.92 1.84-4.25 2.98-6.59 4.07-1.98.92-4.02 1.72-6.01 2.64-2.11.98-4.05 2.22-5.59 4.03-1 1.17-1.51 2.55-1.79 4.03-.03.13-.06.27-.17.39-.24-1.46-.24-2.87.4-4.26 1.4-3.04 3.89-4.93 6.74-6.42 2.29-1.19 4.67-2.23 6.93-3.49 1.77-.99 3.28-2.34 4.42-4.06 2.15-3.24.79-7.13-2.95-8.24-3.64-1.07-6.96-.2-9.93 2.04-.96.73-1.89 1.59-2.6 2.55-1.11 1.51-2.55 2.55-4.08 3.55-1.03.68-2.04 1.44-2.9 2.32-1.39 1.45-1.5 2.32-.86 4.18zm1.7-10.06c.82-.49 1.79-.86 2.02-1.87l-.26-.23c-.59.7-1.17 1.4-1.76 2.1z"
   id="path219" />
           </g>
           <path
   class="st17"
   d="M230.78 203.62h-92.33a2.21 2.21 0 0 1-2.21-2.21V200c0-1.22.99-2.21 2.21-2.21h92.33c1.22 0 2.21.99 2.21 2.21v1.41c0 1.22-.99 2.21-2.21 2.21z"
   id="path223" />
           <g
   id="g231">
             <path
   id="rect225"
   d="M142.94 199.34h.97v2.74h-.97z" />
             <path
   id="rect227"
   d="M141.66 199.34h.97v2.74h-.97z" />
             <path
   id="rect229"
   d="M144.25 199.33h2.55v2.74h-2.55z" />
           </g>
           <circle
   cx="219.1"
   cy="200.71"
   r="1.36"
   id="circle233"
   fill="#dc22cb" />
           <circle
   cx="223.03"
   cy="200.72"
   r="1.36"
   id="circle235"
   fill="#1a0d98" />
         </g>
       </g><path
     class="st8"
     id="rect241"
     d="M111.61 200.71h149.65v6.13H111.61z" /><g
     id="g267">
         <g
   id="g253">
           <g
   id="g251">
             <path
   class="st0"
   d="M34.11 318.73c-6.54 1-11.53 1.44-15.01 1.15v-23.27c8.33-3.25 16.73-6.25 25.19-9 0 2.43.54 4.02 1.62 4.77s3.04.67 5.9-.2c2.39-.73 4.12-1.61 5.16-2.66s1.57-2.32 1.57-3.81c0-1.25-.5-2.19-1.51-2.79-1.01-.6-2.75-1.01-5.22-1.2-3.32-.16-6.63-.28-9.94-.36-8.52-.46-14.59-2.08-18.27-5.15-3.68-3.07-5.51-8.37-5.51-15.97 0-9.24 2.93-17.45 8.82-24.46 5.9-6.99 15.76-12.96 29.77-17.1 6.73-1.98 13.1-3 19.07-3.11 5.98-.11 10.82.64 14.51 2.12v21.04c-7.85 1.68-15.68 3.57-23.45 5.66 0-3.91-2.42-5.24-7.22-3.87-2.33.67-3.97 1.45-4.94 2.33-.97.88-1.45 2.06-1.45 3.55 0 1.33.56 2.22 1.68 2.67 1.12.45 2.96.73 5.52.86 3.37.21 6.76.47 10.15.76 8.26.67 14.32 2.99 18.13 6.66 3.81 3.68 5.72 9.2 5.72 16.48 0 9.96-3.37 18.13-10.07 24.74-6.7 6.63-16.5 11.53-29.27 15.32-7.43 2.21-14.41 3.84-20.95 4.84z"
   id="path243" />
             <path
   class="st0"
   d="M97.69 301.72v-19.27c1.97-.39 3.94-.76 5.91-1.12v-52.88c-1.97.36-3.94.73-5.91 1.12V210.3c16.62-3.27 33.37-5.61 50.18-7.02v19.27c-3.67.31-7.33.66-10.99 1.06v52.88c3.58-.39 7.16-.73 10.75-1.04v-10.81c7.93-.67 15.87-1.14 23.82-1.39v30.08c-24.72.8-49.39 3.6-73.76 8.39z"
   id="path245" />
             <path
   class="st0"
   d="M187.69 286.62c-6.83-5.42-10.25-14.08-10.25-26.24v-39.37c-2 .04-3.99.09-5.99.16V201.9c14.77-.48 29.57-.25 44.32.69v19.27c-1.6-.1-3.19-.2-4.79-.28v45.36c0 2.59.58 4.52 1.74 5.8 1.16 1.28 2.89 1.99 5.21 2.15 2.31.16 4.04-.31 5.2-1.43 1.15-1.12 1.73-2.97 1.73-5.56v-45.36c-1.59-.13-3.19-.26-4.78-.38v-19.27c13.67 1 27.31 2.62 40.88 4.84V227c-1.98-.32-3.96-.64-5.94-.93v39.37c0 12.15-3.28 20.4-9.87 24.95-6.59 4.56-16.05 6.17-28.42 5.35-12.52-.84-22.21-3.69-29.04-9.12z"
   id="path247" />
             <path
   class="st0"
   d="M265.23 280.6c1.97.34 3.95.7 5.92 1.07V228.9c-1.97-.37-3.94-.73-5.92-1.07v-19.39c16.04 2.79 31.96 6.43 47.7 10.93 12.95 3.71 23.12 10.79 30.63 20.69 7.5 9.91 11.22 23.08 11.22 39.21 0 16.15-3.72 26.29-11.22 30.72-7.51 4.45-17.68 4.53-30.63.82-15.74-4.5-31.66-8.15-47.7-10.93V280.6zm45.6 10.35c2.64.74 4.61.61 5.93-.41 1.32-1.02 1.97-3.02 1.97-5.99v-35.49c0-5.79-2.63-9.5-7.9-10.99-2.25-.63-4.51-1.25-6.76-1.84v52.88c2.26.59 4.51 1.2 6.76 1.84z"
   id="path249" />
           </g>
         </g>
         <g
   id="g265">
           <g
   id="g263">
             <path
   class="st1"
   d="M34.22 320.13c-6.52 1.06-11.5 1.54-14.97 1.28v-23.27c8.31-3.33 16.69-6.4 25.13-9.21 0 2.43.54 4.01 1.61 4.75 1.08.75 3.03.65 5.89-.25 2.39-.75 4.11-1.64 5.15-2.7 1.04-1.06 1.57-2.33 1.57-3.82 0-1.25-.5-2.18-1.51-2.78-1.01-.6-2.74-.99-5.21-1.16-3.32-.14-6.62-.23-9.92-.29-8.51-.4-14.56-1.96-18.23-5s-5.5-8.32-5.5-15.92c0-9.24 2.92-17.48 8.8-24.54 5.88-7.04 15.73-13.1 29.72-17.33 6.72-2.03 13.08-3.08 19.05-3.23 5.97-.14 10.81.58 14.5 2.04v21.04c-7.85 1.72-15.66 3.65-23.43 5.79 0-3.91-2.41-5.23-7.21-3.82-2.32.68-3.97 1.48-4.93 2.36-.97.88-1.45 2.07-1.45 3.56 0 1.33.56 2.22 1.68 2.66 1.12.44 2.95.71 5.51.82 3.37.19 6.75.42 10.13.7 8.25.62 14.31 2.91 18.11 6.56 3.8 3.66 5.71 9.17 5.71 16.45 0 9.96-3.37 18.14-10.06 24.79-6.69 6.66-16.48 11.62-29.23 15.5-7.43 2.28-14.39 3.97-20.91 5.02z"
   id="path255" />
             <path
   class="st1"
   d="M97.71 302.71v-19.27c1.97-.4 3.94-.78 5.91-1.15v-52.88c-1.97.37-3.94.75-5.91 1.15v-19.27c16.6-3.34 33.35-5.74 50.16-7.18v19.27c-3.66.32-7.33.68-10.98 1.08v52.88c3.58-.4 7.16-.75 10.75-1.06v-10.81c7.93-.69 15.87-1.16 23.82-1.43v30.08c-24.73.83-49.39 3.69-73.75 8.59z"
   id="path257" />
             <path
   class="st1"
   d="M187.69 287.41c-6.83-5.42-10.25-14.08-10.25-26.24V221.8c-2 .04-3.99.09-5.99.16v-19.27c14.77-.49 29.57-.26 44.32.71v19.27c-1.6-.1-3.19-.2-4.79-.29v45.36c0 2.59.58 4.52 1.74 5.8 1.16 1.28 2.89 1.99 5.2 2.16 2.31.16 4.04-.31 5.2-1.43 1.15-1.12 1.73-2.97 1.73-5.55v-45.36c-1.59-.14-3.19-.26-4.78-.38v-19.27c13.67 1.03 27.31 2.68 40.87 4.96v19.27c-1.98-.33-3.95-.65-5.93-.96v39.37c0 12.15-3.28 20.38-9.87 24.91-6.59 4.54-16.05 6.12-28.41 5.28-12.52-.84-22.21-3.69-29.04-9.13z"
   id="path259" />
             <path
   class="st1"
   d="M265.21 281.56c1.97.35 3.95.72 5.92 1.09v-52.77c-1.97-.38-3.94-.74-5.92-1.09V209.4a447.33 447.33 0 0 1 47.65 11.19c12.93 3.8 23.08 10.96 30.57 20.92 7.49 9.97 11.19 23.18 11.19 39.3 0 16.15-3.71 26.25-11.19 30.62-7.49 4.38-17.64 4.38-30.57.59a448.476 448.476 0 0 0-47.65-11.19v-19.27zm45.57 10.58c2.64.76 4.61.65 5.92-.37 1.31-1.01 1.97-3 1.97-5.98V250.3c0-5.79-2.62-9.52-7.89-11.05-2.25-.65-4.5-1.28-6.75-1.89v52.88c2.25.62 4.5 1.25 6.75 1.9z"
   id="path261" />
           </g>
         </g>
       </g><g
     id="g369"
     fill="url(#radialGradient9920)"
     fill-opacity="1"
     style="fill:url(#radialGradient9920)"
     transform="translate(-0.12,1.4534426)">
         <linearGradient
   id="SVGID_00000041293135197254196560000013797447786630394241_"
   gradientUnits="userSpaceOnUse"
   x1="56.602001"
   y1="216.664"
   x2="56.602001"
   y2="321.48401">
           <stop
   offset="0"
   id="stop269"
   stop-color="#868686"
   fill-opacity="1"
   fill="url(#radialGradient9920)" />
           <stop
   offset=".293"
   id="stop271"
   stop-color="#fff"
   fill-opacity="1"
   fill="url(#radialGradient9920)" />
           <stop
   offset=".547"
   id="stop273"
   stop-color="#fff"
   fill-opacity="1"
   fill="url(#radialGradient9920)" />
           <stop
   offset=".548"
   id="stop275"
   stop-color="#fbfbfb"
   fill-opacity="1"
   fill="url(#radialGradient9920)" />
           <stop
   offset=".552"
   id="stop277"
   stop-color="#dcdcdc"
   fill-opacity="1"
   fill="url(#radialGradient9920)" />
           <stop
   offset=".556"
   id="stop279"
   stop-color="#c1c1c1"
   fill-opacity="1"
   fill="url(#radialGradient9920)" />
           <stop
   offset=".56"
   id="stop281"
   stop-color="#ababab"
   fill-opacity="1"
   fill="url(#radialGradient9920)" />
           <stop
   offset=".566"
   id="stop283"
   stop-color="#9a9a9a"
   fill-opacity="1"
   fill="url(#radialGradient9920)" />
           <stop
   offset=".573"
   id="stop285"
   stop-color="#8f8f8f"
   fill-opacity="1"
   fill="url(#radialGradient9920)" />
           <stop
   offset=".582"
   id="stop287"
   stop-color="#888"
   fill-opacity="1"
   fill="url(#radialGradient9920)" />
           <stop
   offset=".609"
   id="stop289"
   stop-color="#868686"
   fill-opacity="1"
   fill="url(#radialGradient9920)" />
         </linearGradient>
         <path
   d="m 34.5,320.13 c -6.52,1.06 -11.5,1.54 -14.97,1.28 v -23.27 c 8.31,-3.33 16.69,-6.4 25.13,-9.21 0,2.43 0.54,4.01 1.61,4.75 1.08,0.75 3.04,0.65 5.89,-0.25 2.39,-0.75 4.11,-1.64 5.15,-2.7 1.04,-1.06 1.57,-2.33 1.57,-3.82 0,-1.25 -0.5,-2.18 -1.51,-2.78 -1.01,-0.6 -2.75,-0.99 -5.21,-1.16 -3.32,-0.14 -6.62,-0.23 -9.92,-0.29 -8.51,-0.4 -14.56,-1.96 -18.23,-5 -3.67,-3.04 -5.5,-8.32 -5.5,-15.92 0,-9.24 2.92,-17.48 8.8,-24.54 5.88,-7.04 15.73,-13.1 29.72,-17.33 6.72,-2.03 13.08,-3.08 19.05,-3.23 5.97,-0.14 10.81,0.58 14.5,2.04 v 21.04 c -7.85,1.72 -15.66,3.65 -23.43,5.79 0,-3.91 -2.41,-5.23 -7.21,-3.82 -2.32,0.68 -3.97,1.48 -4.93,2.36 -0.97,0.88 -1.45,2.07 -1.45,3.56 0,1.33 0.56,2.22 1.68,2.66 1.12,0.44 2.95,0.71 5.51,0.82 3.37,0.19 6.75,0.42 10.13,0.7 8.25,0.62 14.31,2.91 18.11,6.56 3.8,3.66 5.71,9.17 5.71,16.45 0,9.96 -3.37,18.14 -10.06,24.79 -6.69,6.66 -16.48,11.62 -29.23,15.5 -7.42,2.28 -14.38,3.97 -20.91,5.02 z"
   id="path292"
   stroke="#061124"
   stroke-width="8"
   stroke-miterlimit="10"
   style="fill:url(#radialGradient1035)" />
         <linearGradient
   id="SVGID_00000062168603948953996480000009807334341154683578_"
   gradientUnits="userSpaceOnUse"
   x1="134.867"
   y1="204.10201"
   x2="134.867"
   y2="302.715">
           <stop
   offset="0"
   id="stop294"
   stop-color="#868686"
   fill-opacity="1"
   fill="url(#radialGradient9920)" />
           <stop
   offset=".293"
   id="stop296"
   stop-color="#fff"
   fill-opacity="1"
   fill="url(#radialGradient9920)" />
           <stop
   offset=".523"
   id="stop298"
   stop-color="#fff"
   fill-opacity="1"
   fill="url(#radialGradient9920)" />
           <stop
   offset=".524"
   id="stop300"
   stop-color="#fbfbfb"
   fill-opacity="1"
   fill="url(#radialGradient9920)" />
           <stop
   offset=".536"
   id="stop302"
   stop-color="#dcdcdc"
   fill-opacity="1"
   fill="url(#radialGradient9920)" />
           <stop
   offset=".548"
   id="stop304"
   stop-color="#c1c1c1"
   fill-opacity="1"
   fill="url(#radialGradient9920)" />
           <stop
   offset=".562"
   id="stop306"
   stop-color="#ababab"
   fill-opacity="1"
   fill="url(#radialGradient9920)" />
           <stop
   offset=".579"
   id="stop308"
   stop-color="#9a9a9a"
   fill-opacity="1"
   fill="url(#radialGradient9920)" />
           <stop
   offset=".6"
   id="stop310"
   stop-color="#8f8f8f"
   fill-opacity="1"
   fill="url(#radialGradient9920)" />
           <stop
   offset=".629"
   id="stop312"
   stop-color="#888"
   fill-opacity="1"
   fill="url(#radialGradient9920)" />
           <stop
   offset=".71"
   id="stop314"
   stop-color="#868686"
   fill-opacity="1"
   fill="url(#radialGradient9920)" />
         </linearGradient>
         <path
   d="m 98,302.71 v -19.27 c 1.97,-0.4 3.94,-0.78 5.91,-1.15 v -52.88 c -1.97,0.37 -3.94,0.75 -5.91,1.15 v -19.27 c 16.6,-3.34 33.35,-5.74 50.16,-7.18 v 19.27 c -3.66,0.32 -7.33,0.68 -10.98,1.08 v 52.88 c 3.58,-0.4 7.16,-0.75 10.75,-1.06 v -10.81 c 7.93,-0.69 15.87,-1.16 23.82,-1.43 v 30.08 c -24.73,0.83 -49.4,3.69 -73.75,8.59 z"
   id="path317"
   stroke="#061124"
   stroke-width="8"
   stroke-miterlimit="10"
   style="fill:url(#radialGradient1037)" />
         <linearGradient
   id="SVGID_00000174602950631366302720000001410080400941283509_"
   gradientUnits="userSpaceOnUse"
   x1="216.485"
   y1="202.44701"
   x2="216.485"
   y2="296.76001">
           <stop
   offset="0"
   id="stop319"
   stop-color="#868686"
   fill-opacity="1"
   fill="url(#radialGradient9920)" />
           <stop
   offset=".234"
   id="stop321"
   stop-color="#fff"
   fill-opacity="1"
   fill="url(#radialGradient9920)" />
           <stop
   offset=".547"
   id="stop323"
   stop-color="#fff"
   fill-opacity="1"
   fill="url(#radialGradient9920)" />
           <stop
   offset=".548"
   id="stop325"
   stop-color="#fbfbfb"
   fill-opacity="1"
   fill="url(#radialGradient9920)" />
           <stop
   offset=".552"
   id="stop327"
   stop-color="#dcdcdc"
   fill-opacity="1"
   fill="url(#radialGradient9920)" />
           <stop
   offset=".556"
   id="stop329"
   stop-color="#c1c1c1"
   fill-opacity="1"
   fill="url(#radialGradient9920)" />
           <stop
   offset=".56"
   id="stop331"
   stop-color="#ababab"
   fill-opacity="1"
   fill="url(#radialGradient9920)" />
           <stop
   offset=".566"
   id="stop333"
   stop-color="#9a9a9a"
   fill-opacity="1"
   fill="url(#radialGradient9920)" />
           <stop
   offset=".573"
   id="stop335"
   stop-color="#8f8f8f"
   fill-opacity="1"
   fill="url(#radialGradient9920)" />
           <stop
   offset=".582"
   id="stop337"
   stop-color="#888"
   fill-opacity="1"
   fill="url(#radialGradient9920)" />
           <stop
   offset=".609"
   id="stop339"
   stop-color="#868686"
   fill-opacity="1"
   fill="url(#radialGradient9920)" />
         </linearGradient>
         <path
   d="m 187.97,287.41 c -6.83,-5.42 -10.25,-14.08 -10.25,-26.24 V 221.8 c -2,0.04 -3.99,0.09 -5.99,0.16 v -19.27 c 14.77,-0.49 29.57,-0.26 44.32,0.71 v 19.27 c -1.6,-0.1 -3.19,-0.2 -4.79,-0.29 v 45.36 c 0,2.59 0.58,4.52 1.74,5.8 1.16,1.28 2.89,1.99 5.2,2.16 2.31,0.16 4.04,-0.31 5.2,-1.43 1.15,-1.12 1.73,-2.97 1.73,-5.55 v -45.36 c -1.59,-0.14 -3.19,-0.26 -4.78,-0.38 v -19.27 c 13.67,1.03 27.31,2.68 40.87,4.96 v 19.27 c -1.98,-0.33 -3.95,-0.65 -5.93,-0.96 v 39.37 c 0,12.15 -3.28,20.38 -9.87,24.91 -6.59,4.54 -16.05,6.12 -28.41,5.28 -12.52,-0.84 -22.21,-3.69 -29.04,-9.13 z"
   id="path342"
   stroke="#061124"
   stroke-width="8"
   stroke-miterlimit="10"
   style="fill:url(#radialGradient1039)" />
         <linearGradient
   id="SVGID_00000052820731710317805040000011026942546751797906_"
   gradientUnits="userSpaceOnUse"
   x1="310.20901"
   y1="209.40199"
   x2="310.20901"
   y2="314.79599">
           <stop
   offset="0"
   id="stop344"
   stop-color="#868686"
   fill-opacity="1"
   fill="url(#radialGradient9920)" />
           <stop
   offset=".293"
   id="stop346"
   stop-color="#fff"
   fill-opacity="1"
   fill="url(#radialGradient9920)" />
           <stop
   offset=".547"
   id="stop348"
   stop-color="#fff"
   fill-opacity="1"
   fill="url(#radialGradient9920)" />
           <stop
   offset=".548"
   id="stop350"
   stop-color="#fbfbfb"
   fill-opacity="1"
   fill="url(#radialGradient9920)" />
           <stop
   offset=".552"
   id="stop352"
   stop-color="#dcdcdc"
   fill-opacity="1"
   fill="url(#radialGradient9920)" />
           <stop
   offset=".556"
   id="stop354"
   stop-color="#c1c1c1"
   fill-opacity="1"
   fill="url(#radialGradient9920)" />
           <stop
   offset=".56"
   id="stop356"
   stop-color="#ababab"
   fill-opacity="1"
   fill="url(#radialGradient9920)" />
           <stop
   offset=".566"
   id="stop358"
   stop-color="#9a9a9a"
   fill-opacity="1"
   fill="url(#radialGradient9920)" />
           <stop
   offset=".573"
   id="stop360"
   stop-color="#8f8f8f"
   fill-opacity="1"
   fill="url(#radialGradient9920)" />
           <stop
   offset=".582"
   id="stop362"
   stop-color="#888"
   fill-opacity="1"
   fill="url(#radialGradient9920)" />
           <stop
   offset=".582"
   id="stop364"
   stop-color="#868686"
   fill-opacity="1"
   fill="url(#radialGradient9920)" />
         </linearGradient>
         <path
   d="m 265.5,281.56 c 1.97,0.35 3.95,0.72 5.92,1.09 v -52.77 c -1.97,-0.38 -3.94,-0.74 -5.92,-1.09 V 209.4 a 447.33,447.33 0 0 1 47.65,11.19 c 12.93,3.8 23.08,10.96 30.57,20.92 7.49,9.97 11.19,23.18 11.19,39.3 0,16.15 -3.71,26.25 -11.19,30.62 -7.49,4.38 -17.64,4.38 -30.57,0.59 A 448.476,448.476 0 0 0 265.5,300.83 Z m 45.56,10.58 c 2.63,0.76 4.61,0.65 5.92,-0.37 1.31,-1.01 1.97,-3 1.97,-5.98 V 250.3 c 0,-5.79 -2.62,-9.52 -7.89,-11.05 -2.25,-0.65 -4.5,-1.28 -6.75,-1.89 v 52.88 c 2.25,0.62 4.5,1.25 6.75,1.9 z"
   id="path367"
   stroke="#061124"
   stroke-width="8"
   stroke-miterlimit="10"
   style="fill:url(#radialGradient1041)" />
       </g><g
     id="g379">
         <text
   transform="translate(114.674 350.854)"
   id="text377"
   font-size="69.56"
   font-family="AlfaSlabOne-Regular"
   fill="#06dafa"
   stroke="#061124"
   stroke-width="6"
   stroke-miterlimit="10"><tspan
     style="-inkscape-font-specification:'Alfa Slab One'"
     id="tspan12535"
     font-style="normal"
     font-variant="normal"
     font-weight="400"
     font-stretch="normal"
     font-family="Alfa Slab One">XIX</tspan></text>
       </g></g>
     </g>
   </g>
 </svg>
