<?xml version="1.0" encoding="UTF-8" standalone="no"?>
<!-- Created with Inkscape (http://www.inkscape.org/) -->

<svg
   width="210mm"
   height="297mm"
   viewBox="0 0 210 297"
   version="1.1"
   id="svg5"
   sodipodi:docname="Formatos.svg"
   inkscape:version="1.1.2 (0a00cf5, 2022-02-04)"
   xmlns:inkscape="http://www.inkscape.org/namespaces/inkscape"
   xmlns:sodipodi="http://sodipodi.sourceforge.net/DTD/sodipodi-0.dtd"
   xmlns:xlink="http://www.w3.org/1999/xlink"
   xmlns="http://www.w3.org/2000/svg"
   xmlns:svg="http://www.w3.org/2000/svg">
  <sodipodi:namedview
     id="namedview7"
     pagecolor="#505050"
     bordercolor="#ffffff"
     borderopacity="1"
     inkscape:pageshadow="0"
     inkscape:pageopacity="0"
     inkscape:pagecheckerboard="1"
     inkscape:document-units="mm"
     showgrid="false"
     inkscape:zoom="0.3464605"
     inkscape:cx="327.59867"
     inkscape:cy="593.14121"
     inkscape:window-width="1330"
     inkscape:window-height="743"
     inkscape:window-x="36"
     inkscape:window-y="0"
     inkscape:window-maximized="1"
     inkscape:current-layer="layer2" />
  <defs
     id="defs2">
    <linearGradient
       inkscape:collect="always"
       id="linearGradient12977">
      <stop
         style="stop-color:#e41d72;stop-opacity:1"
         offset="0"
         id="stop12973" />
      <stop
         style="stop-color:#191a31;stop-opacity:1"
         offset="1"
         id="stop12975" />
    </linearGradient>
    <radialGradient
       fy="578.08801"
       fx="158.429"
       gradientTransform="matrix(0,-1.98198,1.8439,0,-1031.399,454.004)"
       gradientUnits="userSpaceOnUse"
       xlink:href="#a"
       r="65"
       cy="578.08801"
       cx="158.429"
       id="c" />
    <radialGradient
       fy="473.45499"
       fx="147.694"
       gradientTransform="matrix(0.17394,0.86872,-3.5818,0.71718,1648.351,-458.493)"
       gradientUnits="userSpaceOnUse"
       xlink:href="#b"
       r="65"
       cy="473.45499"
       cx="147.694"
       id="d" />
    <linearGradient
       id="b">
      <stop
         stop-color="#3771c8"
         offset="0"
         id="stop4" />
      <stop
         offset=".128"
         stop-color="#3771c8"
         id="stop6" />
      <stop
         stop-opacity="0"
         stop-color="#60f"
         offset="1"
         id="stop8" />
    </linearGradient>
    <linearGradient
       id="a">
      <stop
         stop-color="#fd5"
         offset="0"
         id="stop11" />
      <stop
         stop-color="#fd5"
         offset=".1"
         id="stop13" />
      <stop
         stop-color="#ff543e"
         offset=".5"
         id="stop15" />
      <stop
         stop-color="#c837ab"
         offset="1"
         id="stop17" />
    </linearGradient>
    <radialGradient
       fy="578.08801"
       fx="158.429"
       gradientTransform="matrix(0,-3.6959192,3.438433,0,-1993.6109,814.11175)"
       gradientUnits="userSpaceOnUse"
       xlink:href="#a"
       r="65"
       cy="578.08801"
       cx="158.429"
       id="c-3" />
    <radialGradient
       fy="473.45499"
       fx="147.694"
       gradientTransform="matrix(0.32435655,1.6199553,-6.6792013,1.3373694,3003.4826,-887.47716)"
       gradientUnits="userSpaceOnUse"
       xlink:href="#b"
       r="65"
       cy="473.45499"
       cx="147.694"
       id="d-6" />
    <clipPath
       clipPathUnits="userSpaceOnUse"
       id="clipPath2173">
      <circle
         style="opacity:0.4;fill:#191a31;stroke:#ffffff;stroke-width:0.499999"
         id="circle2175"
         cx="132.29167"
         cy="132.29167"
         r="132.29167" />
    </clipPath>
    <clipPath
       clipPathUnits="userSpaceOnUse"
       id="clipPath2173-6">
      <circle
         style="opacity:0.4;fill:#191a31;stroke:#ffffff;stroke-width:0.499999"
         id="circle2175-2"
         cx="132.29167"
         cy="132.29167"
         r="132.29167" />
    </clipPath>
    <clipPath
       clipPathUnits="userSpaceOnUse"
       id="clipPath2173-2">
      <circle
         style="opacity:0.4;fill:#191a31;stroke:#ffffff;stroke-width:0.499999"
         id="circle2175-0"
         cx="132.29167"
         cy="132.29167"
         r="132.29167" />
    </clipPath>
    <radialGradient
       inkscape:collect="always"
       xlink:href="#linearGradient12977"
       id="radialGradient12979"
       cx="105"
       cy="148.6608"
       fx="105"
       fy="148.6608"
       r="105"
       gradientTransform="matrix(1.0000001,0,0,1.4127544,0.0283428,-61.360394)"
       gradientUnits="userSpaceOnUse" />
    <filter
       inkscape:collect="always"
       style="color-interpolation-filters:sRGB"
       id="filter39584"
       x="-0.039733143"
       y="-0.028124599"
       width="1.0794663"
       height="1.0562492">
      <feGaussianBlur
         inkscape:collect="always"
         stdDeviation="2.8428598"
         id="feGaussianBlur39586" />
    </filter>
    <radialGradient
       xlink:href="#linearGradient2159-3"
       id="radialGradient9920"
       cx="181.652"
       cy="433.792"
       fx="181.652"
       fy="433.792"
       r="172.2"
       gradientTransform="matrix(2.05358,0,0,0.71153,-191.385,16.691)"
       gradientUnits="userSpaceOnUse" />
    <linearGradient
       id="linearGradient2159-3"
       gradientUnits="userSpaceOnUse"
       x1="260.94"
       y1="208.67"
       x2="260.98"
       y2="258.01"
       spreadMethod="pad">
       <stop
   offset="0"
   id="stop2183"
   stop-color="#868686"
   stop-opacity="1" />

       <stop
   offset=".136"
   id="stop9650"
   stop-color="#6e6e6e"
   stop-opacity="1" />

       <stop
   offset=".235"
   id="stop2181"
   stop-color="#000"
   stop-opacity="1" />

       <stop
   offset=".343"
   id="stop7082"
   stop-color="#fff"
   stop-opacity="1" />

       <stop
   offset=".431"
   id="stop2173"
   stop-color="#c1c1c1"
   stop-opacity="1" />

       <stop
   offset=".483"
   id="stop2169"
   stop-color="#fcfcfc"
   stop-opacity="1" />

       <stop
   offset=".582"
   id="stop2165"
   stop-color="#888"
   stop-opacity="1" />

       <stop
   offset=".582"
   id="stop2163"
   stop-color="#868686"
   stop-opacity="1" />

       <stop
   offset=".721"
   id="stop12520"
   stop-color="#b8b8b8"
   stop-opacity="1" />

       <stop
   offset=".849"
   id="stop6246"
   stop-color="#e7e7e7"
   stop-opacity="1" />

       <stop
   offset=".85"
   id="stop8108"
   stop-color="#fff"
   stop-opacity="1" />

       <stop
   offset=".861"
   id="stop12390"
   stop-color="#f7f7f7"
   stop-opacity="1" />

       <stop
   offset=".933"
   id="stop6504"
   stop-color="#f4f4f4"
   stop-opacity="1" />

       <stop
   offset=".971"
   id="stop9070"
   stop-color="#acacac"
   stop-opacity="1" />

       <stop
   offset="1"
   id="stop2161"
   stop-color="#fff"
   stop-opacity="1" />

     </linearGradient>
    <radialGradient
       inkscape:collect="always"
       xlink:href="#linearGradient2159-3"
       id="radialGradient1035"
       gradientUnits="userSpaceOnUse"
       gradientTransform="matrix(2.05358,0,0,0.71153,-191.385,16.691)"
       cx="181.652"
       cy="433.792"
       fx="181.652"
       fy="433.792"
       r="172.2" />
    <radialGradient
       inkscape:collect="always"
       xlink:href="#linearGradient2159-3"
       id="radialGradient1037"
       gradientUnits="userSpaceOnUse"
       gradientTransform="matrix(2.05358,0,0,0.71153,-191.385,16.691)"
       cx="181.652"
       cy="433.792"
       fx="181.652"
       fy="433.792"
       r="172.2" />
    <radialGradient
       inkscape:collect="always"
       xlink:href="#linearGradient2159-3"
       id="radialGradient1039"
       gradientUnits="userSpaceOnUse"
       gradientTransform="matrix(2.05358,0,0,0.71153,-191.385,16.691)"
       cx="181.652"
       cy="433.792"
       fx="181.652"
       fy="433.792"
       r="172.2" />
    <radialGradient
       inkscape:collect="always"
       xlink:href="#linearGradient2159-3"
       id="radialGradient1041"
       gradientUnits="userSpaceOnUse"
       gradientTransform="matrix(2.05358,0,0,0.71153,-191.385,16.691)"
       cx="181.652"
       cy="433.792"
       fx="181.652"
       fy="433.792"
       r="172.2" />
    <path
       id="SVGID_00000024697531637942283230000014172444891191630735_"
       d="m184.82 115.21 6.76-6.19c.64-.58.22-1.64-.64-1.64h-13.53c-.86 0-1.28 1.06-.64 1.64l6.76 6.19c.37.33.92.33 1.29 0z" />
    <path
       id="SVGID_00000103260597509428808330000004756641564295373974_"
       d="m185.24 98.35 11.27 10.32c1.06.97.37 2.74-1.07 2.74H172.9c-1.44 0-2.13-1.77-1.07-2.74l11.27-10.32c.61-.55 1.54-.55 2.14 0z" />
    <circle
       id="SVGID_00000087401524890075001400000016285936864657069720_"
       cx="172.31"
       cy="89.24"
       r="5.45" />
    <circle
       id="SVGID_00000055688515122760669770000008838657463372093628_"
       cx="196.59"
       cy="89.24"
       r="5.45" />
    <path
       id="SVGID_00000080920374391072134450000005035094420178829234_"
       class="st18"
       d="M226.93 198.34h-90.57c-2.55 0-4.67-1.95-4.89-4.49l-4.13-47.95a4.903 4.903 0 0 1 4.89-5.33h98.56c2.87 0 5.12 2.45 4.89 5.3l-3.86 47.95a4.898 4.898 0 0 1-4.89 4.52z" />
  </defs>
  <g
     inkscape:groupmode="layer"
     id="layer2"
     inkscape:label="Fondo">
    <rect
       style="opacity:1;fill:url(#radialGradient12979);fill-opacity:1;stroke:none;stroke-width:0.499999;stroke-miterlimit:4;stroke-dasharray:none"
       id="rect12391"
       width="210.00002"
       height="296.67841"
       x="0.028342204"
       y="0.32160076" />
  </g>
  <g
     inkscape:groupmode="layer"
     id="layer4"
     inkscape:label="Logo">
    <g
       id="g381"
       transform="matrix(0.57921626,0,0,0.57921626,-2.9578336,29.20785)"
       style="display:inline;opacity:0.2">
     <g
   id="g14944">
       
       
       
       
       
       <g
   id="g2010"
   inkscape:export-filename="/home/stivel/Documentos/2022-1/Glud/slud-xix-material-grafico/Entregables/Logo/Logo.png"
   inkscape:export-xdpi="300"
   inkscape:export-ydpi="300">
  <g
     id="g101">
         <path
   class="st0"
   d="m 308.52,128.6 c 0,0 -88.51,-55.99 -122.09,-55.99 -33.58,0 -122.09,55.99 -122.09,55.99 0,0 14.3,108.31 28.63,137.67 13.08,26.82 65.7,83.66 85.87,104.96 4.52,5.2 7.26,8.3 7.26,8.3 0,0 0.12,-0.13 0.33,-0.34 0.21,0.22 0.33,0.34 0.33,0.34 0,0 2.74,-3.09 7.26,-8.3 20.17,-21.3 72.78,-78.14 85.87,-104.96 14.33,-29.36 28.63,-137.67 28.63,-137.67 z"
   id="path4" />

         <path
   class="st1"
   d="m 308.52,128.6 c 0,0 -88.51,-55.99 -122.09,-55.99 -33.58,0 -122.09,55.99 -122.09,55.99 0,0 14.3,108.31 28.63,137.67 13.08,26.82 65.7,83.66 85.87,104.96 4.52,5.2 7.26,8.3 7.26,8.3 0,0 0.12,-0.13 0.33,-0.34 0.21,0.22 0.33,0.34 0.33,0.34 0,0 2.74,-3.09 7.26,-8.3 20.17,-21.3 72.78,-78.14 85.87,-104.96 14.33,-29.36 28.63,-137.67 28.63,-137.67 z"
   id="path6" />

         <linearGradient
   id="SVGID_1_"
   gradientUnits="userSpaceOnUse"
   x1="94.691002"
   y1="102.413"
   x2="277.009"
   y2="284.73199">
           <stop
   offset="0"
   id="stop8-5"
   stop-color="#fff" />

           <stop
   offset=".035"
   id="stop10"
   stop-color="#fcfcfc" />

           <stop
   offset=".062"
   id="stop12"
   stop-color="#f2f2f2" />

           <stop
   offset=".086"
   id="stop14"
   stop-color="#e2e2e2" />

           <stop
   offset=".108"
   id="stop16"
   stop-color="#cbcbcb" />

           <stop
   offset=".129"
   id="stop18"
   stop-color="#adadad" />

           <stop
   offset=".149"
   id="stop20"
   stop-color="#898989" />

           <stop
   offset=".151"
   id="stop22"
   stop-color="#868686" />

           <stop
   offset=".152"
   id="stop24"
   stop-color="#8a8a8a" />

           <stop
   offset=".16"
   id="stop26"
   stop-color="#a9a9a9" />

           <stop
   offset=".17"
   id="stop28"
   stop-color="#c4c4c4" />

           <stop
   offset=".181"
   id="stop30"
   stop-color="#dadada" />

           <stop
   offset=".194"
   id="stop32"
   stop-color="#ebebeb" />

           <stop
   offset=".209"
   id="stop34"
   stop-color="#f6f6f6" />

           <stop
   offset=".232"
   id="stop36"
   stop-color="#fdfdfd" />

           <stop
   offset=".293"
   id="stop38"
   stop-color="#fff" />

           <stop
   offset=".665"
   id="stop40"
   stop-color="#fff" />

           <stop
   offset=".667"
   id="stop42"
   stop-color="#efefef" />

           <stop
   offset=".674"
   id="stop44"
   stop-color="#cfcfcf" />

           <stop
   offset=".681"
   id="stop46"
   stop-color="#b4b4b4" />

           <stop
   offset=".688"
   id="stop48"
   stop-color="#a0a0a0" />

           <stop
   offset=".697"
   id="stop50"
   stop-color="#919191" />

           <stop
   offset=".707"
   id="stop52"
   stop-color="#898989" />

           <stop
   offset=".724"
   id="stop54"
   stop-color="#868686" />

           <stop
   offset=".732"
   id="stop56"
   stop-color="#a6a6a6" />

           <stop
   offset=".741"
   id="stop58"
   stop-color="#c1c1c1" />

           <stop
   offset=".751"
   id="stop60"
   stop-color="#d8d8d8" />

           <stop
   offset=".763"
   id="stop62"
   stop-color="#eaeaea" />

           <stop
   offset=".778"
   id="stop64"
   stop-color="#f6f6f6" />

           <stop
   offset=".798"
   id="stop66"
   stop-color="#fdfdfd" />

           <stop
   offset=".846"
   id="stop68"
   stop-color="#fff" />

           <stop
   offset=".852"
   id="stop70"
   stop-color="#e3e3e3" />

           <stop
   offset=".858"
   id="stop72"
   stop-color="#c8c8c8" />

           <stop
   offset=".865"
   id="stop74"
   stop-color="#b1b1b1" />

           <stop
   offset=".874"
   id="stop76"
   stop-color="#a0a0a0" />

           <stop
   offset=".884"
   id="stop78"
   stop-color="#949494" />

           <stop
   offset=".899"
   id="stop80"
   stop-color="#8d8d8d" />

           <stop
   offset=".936"
   id="stop82"
   stop-color="#8b8b8b" />

           <stop
   offset=".94"
   id="stop84"
   stop-color="#a9a9a9" />

           <stop
   offset=".944"
   id="stop86"
   stop-color="#c4c4c4" />

           <stop
   offset=".949"
   id="stop88"
   stop-color="#dadada" />

           <stop
   offset=".955"
   id="stop90"
   stop-color="#ebebeb" />

           <stop
   offset=".962"
   id="stop92"
   stop-color="#f6f6f6" />

           <stop
   offset=".972"
   id="stop94"
   stop-color="#fdfdfd" />

           <stop
   offset="1"
   id="stop96"
   stop-color="#fff" />

         </linearGradient>

         <path
   d="m 185.85,75.81 c -32.8,0 -119.24,54.69 -119.24,54.69 0,0 13.97,105.79 27.96,134.46 12.78,26.19 64.17,81.71 83.87,102.51 4.41,5.08 7.1,8.1 7.1,8.1 0,0 0.12,-0.12 0.32,-0.33 0.2,0.21 0.32,0.33 0.32,0.33 0,0 2.68,-3.02 7.1,-8.1 19.7,-20.8 71.09,-76.32 83.87,-102.51 13.99,-28.67 27.96,-134.46 27.96,-134.46 0,0 -86.46,-54.69 -119.26,-54.69 z m 75.13,182.2 c -10.52,21.56 -52.81,67.25 -69.02,84.37 -3.63,4.18 -5.84,6.67 -5.84,6.67 l -0.27,-0.27 -0.27,0.27 c 0,0 -2.21,-2.48 -5.84,-6.67 -16.21,-17.12 -58.51,-62.81 -69.02,-84.37 -11.51,-23.6 -23.01,-110.66 -23.01,-110.66 0,0 71.15,-45.01 98.14,-45.01 26.99,0 98.14,45.01 98.14,45.01 0,0 -11.5,87.06 -23.01,110.66 z"
   id="path99"
   fill="url(#SVGID_1_)"
   stroke="#061124"
   stroke-width="5"
   stroke-miterlimit="10"
   style="fill:url(#SVGID_1_)" />

       </g>
  <g
     id="g239">
         <path
   d="m 183.75,21.29 c 0,0 51.09,20.86 43,89.67 l 25.5,15.8 c 0,0 20.44,41.66 12.29,57.02 -8.16,15.36 -12.29,18.5 -12.29,18.5 H 115.7 c 0,0 -19.37,-10.79 -12.23,-33.73 7.14,-22.94 6.12,-34.15 14.27,-44.86 l 22.94,-14.27 c 0,0 -4.66,-8.16 -4.62,-19.37 0.03,-11.2 18.39,-58.01 47.69,-68.76 z"
   id="path103"
   fill="#d2e1fb" />

         <path
   d="m 223.03,75.81 c 0,0 -4.63,-3.87 -13.27,-7.5 -1.69,-0.71 -4.04,-2.85 -6.03,-3.51 -0.34,-0.11 2.17,2.46 1.82,2.35 -6.51,-2.06 -12.86,-5.8 -27.78,-4.35 -20.42,1.98 -52.62,25.46 -32.23,52.67 0,0 4.96,4.85 15.67,8.77 10.72,3.93 -13.8,-2.08 -19.54,-11.08 -5.74,-9 0,22.72 0,22.72 l 0.97,17.34 c 0,0 -7.39,-13.09 -8.26,-14.24 -0.87,-1.15 -3.29,-10.17 -13.2,-11.03 0,0 -2.61,2.88 9.62,14.73 5.75,5.58 5.31,9.92 5.75,12.06 0.44,2.14 -3.88,3.86 -9.22,0 -5.34,-3.86 -8.34,-6 -8.34,-6 0,0 -4.12,6.31 13.21,14.29 11.39,5.24 0.49,4.12 -3.36,2.31 -3.85,-1.81 -12.02,-0.3 -14.16,2.6 0.51,-0.69 8.55,-2.54 9.26,-2.45 2.76,0.35 5.07,1.16 7.11,3.15 1.95,1.91 3.27,4.38 4.22,6.94 0.96,2.59 1.58,5.37 1.18,8.1 -0.95,6.54 -9.11,11.07 -15.27,10.76 0,0 9.81,2.66 16.24,0.02 6.43,-2.64 18.22,-3.31 24.65,-0.72 6.43,2.58 8.69,5.27 15.7,1.89 7.02,-3.38 8.8,-7.45 19.27,-4.88 10.47,2.57 20.9,7.5 27.36,4.71 6.46,-2.79 7.25,-0.74 8.6,-6.43 1.35,-5.69 10.46,1.13 11.71,3.14 1.25,2 -0.77,-8.92 -7.41,-12.78 -6.64,-3.86 -1.05,-2.71 1.72,-10.89 2.78,-8.18 5.3,-13.87 5.13,-19.33 -0.17,-5.46 9.44,-13.66 7.18,-17.65 -2.25,-3.99 -25.14,-11.66 -25.14,-11.66 0,0 27.81,7.49 16.88,20.33 -10.93,12.84 -4.93,16.7 -14.14,17.34 -9.22,0.64 -0.03,-8.01 -0.03,-8.01 0,0 -10.06,2.74 -5.87,-3.2 4.18,-5.94 15.01,-13.61 14.47,-22.08 -0.54,-8.47 -1.8,-6.15 -1.8,-6.15 0,0 5.58,8.82 -11.31,22.09 -16.89,13.27 1.8,-7.85 1.8,-7.85 0,0 9.86,-5.06 -4.52,-6.21 -3.93,-0.31 -7.35,-1.6 -16.12,-0.1 -8.77,1.5 -21.37,14.16 -21.37,14.16 0,0 10.46,3.2 -0.9,6.63 -11.36,3.43 -13.26,-6.67 2.05,-14.48 15.31,-7.81 22.96,-12.36 29.66,-16.86 6.69,-4.5 4.62,-3.43 4.11,0 -0.5,3.43 0.2,4.5 3.93,0 3.73,-4.5 9.1,-14.55 6.76,-19.88 -2.34,-5.33 -2.9,-17.69 -6.76,-7.93 -3.86,9.76 -5.89,17.52 -12.53,23.76 -6.64,6.24 -20,14.99 -22.64,15.22 -2.65,0.23 -7.79,3.02 1.21,-5.12 9,-8.14 15.64,-11.57 19.5,-18.22 3.86,-6.64 6.64,-6.69 8.14,-14.06 1.5,-7.37 3.67,-10.66 6.32,-11.67 2.64,-1.01 0,-1.76 0,-1.76 z"
   id="path105"
   opacity="0.35"
   fill="#14e0fa" />

         <g
   id="g119">
           <g
   id="g115"
   opacity="0.41">
             <path
   class="st6"
   d="m 183.01,31.39 c 0,0 14.73,9.82 12.85,14.02 -1.88,4.2 -5.89,7.54 -5.89,7.54 0,0 11.33,8.24 12.05,8.24 0.72,0 -9.51,-1.93 -9.51,-1.93 l 8.36,6.66 c 0,0 -20.19,-5.08 -26.95,1.58 -6.76,6.66 -31.47,22.61 -23.59,36.63 7.89,14.02 21.11,18.45 20.81,19.39 -0.3,0.94 -5.38,5.33 -5.38,5.33 l -14.9,-5.08 -0.7,29.45 c 0,0 -16.24,-16.13 -14.78,-29.45 1.46,-13.32 3.74,-17.74 3.74,-18.07 0,-0.33 9.99,-34.34 9.99,-34.34 L 159.8,45.42 Z"
   id="path107" />

             <path
   class="st6"
   d="m 124.13,132.33 c 0,0 13.93,6.05 14.29,28.11 0,0 -10.58,-1.01 -15.65,-5.4 -0.42,-0.36 -0.83,-0.71 -1.33,-0.91 0.91,2.29 3.73,4.43 5.57,6.1 1.91,1.73 3.91,3.37 6.03,4.87 1.92,1.36 5.17,2.39 6.7,4 0.51,0.54 0.79,1.25 1.01,1.94 0.46,1.45 0.28,3.8 1.6,4.82 0.59,0.46 1.32,0.71 2.02,1 1.89,0.77 3.66,1.8 5.24,3.04 0.44,0.35 0.91,0.78 0.92,1.32 0.02,0.6 -0.51,1.08 -1,1.46 -2.49,1.92 -5.27,3.27 -8.05,4.78 -5.32,2.88 -11.64,5.99 -17.9,6.25 -1.66,0.07 -3.38,-0.2 -4.77,-1.04 -0.79,-0.48 -1.46,-1.12 -2.02,-1.83 -0.47,-0.59 -0.88,-1.29 -0.81,-2.02 0.08,-0.82 0.75,-1.47 1.45,-1.97 2.97,-2.1 6.92,-2.48 10.32,-3.91 5.2,-2.19 0,-5.66 -2.59,-7.38 -1.53,-1.02 -3.28,-1.9 -5.15,-1.84 -2.52,0.08 -4.6,1.83 -6.21,3.64 -2.4,2.71 -4.3,5.82 -5.59,9.13 0.33,-0.86 -0.27,-2.47 -0.29,-3.41 -0.05,-2.25 0.19,-4.54 0.28,-6.79 0.03,-0.64 0.05,-1.29 0.28,-1.89 1.8,-4.69 10.4,-10.33 15.65,-8.39 7.42,2.75 7.84,0.18 7.84,0.18 0,0 -9.6,2.2 -15.26,-6.41 -5.66,-8.61 1.92,-18.31 12,-13 10.07,5.33 -4.58,-14.45 -4.58,-14.45 z"
   id="path109" />

             <path
   class="st6"
   d="m 144.73,185.64 c 0.16,0.27 -19.51,11.62 -22.61,11.39 -0.32,-0.02 -0.65,-0.04 -0.94,0.04 2.49,1.07 6,0.82 8.64,0.79 6.07,-0.06 11.79,-1.07 17.59,-2.76 2.73,-0.8 5.72,-1.31 8.37,-0.28 2.29,0.89 3.99,2.8 5.81,4.46 5.5,5.03 12.82,6.53 20.13,6.17 l 52.41,0.02 c 0,0 13.49,-2.16 13.5,-2.16 -0.24,0.04 -3.05,-3.69 -3.36,-4 -2.25,-2.22 -5.72,-5.12 -9,-5.27 0.92,0.04 0.79,5.76 0.58,6.43 -0.5,1.59 -1.64,2.68 -3.38,2.82 0.28,-1.81 -0.85,-3.61 -2.36,-4.63 -1.51,-1.02 -3.36,-1.41 -5.17,-1.71 -7.18,-1.19 -14.58,-1.38 -21.84,-1.39 l 5.61,-5.36 c -1.62,1.55 -5.49,2.48 -7.52,3.36 -3.73,1.61 -7.51,3.12 -11.33,4.52 -1.93,0.71 -3.9,1.4 -5.95,1.57 -0.36,0.03 -0.81,-0.02 -0.93,-0.36 -0.06,-0.18 0.01,-0.38 0.07,-0.56 2.53,-6.53 8.9,-12.52 15.48,-14.85 0.44,-0.15 0.88,-0.31 1.28,-0.52 -3.99,0.47 -8.05,2.06 -11.91,3.15 -5.59,1.58 -11.18,3.15 -16.76,4.76 0.42,-0.12 0.89,-6.2 0.96,-6.71 -2.82,-0.26 -5.61,-0.86 -8.44,-0.92 -2.83,-0.07 -5.8,0.47 -8.02,2.22 -1.37,1.08 -4.13,8.5 -6.65,5.42 -1.48,-1.82 -2.85,-3.76 -4.26,-5.64 z"
   id="path111" />

             <path
   class="st6"
   d="m 219.93,96.77 c -11.12,9.43 -22.04,19.28 -32.07,29.87 -3.4,3.59 -6.79,7.32 -9.26,11.63 -2.22,3.87 -4.76,10.15 -3.29,14.63 1.74,-2.35 2.78,-5.52 4.25,-8.1 1.54,-2.7 3.26,-5.32 5.28,-7.69 8.62,-10.14 21.72,-12.31 34.04,-8.62 1.72,0.52 2.94,-3.11 2.98,-3.24 -0.89,2.7 1.03,5.42 0.8,8.12 -0.24,2.69 -2.47,5.76 -4,7.93 -2.71,3.84 -6.12,7.13 -9.82,10.01 -1.72,1.34 -3.5,2.58 -5.2,3.92 -0.76,0.59 -5.63,5.05 -6.31,4.82 6.82,2.25 14.65,3.69 21.8,2.61 10.33,-1.57 15.81,-13.23 17.11,-22.66 -2.34,3.75 -7.66,12.1 -12.57,12.15 1.7,-4.03 5.1,-7.66 6.99,-11.78 2.64,-5.76 5.75,-13.83 4.63,-20.3 -2.19,2.63 -3.63,6.19 -5.69,9.01 -0.29,0.39 -0.64,0.81 -1.12,0.84 -0.69,0.04 -1.14,-0.76 -1.15,-1.45 -0.01,-0.79 0.54,-2.24 -0.06,-2.96 -0.32,-0.38 -2.48,-0.64 -2.39,-0.19 -0.39,-2.16 0.13,-4.36 0.55,-6.51 1.33,-6.92 1.4,-13.98 0.83,-20.99 z"
   id="path113" />

           </g>

           <path
   d="m 255.62,191.99 c -0.53,-0.35 -16.11,-14.53 -18.23,-14.72 -0.84,-0.08 1.47,-1.87 1.77,-2.14 1.35,-1.24 2.57,-2.58 3.61,-4.1 2.06,-3.01 3.39,-6.53 3.77,-10.16 0.05,-0.46 5.95,0.96 6.43,1.15 2.23,0.88 4.22,2.45 4.57,4.97 -0.57,-4.03 -2.82,-9.12 -5.95,-11.76 -0.47,-0.4 -0.99,-0.79 -1.2,-1.37 -0.29,-0.82 0.14,-1.71 0.62,-2.45 1.23,-1.91 2.8,-3.61 4.61,-4.99 -4.15,0.04 -8.6,-0.7 -12.37,1.41 1.32,-2.44 3.06,-4.62 4.85,-6.72 1.67,-1.95 4.18,-3.95 5.32,-6.2 -0.36,-0.09 -2.56,-0.44 -2.84,-0.12 -3.85,4.36 -7.28,9.39 -9.7,14.68 -1.47,3.21 -2.12,6.68 -3.46,9.94 -2.32,5.67 -5.56,10.99 -8.92,16.09 -0.77,1.17 -1.68,2.31 -2.33,3.54 0.3,-0.58 10.25,4.27 11.15,4.9 5.19,3.58 7.41,8.63 10.77,13.68 0.78,1.18 2.5,4.44 4.18,4.72 z"
   id="path117"
   opacity="0.41"
   fill="#54575b" />

         </g>

         <g
   id="g203">
           <g
   id="g127">
             <path
   class="st8"
   d="m 130.67,167.93 c -2.27,-0.82 -4.35,-1.45 -5.86,-1.9 0,0.01 2.61,0.86 5.86,1.9 z"
   id="path121" />

             <path
   class="st8"
   d="m 136.55,143.17 c -1.03,-3.01 -2.42,-5.86 -4.35,-8.38 1.02,2.03 1.53,4.47 4.35,8.38 z"
   id="path123" />

             <path
   class="st8"
   d="m 254.54,123.91 c -0.32,-0.3 -0.74,-0.53 -1.13,-0.72 -6.66,-3.32 -13.9,-5.85 -20.36,-9.43 1.88,-5.48 4.52,-10.78 3.92,-16.8 C 231.72,43.43 184.19,21 184.19,21 c -12.87,4.36 -20.09,12.09 -27.1,21.8 -7.82,10.83 -14.67,21.56 -19.08,35.4 -2.35,7.38 -6.61,14.39 -6.05,22.11 0.36,5.01 2.07,7.89 4.47,10.38 -1.51,0.6 -17.14,6.89 -19.8,10.11 -2.79,3.39 -10.52,14.37 -13.51,30.11 -2.99,15.74 -1.24,39.04 -1.24,39.04 l 7.97,11.96 h 14.75 c -15.52,-7.15 -16.66,-21.64 -14.16,-37.23 0.17,-1.04 0.37,-2.12 0.97,-3 2.23,-3.31 11.22,-2.75 14.59,-1.82 -4.05,-1.11 -10.2,-3.03 -11.74,-7.38 -1.31,-3.7 -0.56,-8.13 -0.49,-11.97 0.02,-1.17 0.11,-2.5 1,-3.26 2.69,-2.32 12.36,2.79 15.22,3.55 0,0 -4.35,-8.77 -6.16,-11 -1.22,-1.51 5.47,1.82 6.28,2.61 0.76,0.75 1.45,1.55 2.09,2.38 -1.06,-2.1 -2.68,-3.77 -7.99,-6.21 0,0 13.59,-8.45 18.98,-11.7 2.26,2.42 3.04,5.98 3.43,9.15 0.21,1.7 -0.98,8.12 -0.13,9.21 -1.13,-1.44 -2.26,-2.87 -3.39,-4.31 -1.26,8.49 1.09,17.41 6.18,24.31 -2.45,-1.45 -5.49,-3.83 -9.13,-7.73 -1.52,-1.63 -2.68,-3.06 -3.6,-4.33 1.7,4.99 2.45,10.41 3.17,15.46 -6,-0.05 -11.98,-1.98 -16.88,-5.44 7.79,5.51 18.17,8.41 20.2,18.77 -1.08,-0.38 -7.46,-2.44 -12.37,-4.02 6.24,2.25 13.86,5.89 14.78,10.89 1.22,6.63 -14.04,15.77 -19.25,16.5 0,0 14.15,-1.99 19.73,-8.77 l 4.78,4.18 c -1.95,-1.7 3.92,-9.31 5.23,-10.11 1.91,-1.17 4.22,-1.4 6.45,-1.57 7.1,-0.56 16.18,-2.13 23.03,-0.59 -2.9,1.65 -5.09,4.58 -8,6.09 8.66,-4.51 32.98,-13.65 41.44,-5.18 3.39,3.39 0.4,6.77 0,7.57 -0.4,0.8 4.78,-5.11 9.96,-4.95 5.18,0.17 12.35,4.35 14.94,8.53 2.59,4.18 -1,-8.37 -9.77,-10.76 -2.38,-0.65 -4.79,-1.24 -7.27,-1.12 3.86,-0.18 9.35,-10.1 10.72,-13.07 2.44,-5.29 3.83,-11.19 4.93,-16.89 0.75,-3.91 6.38,-11.1 9.1,-14.4 3.2,5.86 9.26,17.89 10.57,27.16 1.79,12.74 -12.56,40.83 -12.56,40.83 h 8.24 c 0,0 13.76,-14.83 13.76,-24.52 -0.01,-9.68 -11.71,-51.07 -16.94,-53.86 z m -88.09,0.08 c -5.05,-0.84 -12.75,-4.38 -17.54,-10.56 -1.49,-1.93 -1.96,-0.94 -1.89,1.33 -8.68,-13.06 -4.38,-30.36 6.99,-40.95 a 42.954,42.954 0 0 1 19.95,-10.46 c 0.49,-0.11 9.3,-1.44 9.31,-0.94 0,-0.05 -0.54,-25.68 -0.54,-25.68 -9.96,1.74 -28.75,25.86 -28.75,25.86 13.92,-25.5 30.21,-30.92 30.21,-30.92 20.08,2.35 37.61,45.39 37.61,45.39 -4.62,-2.66 -12.92,-7.97 -17.08,-11.21 0.91,0.71 4.27,4.51 5.16,5.25 -7.63,-5.14 -18.2,-8.59 -32.47,-7.09 0,0 -26.1,4.38 -30.49,30.09 -4.38,25.7 32.88,29.89 32.88,29.89 0,0 -10.05,0.55 -13.35,0 z m 71.54,28.5 c -8.77,15.95 -27.18,13.92 -41.1,7.39 3.86,1.81 16.8,-5.46 19.79,-7.84 4.42,-3.51 12.04,-10.43 12.94,-16.28 0.4,-2.59 -9.76,7.57 -9.76,7.57 l 12.95,-16.74 -8.97,6.58 v -8.77 c -0.72,2.87 -1.48,5.74 -2.12,8.62 -3.18,-1.18 -6.38,-3.15 -9.84,-4.04 -3.43,-0.88 -7.19,-0.9 -10.37,0.66 -2.36,1.16 -4.24,3.09 -6.01,5.03 -6.16,6.73 -11.58,14.07 -16.57,21.64 -1.32,-6.46 2.05,-14.34 5.65,-19.55 7.17,-10.36 18.93,-15.14 24.91,-20.52 5.98,-5.38 9.37,-7.97 13.35,-17.93 0,0 1.59,6.38 -0.8,11.56 -1.87,4.06 3.72,-3.26 4.69,-11.23 0.35,4.32 -0.29,8.65 -2.23,12.52 -2.4,4.79 -6.51,8.47 -10.55,12.01 4.33,-2.06 9.1,-4.18 13.76,-3.04 1.58,0.39 3.04,1.13 4.49,1.87 5.76,2.93 11.51,5.87 17.27,8.8 0.01,0.01 0.74,1.24 1.86,3.27 -2.54,2.47 -7.78,8.29 -13.34,18.42 z"
   id="path125" />

           </g>

           <g
   id="g201">
             <g
   id="g155">
               <path
   class="st9"
   d="m 184.82,115.21 6.76,-6.19 c 0.64,-0.58 0.22,-1.64 -0.64,-1.64 h -13.53 c -0.86,0 -1.28,1.06 -0.64,1.64 l 6.76,6.19 c 0.37,0.33 0.92,0.33 1.29,0 z"
   id="path129" />

               <g
   id="g139">
                 <defs
   id="defs132">
                   <path
   id="path71015"
   d="m 184.82,115.21 6.76,-6.19 c 0.64,-0.58 0.22,-1.64 -0.64,-1.64 h -13.53 c -0.86,0 -1.28,1.06 -0.64,1.64 l 6.76,6.19 c 0.37,0.33 0.92,0.33 1.29,0 z" />

                 </defs>

                 <clipPath
   id="SVGID_00000099634913943654754230000004309403123890958003_">
                   <use
   xlink:href="#SVGID_00000024697531637942283230000014172444891191630735_"
   id="use134"
   overflow="visible"
   x="0"
   y="0"
   width="100%"
   height="100%" />

                 </clipPath>

                 <path
   d="m 192.92,106.65 c 0.11,-0.35 3.74,1.2 2.34,2.89 -3.01,3.66 -7.19,6.07 -10.17,9.8 -0.42,0.53 -0.83,1.08 -1.1,1.7 -0.12,0.27 -0.21,0.59 -0.11,0.87 0.17,0.45 0.76,0.59 1.23,0.5 -1.57,-0.16 -6.76,0.18 -5.42,-2.88 1.47,-3.35 13.23,-12.88 13.23,-12.88 z"
   clip-path="url(#SVGID_00000099634913943654754230000004309403123890958003_)"
   id="path137"
   fill="#a73b36" />

               </g>

               <path
   class="st9"
   d="m 185.24,98.35 11.27,10.32 c 1.06,0.97 0.37,2.74 -1.07,2.74 H 172.9 c -1.44,0 -2.13,-1.77 -1.07,-2.74 L 183.1,98.35 c 0.61,-0.55 1.54,-0.55 2.14,0 z"
   id="path141" />

               <g
   id="g153">
                 <g
   id="g151">
                   <defs
   id="defs144">
                     <path
   id="path71023"
   d="m 185.24,98.35 11.27,10.32 c 1.06,0.97 0.37,2.74 -1.07,2.74 H 172.9 c -1.44,0 -2.13,-1.77 -1.07,-2.74 L 183.1,98.35 c 0.61,-0.55 1.54,-0.55 2.14,0 z" />

                   </defs>

                   <clipPath
   id="SVGID_00000165221004256332169790000009841979933269750928_">
                     <use
   xlink:href="#SVGID_00000103260597509428808330000004756641564295373974_"
   id="use146"
   overflow="visible"
   x="0"
   y="0"
   width="100%"
   height="100%" />

                   </clipPath>

                   <path
   d="m 197.2,108.24 c 0,0 -15.89,5.23 -26.23,0.58 0,0 -2.51,8.95 15.23,6.08 17.74,-2.87 11,-6.66 11,-6.66 z"
   clip-path="url(#SVGID_00000165221004256332169790000009841979933269750928_)"
   id="path149"
   fill="#a73b36" />

                 </g>

               </g>

             </g>

             <g
   id="g177">
               <g
   id="g173">
                 <defs
   id="defs158">
                   <circle
   id="circle71032"
   cx="172.31"
   cy="89.239998"
   r="5.4499998" />

                 </defs>

                 <clipPath
   id="SVGID_00000099652481103092012110000000622108389987454903_">
                   <use
   xlink:href="#SVGID_00000087401524890075001400000016285936864657069720_"
   id="use160"
   overflow="visible"
   x="0"
   y="0"
   width="100%"
   height="100%" />

                 </clipPath>

                 <g
   clip-path="url(#SVGID_00000099652481103092012110000000622108389987454903_)"
   id="g171">
                   <circle
   class="st13"
   cx="172.47"
   cy="89.239998"
   r="5.4499998"
   id="circle163" />

                   <circle
   class="st14"
   cx="172.14999"
   cy="93.690002"
   r="5.4499998"
   id="circle165" />

                   <circle
   class="st8"
   cx="172.47"
   cy="89.239998"
   r="1.8200001"
   id="circle167" />

                   <circle
   class="st15"
   cx="173.82001"
   cy="88.029999"
   r="1.21"
   id="circle169" />

                 </g>

               </g>

               <path
   class="st8"
   id="polygon175"
   d="m 165.04,82.96 14.65,8.81 1.82,-10.39 -14.59,-5.57 z" />

             </g>

             <g
   id="g199">
               <g
   id="g195">
                 <defs
   id="defs180">
                   <circle
   id="circle71045"
   cx="196.59"
   cy="89.239998"
   r="5.4499998" />

                 </defs>

                 <clipPath
   id="SVGID_00000011019051915976754580000008412525461151162786_">
                   <use
   xlink:href="#SVGID_00000055688515122760669770000008838657463372093628_"
   id="use182"
   overflow="visible"
   x="0"
   y="0"
   width="100%"
   height="100%" />

                 </clipPath>

                 <g
   clip-path="url(#SVGID_00000011019051915976754580000008412525461151162786_)"
   id="g193">
                   <circle
   class="st13"
   cx="196.75"
   cy="89.239998"
   r="5.4499998"
   id="circle185" />

                   <circle
   class="st14"
   cx="196.42999"
   cy="93.690002"
   r="5.4499998"
   id="circle187" />

                   <circle
   class="st8"
   cx="196.75"
   cy="89.239998"
   r="1.8200001"
   id="circle189" />

                   <circle
   class="st15"
   cx="198.10001"
   cy="88.029999"
   r="1.21"
   id="circle191" />

                 </g>

               </g>

               <path
   class="st8"
   id="polygon197"
   d="m 203.19,84.72 -14.65,8.8 -1.83,-10.38 14.6,-5.57 z" />

             </g>

           </g>

         </g>

         <g
   id="g237">
           <path
   class="st17"
   d="m 229.6,195.85 h -90.57 c -2.55,0 -4.67,-1.95 -4.89,-4.49 l -4.13,-47.95 a 4.903,4.903 0 0 1 4.89,-5.33 h 98.56 c 2.87,0 5.12,2.45 4.89,5.3 l -3.86,47.95 a 4.906,4.906 0 0 1 -4.89,4.52 z"
   id="path205" />

           <g
   class="st18"
   id="g215">
             <defs
   id="defs208">
               <path
   id="path71061"
   class="st18"
   d="m 226.93,198.34 h -90.57 c -2.55,0 -4.67,-1.95 -4.89,-4.49 l -4.13,-47.95 a 4.903,4.903 0 0 1 4.89,-5.33 h 98.56 c 2.87,0 5.12,2.45 4.89,5.3 l -3.86,47.95 a 4.898,4.898 0 0 1 -4.89,4.52 z" />

             </defs>

             <clipPath
   id="SVGID_00000145033756012024774010000016590805017895636159_">
               <use
   xlink:href="#SVGID_00000080920374391072134450000005035094420178829234_"
   id="use210"
   overflow="visible"
   x="0"
   y="0"
   width="100%"
   height="100%" />

             </clipPath>

             <ellipse
   cx="222.44"
   cy="143.78"
   rx="47.990002"
   ry="45.07"
   clip-path="url(#SVGID_00000145033756012024774010000016590805017895636159_)"
   id="ellipse213"
   fill="#b1b1b1" />

           </g>

           <g
   id="g221">
             <path
   transform="rotate(34.805,174.153,162.88)"
   id="rect217"
   fill="#f1082a"
   d="m 173.37,160.75 h 1.55 v 4.23 h -1.55 z" />

             <path
   d="m 171.37,173.29 c -1.7,0.04 -4.18,-2.02 -4.43,-3.66 -0.07,-0.45 0.12,-0.68 0.5,-0.88 1.26,-0.66 2.26,-1.62 3.06,-2.79 0.56,-0.83 0.44,-1.05 -0.41,-1.14 0.68,-1.05 1.42,-2.13 2.1,-3.25 0.85,-1.4 1.92,-2.61 3.19,-3.63 2.82,-2.26 5.14,-5 7.47,-7.72 0.22,-0.26 0.44,-0.53 0.69,-0.77 -0.87,2.44 -2.12,4.66 -3.72,6.71 2.56,-2.19 4.8,-4.67 6.83,-7.35 0.06,0.04 0.13,0.08 0.19,0.12 -1.16,2.13 -2.32,4.26 -3.49,6.4 1.89,-0.28 3.39,-1.49 5.16,-2.4 l -0.14,1.57 c 1.3,-0.53 2.53,-1.03 3.92,-1.6 -0.21,0.67 -0.37,1.21 -0.57,1.85 1.46,-0.15 2.81,-0.28 4.29,-0.43 l -1.29,1.68 c 1.43,0.27 2.78,0.52 4.29,0.8 -0.52,0.44 -0.95,0.81 -1.43,1.22 1.08,0.71 2.11,1.38 3.31,2.17 -0.72,0.23 -1.27,0.41 -1.89,0.6 0.79,1.09 1.56,2.15 2.41,3.33 -0.73,0.05 -1.33,0.09 -2.03,0.13 0.29,1.25 0.57,2.47 0.89,3.85 -0.68,-0.31 -1.19,-0.54 -1.78,-0.8 -0.36,1.24 -0.7,2.42 -1.06,3.68 l -1.08,-1.02 c -1.92,1.84 -4.25,2.98 -6.59,4.07 -1.98,0.92 -4.02,1.72 -6.01,2.64 -2.11,0.98 -4.05,2.22 -5.59,4.03 -1,1.17 -1.51,2.55 -1.79,4.03 -0.03,0.13 -0.06,0.27 -0.17,0.39 -0.24,-1.46 -0.24,-2.87 0.4,-4.26 1.4,-3.04 3.89,-4.93 6.74,-6.42 2.29,-1.19 4.67,-2.23 6.93,-3.49 1.77,-0.99 3.28,-2.34 4.42,-4.06 2.15,-3.24 0.79,-7.13 -2.95,-8.24 -3.64,-1.07 -6.96,-0.2 -9.93,2.04 -0.96,0.73 -1.89,1.59 -2.6,2.55 -1.11,1.51 -2.55,2.55 -4.08,3.55 -1.03,0.68 -2.04,1.44 -2.9,2.32 -1.39,1.45 -1.5,2.32 -0.86,4.18 z m 1.7,-10.06 c 0.82,-0.49 1.79,-0.86 2.02,-1.87 l -0.26,-0.23 c -0.59,0.7 -1.17,1.4 -1.76,2.1 z"
   id="path219" />

           </g>

           <path
   class="st17"
   d="m 230.78,203.62 h -92.33 a 2.21,2.21 0 0 1 -2.21,-2.21 V 200 c 0,-1.22 0.99,-2.21 2.21,-2.21 h 92.33 c 1.22,0 2.21,0.99 2.21,2.21 v 1.41 c 0,1.22 -0.99,2.21 -2.21,2.21 z"
   id="path223" />

           <g
   id="g231">
             <path
   id="rect225"
   d="m 142.94,199.34 h 0.97 v 2.74 h -0.97 z" />

             <path
   id="rect227"
   d="m 141.66,199.34 h 0.97 v 2.74 h -0.97 z" />

             <path
   id="rect229"
   d="m 144.25,199.33 h 2.55 v 2.74 h -2.55 z" />

           </g>

           <circle
   cx="219.10001"
   cy="200.71001"
   r="1.36"
   id="circle233"
   fill="#dc22cb" />

           <circle
   cx="223.03"
   cy="200.72"
   r="1.36"
   id="circle235"
   fill="#1a0d98" />

         </g>

       </g>
  <path
     class="st8"
     id="rect241"
     d="m 111.61,200.71 h 149.65 v 6.13 H 111.61 Z" />
  <g
     id="g267">
         <g
   id="g253">
           <g
   id="g251">
             <path
   class="st0"
   d="m 34.11,318.73 c -6.54,1 -11.53,1.44 -15.01,1.15 v -23.27 c 8.33,-3.25 16.73,-6.25 25.19,-9 0,2.43 0.54,4.02 1.62,4.77 1.08,0.75 3.04,0.67 5.9,-0.2 2.39,-0.73 4.12,-1.61 5.16,-2.66 1.04,-1.05 1.57,-2.32 1.57,-3.81 0,-1.25 -0.5,-2.19 -1.51,-2.79 -1.01,-0.6 -2.75,-1.01 -5.22,-1.2 -3.32,-0.16 -6.63,-0.28 -9.94,-0.36 -8.52,-0.46 -14.59,-2.08 -18.27,-5.15 -3.68,-3.07 -5.51,-8.37 -5.51,-15.97 0,-9.24 2.93,-17.45 8.82,-24.46 5.9,-6.99 15.76,-12.96 29.77,-17.1 6.73,-1.98 13.1,-3 19.07,-3.11 5.98,-0.11 10.82,0.64 14.51,2.12 v 21.04 c -7.85,1.68 -15.68,3.57 -23.45,5.66 0,-3.91 -2.42,-5.24 -7.22,-3.87 -2.33,0.67 -3.97,1.45 -4.94,2.33 -0.97,0.88 -1.45,2.06 -1.45,3.55 0,1.33 0.56,2.22 1.68,2.67 1.12,0.45 2.96,0.73 5.52,0.86 3.37,0.21 6.76,0.47 10.15,0.76 8.26,0.67 14.32,2.99 18.13,6.66 3.81,3.68 5.72,9.2 5.72,16.48 0,9.96 -3.37,18.13 -10.07,24.74 -6.7,6.63 -16.5,11.53 -29.27,15.32 -7.43,2.21 -14.41,3.84 -20.95,4.84 z"
   id="path243" />

             <path
   class="st0"
   d="m 97.69,301.72 v -19.27 c 1.97,-0.39 3.94,-0.76 5.91,-1.12 v -52.88 c -1.97,0.36 -3.94,0.73 -5.91,1.12 V 210.3 c 16.62,-3.27 33.37,-5.61 50.18,-7.02 v 19.27 c -3.67,0.31 -7.33,0.66 -10.99,1.06 v 52.88 c 3.58,-0.39 7.16,-0.73 10.75,-1.04 v -10.81 c 7.93,-0.67 15.87,-1.14 23.82,-1.39 v 30.08 c -24.72,0.8 -49.39,3.6 -73.76,8.39 z"
   id="path245" />

             <path
   class="st0"
   d="m 187.69,286.62 c -6.83,-5.42 -10.25,-14.08 -10.25,-26.24 v -39.37 c -2,0.04 -3.99,0.09 -5.99,0.16 V 201.9 c 14.77,-0.48 29.57,-0.25 44.32,0.69 v 19.27 c -1.6,-0.1 -3.19,-0.2 -4.79,-0.28 v 45.36 c 0,2.59 0.58,4.52 1.74,5.8 1.16,1.28 2.89,1.99 5.21,2.15 2.31,0.16 4.04,-0.31 5.2,-1.43 1.15,-1.12 1.73,-2.97 1.73,-5.56 v -45.36 c -1.59,-0.13 -3.19,-0.26 -4.78,-0.38 v -19.27 c 13.67,1 27.31,2.62 40.88,4.84 V 227 c -1.98,-0.32 -3.96,-0.64 -5.94,-0.93 v 39.37 c 0,12.15 -3.28,20.4 -9.87,24.95 -6.59,4.56 -16.05,6.17 -28.42,5.35 -12.52,-0.84 -22.21,-3.69 -29.04,-9.12 z"
   id="path247" />

             <path
   class="st0"
   d="m 265.23,280.6 c 1.97,0.34 3.95,0.7 5.92,1.07 V 228.9 c -1.97,-0.37 -3.94,-0.73 -5.92,-1.07 v -19.39 c 16.04,2.79 31.96,6.43 47.7,10.93 12.95,3.71 23.12,10.79 30.63,20.69 7.5,9.91 11.22,23.08 11.22,39.21 0,16.15 -3.72,26.29 -11.22,30.72 -7.51,4.45 -17.68,4.53 -30.63,0.82 -15.74,-4.5 -31.66,-8.15 -47.7,-10.93 z m 45.6,10.35 c 2.64,0.74 4.61,0.61 5.93,-0.41 1.32,-1.02 1.97,-3.02 1.97,-5.99 v -35.49 c 0,-5.79 -2.63,-9.5 -7.9,-10.99 -2.25,-0.63 -4.51,-1.25 -6.76,-1.84 v 52.88 c 2.26,0.59 4.51,1.2 6.76,1.84 z"
   id="path249" />

           </g>

         </g>

         <g
   id="g265">
           <g
   id="g263">
             <path
   class="st1"
   d="m 34.22,320.13 c -6.52,1.06 -11.5,1.54 -14.97,1.28 v -23.27 c 8.31,-3.33 16.69,-6.4 25.13,-9.21 0,2.43 0.54,4.01 1.61,4.75 1.08,0.75 3.03,0.65 5.89,-0.25 2.39,-0.75 4.11,-1.64 5.15,-2.7 1.04,-1.06 1.57,-2.33 1.57,-3.82 0,-1.25 -0.5,-2.18 -1.51,-2.78 -1.01,-0.6 -2.74,-0.99 -5.21,-1.16 -3.32,-0.14 -6.62,-0.23 -9.92,-0.29 -8.51,-0.4 -14.56,-1.96 -18.23,-5 -3.67,-3.04 -5.5,-8.32 -5.5,-15.92 0,-9.24 2.92,-17.48 8.8,-24.54 5.88,-7.04 15.73,-13.1 29.72,-17.33 6.72,-2.03 13.08,-3.08 19.05,-3.23 5.97,-0.14 10.81,0.58 14.5,2.04 v 21.04 c -7.85,1.72 -15.66,3.65 -23.43,5.79 0,-3.91 -2.41,-5.23 -7.21,-3.82 -2.32,0.68 -3.97,1.48 -4.93,2.36 -0.97,0.88 -1.45,2.07 -1.45,3.56 0,1.33 0.56,2.22 1.68,2.66 1.12,0.44 2.95,0.71 5.51,0.82 3.37,0.19 6.75,0.42 10.13,0.7 8.25,0.62 14.31,2.91 18.11,6.56 3.8,3.66 5.71,9.17 5.71,16.45 0,9.96 -3.37,18.14 -10.06,24.79 -6.69,6.66 -16.48,11.62 -29.23,15.5 -7.43,2.28 -14.39,3.97 -20.91,5.02 z"
   id="path255" />

             <path
   class="st1"
   d="m 97.71,302.71 v -19.27 c 1.97,-0.4 3.94,-0.78 5.91,-1.15 v -52.88 c -1.97,0.37 -3.94,0.75 -5.91,1.15 v -19.27 c 16.6,-3.34 33.35,-5.74 50.16,-7.18 v 19.27 c -3.66,0.32 -7.33,0.68 -10.98,1.08 v 52.88 c 3.58,-0.4 7.16,-0.75 10.75,-1.06 v -10.81 c 7.93,-0.69 15.87,-1.16 23.82,-1.43 v 30.08 c -24.73,0.83 -49.39,3.69 -73.75,8.59 z"
   id="path257" />

             <path
   class="st1"
   d="m 187.69,287.41 c -6.83,-5.42 -10.25,-14.08 -10.25,-26.24 V 221.8 c -2,0.04 -3.99,0.09 -5.99,0.16 v -19.27 c 14.77,-0.49 29.57,-0.26 44.32,0.71 v 19.27 c -1.6,-0.1 -3.19,-0.2 -4.79,-0.29 v 45.36 c 0,2.59 0.58,4.52 1.74,5.8 1.16,1.28 2.89,1.99 5.2,2.16 2.31,0.16 4.04,-0.31 5.2,-1.43 1.15,-1.12 1.73,-2.97 1.73,-5.55 v -45.36 c -1.59,-0.14 -3.19,-0.26 -4.78,-0.38 v -19.27 c 13.67,1.03 27.31,2.68 40.87,4.96 v 19.27 c -1.98,-0.33 -3.95,-0.65 -5.93,-0.96 v 39.37 c 0,12.15 -3.28,20.38 -9.87,24.91 -6.59,4.54 -16.05,6.12 -28.41,5.28 -12.52,-0.84 -22.21,-3.69 -29.04,-9.13 z"
   id="path259" />

             <path
   class="st1"
   d="m 265.21,281.56 c 1.97,0.35 3.95,0.72 5.92,1.09 v -52.77 c -1.97,-0.38 -3.94,-0.74 -5.92,-1.09 V 209.4 a 447.33,447.33 0 0 1 47.65,11.19 c 12.93,3.8 23.08,10.96 30.57,20.92 7.49,9.97 11.19,23.18 11.19,39.3 0,16.15 -3.71,26.25 -11.19,30.62 -7.49,4.38 -17.64,4.38 -30.57,0.59 a 448.476,448.476 0 0 0 -47.65,-11.19 z m 45.57,10.58 c 2.64,0.76 4.61,0.65 5.92,-0.37 1.31,-1.01 1.97,-3 1.97,-5.98 V 250.3 c 0,-5.79 -2.62,-9.52 -7.89,-11.05 -2.25,-0.65 -4.5,-1.28 -6.75,-1.89 v 52.88 c 2.25,0.62 4.5,1.25 6.75,1.9 z"
   id="path261" />

           </g>

         </g>

       </g>
  <g
     id="g369"
     fill="url(#radialGradient9920)"
     fill-opacity="1"
     style="fill:url(#radialGradient9920)"
     transform="translate(-0.12,1.4534426)">
         <linearGradient
   id="SVGID_00000041293135197254196560000013797447786630394241_"
   gradientUnits="userSpaceOnUse"
   x1="56.602001"
   y1="216.664"
   x2="56.602001"
   y2="321.48401">
           <stop
   offset="0"
   id="stop269"
   stop-color="#868686"
   fill-opacity="1"
   fill="url(#radialGradient9920)" />

           <stop
   offset=".293"
   id="stop271"
   stop-color="#fff"
   fill-opacity="1"
   fill="url(#radialGradient9920)" />

           <stop
   offset=".547"
   id="stop273"
   stop-color="#fff"
   fill-opacity="1"
   fill="url(#radialGradient9920)" />

           <stop
   offset=".548"
   id="stop275"
   stop-color="#fbfbfb"
   fill-opacity="1"
   fill="url(#radialGradient9920)" />

           <stop
   offset=".552"
   id="stop277"
   stop-color="#dcdcdc"
   fill-opacity="1"
   fill="url(#radialGradient9920)" />

           <stop
   offset=".556"
   id="stop279"
   stop-color="#c1c1c1"
   fill-opacity="1"
   fill="url(#radialGradient9920)" />

           <stop
   offset=".56"
   id="stop281"
   stop-color="#ababab"
   fill-opacity="1"
   fill="url(#radialGradient9920)" />

           <stop
   offset=".566"
   id="stop283"
   stop-color="#9a9a9a"
   fill-opacity="1"
   fill="url(#radialGradient9920)" />

           <stop
   offset=".573"
   id="stop285"
   stop-color="#8f8f8f"
   fill-opacity="1"
   fill="url(#radialGradient9920)" />

           <stop
   offset=".582"
   id="stop287"
   stop-color="#888"
   fill-opacity="1"
   fill="url(#radialGradient9920)" />

           <stop
   offset=".609"
   id="stop289"
   stop-color="#868686"
   fill-opacity="1"
   fill="url(#radialGradient9920)" />

         </linearGradient>

         <path
   d="m 34.5,320.13 c -6.52,1.06 -11.5,1.54 -14.97,1.28 v -23.27 c 8.31,-3.33 16.69,-6.4 25.13,-9.21 0,2.43 0.54,4.01 1.61,4.75 1.08,0.75 3.04,0.65 5.89,-0.25 2.39,-0.75 4.11,-1.64 5.15,-2.7 1.04,-1.06 1.57,-2.33 1.57,-3.82 0,-1.25 -0.5,-2.18 -1.51,-2.78 -1.01,-0.6 -2.75,-0.99 -5.21,-1.16 -3.32,-0.14 -6.62,-0.23 -9.92,-0.29 -8.51,-0.4 -14.56,-1.96 -18.23,-5 -3.67,-3.04 -5.5,-8.32 -5.5,-15.92 0,-9.24 2.92,-17.48 8.8,-24.54 5.88,-7.04 15.73,-13.1 29.72,-17.33 6.72,-2.03 13.08,-3.08 19.05,-3.23 5.97,-0.14 10.81,0.58 14.5,2.04 v 21.04 c -7.85,1.72 -15.66,3.65 -23.43,5.79 0,-3.91 -2.41,-5.23 -7.21,-3.82 -2.32,0.68 -3.97,1.48 -4.93,2.36 -0.97,0.88 -1.45,2.07 -1.45,3.56 0,1.33 0.56,2.22 1.68,2.66 1.12,0.44 2.95,0.71 5.51,0.82 3.37,0.19 6.75,0.42 10.13,0.7 8.25,0.62 14.31,2.91 18.11,6.56 3.8,3.66 5.71,9.17 5.71,16.45 0,9.96 -3.37,18.14 -10.06,24.79 -6.69,6.66 -16.48,11.62 -29.23,15.5 -7.42,2.28 -14.38,3.97 -20.91,5.02 z"
   id="path292"
   stroke="#061124"
   stroke-width="8"
   stroke-miterlimit="10"
   style="fill:url(#radialGradient1035)" />

         <linearGradient
   id="SVGID_00000062168603948953996480000009807334341154683578_"
   gradientUnits="userSpaceOnUse"
   x1="134.867"
   y1="204.10201"
   x2="134.867"
   y2="302.715">
           <stop
   offset="0"
   id="stop294"
   stop-color="#868686"
   fill-opacity="1"
   fill="url(#radialGradient9920)" />

           <stop
   offset=".293"
   id="stop296"
   stop-color="#fff"
   fill-opacity="1"
   fill="url(#radialGradient9920)" />

           <stop
   offset=".523"
   id="stop298"
   stop-color="#fff"
   fill-opacity="1"
   fill="url(#radialGradient9920)" />

           <stop
   offset=".524"
   id="stop300"
   stop-color="#fbfbfb"
   fill-opacity="1"
   fill="url(#radialGradient9920)" />

           <stop
   offset=".536"
   id="stop302"
   stop-color="#dcdcdc"
   fill-opacity="1"
   fill="url(#radialGradient9920)" />

           <stop
   offset=".548"
   id="stop304"
   stop-color="#c1c1c1"
   fill-opacity="1"
   fill="url(#radialGradient9920)" />

           <stop
   offset=".562"
   id="stop306"
   stop-color="#ababab"
   fill-opacity="1"
   fill="url(#radialGradient9920)" />

           <stop
   offset=".579"
   id="stop308"
   stop-color="#9a9a9a"
   fill-opacity="1"
   fill="url(#radialGradient9920)" />

           <stop
   offset=".6"
   id="stop310"
   stop-color="#8f8f8f"
   fill-opacity="1"
   fill="url(#radialGradient9920)" />

           <stop
   offset=".629"
   id="stop312"
   stop-color="#888"
   fill-opacity="1"
   fill="url(#radialGradient9920)" />

           <stop
   offset=".71"
   id="stop314"
   stop-color="#868686"
   fill-opacity="1"
   fill="url(#radialGradient9920)" />

         </linearGradient>

         <path
   d="m 98,302.71 v -19.27 c 1.97,-0.4 3.94,-0.78 5.91,-1.15 v -52.88 c -1.97,0.37 -3.94,0.75 -5.91,1.15 v -19.27 c 16.6,-3.34 33.35,-5.74 50.16,-7.18 v 19.27 c -3.66,0.32 -7.33,0.68 -10.98,1.08 v 52.88 c 3.58,-0.4 7.16,-0.75 10.75,-1.06 v -10.81 c 7.93,-0.69 15.87,-1.16 23.82,-1.43 v 30.08 c -24.73,0.83 -49.4,3.69 -73.75,8.59 z"
   id="path317"
   stroke="#061124"
   stroke-width="8"
   stroke-miterlimit="10"
   style="fill:url(#radialGradient1037)" />

         <linearGradient
   id="SVGID_00000174602950631366302720000001410080400941283509_"
   gradientUnits="userSpaceOnUse"
   x1="216.485"
   y1="202.44701"
   x2="216.485"
   y2="296.76001">
           <stop
   offset="0"
   id="stop319"
   stop-color="#868686"
   fill-opacity="1"
   fill="url(#radialGradient9920)" />

           <stop
   offset=".234"
   id="stop321"
   stop-color="#fff"
   fill-opacity="1"
   fill="url(#radialGradient9920)" />

           <stop
   offset=".547"
   id="stop323"
   stop-color="#fff"
   fill-opacity="1"
   fill="url(#radialGradient9920)" />

           <stop
   offset=".548"
   id="stop325"
   stop-color="#fbfbfb"
   fill-opacity="1"
   fill="url(#radialGradient9920)" />

           <stop
   offset=".552"
   id="stop327"
   stop-color="#dcdcdc"
   fill-opacity="1"
   fill="url(#radialGradient9920)" />

           <stop
   offset=".556"
   id="stop329"
   stop-color="#c1c1c1"
   fill-opacity="1"
   fill="url(#radialGradient9920)" />

           <stop
   offset=".56"
   id="stop331"
   stop-color="#ababab"
   fill-opacity="1"
   fill="url(#radialGradient9920)" />

           <stop
   offset=".566"
   id="stop333"
   stop-color="#9a9a9a"
   fill-opacity="1"
   fill="url(#radialGradient9920)" />

           <stop
   offset=".573"
   id="stop335"
   stop-color="#8f8f8f"
   fill-opacity="1"
   fill="url(#radialGradient9920)" />

           <stop
   offset=".582"
   id="stop337"
   stop-color="#888"
   fill-opacity="1"
   fill="url(#radialGradient9920)" />

           <stop
   offset=".609"
   id="stop339"
   stop-color="#868686"
   fill-opacity="1"
   fill="url(#radialGradient9920)" />

         </linearGradient>

         <path
   d="m 187.97,287.41 c -6.83,-5.42 -10.25,-14.08 -10.25,-26.24 V 221.8 c -2,0.04 -3.99,0.09 -5.99,0.16 v -19.27 c 14.77,-0.49 29.57,-0.26 44.32,0.71 v 19.27 c -1.6,-0.1 -3.19,-0.2 -4.79,-0.29 v 45.36 c 0,2.59 0.58,4.52 1.74,5.8 1.16,1.28 2.89,1.99 5.2,2.16 2.31,0.16 4.04,-0.31 5.2,-1.43 1.15,-1.12 1.73,-2.97 1.73,-5.55 v -45.36 c -1.59,-0.14 -3.19,-0.26 -4.78,-0.38 v -19.27 c 13.67,1.03 27.31,2.68 40.87,4.96 v 19.27 c -1.98,-0.33 -3.95,-0.65 -5.93,-0.96 v 39.37 c 0,12.15 -3.28,20.38 -9.87,24.91 -6.59,4.54 -16.05,6.12 -28.41,5.28 -12.52,-0.84 -22.21,-3.69 -29.04,-9.13 z"
   id="path342"
   stroke="#061124"
   stroke-width="8"
   stroke-miterlimit="10"
   style="fill:url(#radialGradient1039)" />

         <linearGradient
   id="SVGID_00000052820731710317805040000011026942546751797906_"
   gradientUnits="userSpaceOnUse"
   x1="310.20901"
   y1="209.40199"
   x2="310.20901"
   y2="314.79599">
           <stop
   offset="0"
   id="stop344"
   stop-color="#868686"
   fill-opacity="1"
   fill="url(#radialGradient9920)" />

           <stop
   offset=".293"
   id="stop346"
   stop-color="#fff"
   fill-opacity="1"
   fill="url(#radialGradient9920)" />

           <stop
   offset=".547"
   id="stop348"
   stop-color="#fff"
   fill-opacity="1"
   fill="url(#radialGradient9920)" />

           <stop
   offset=".548"
   id="stop350"
   stop-color="#fbfbfb"
   fill-opacity="1"
   fill="url(#radialGradient9920)" />

           <stop
   offset=".552"
   id="stop352"
   stop-color="#dcdcdc"
   fill-opacity="1"
   fill="url(#radialGradient9920)" />

           <stop
   offset=".556"
   id="stop354"
   stop-color="#c1c1c1"
   fill-opacity="1"
   fill="url(#radialGradient9920)" />

           <stop
   offset=".56"
   id="stop356"
   stop-color="#ababab"
   fill-opacity="1"
   fill="url(#radialGradient9920)" />

           <stop
   offset=".566"
   id="stop358"
   stop-color="#9a9a9a"
   fill-opacity="1"
   fill="url(#radialGradient9920)" />

           <stop
   offset=".573"
   id="stop360"
   stop-color="#8f8f8f"
   fill-opacity="1"
   fill="url(#radialGradient9920)" />

           <stop
   offset=".582"
   id="stop362"
   stop-color="#888"
   fill-opacity="1"
   fill="url(#radialGradient9920)" />

           <stop
   offset=".582"
   id="stop364"
   stop-color="#868686"
   fill-opacity="1"
   fill="url(#radialGradient9920)" />

         </linearGradient>

         <path
   d="m 265.5,281.56 c 1.97,0.35 3.95,0.72 5.92,1.09 v -52.77 c -1.97,-0.38 -3.94,-0.74 -5.92,-1.09 V 209.4 a 447.33,447.33 0 0 1 47.65,11.19 c 12.93,3.8 23.08,10.96 30.57,20.92 7.49,9.97 11.19,23.18 11.19,39.3 0,16.15 -3.71,26.25 -11.19,30.62 -7.49,4.38 -17.64,4.38 -30.57,0.59 A 448.476,448.476 0 0 0 265.5,300.83 Z m 45.56,10.58 c 2.63,0.76 4.61,0.65 5.92,-0.37 1.31,-1.01 1.97,-3 1.97,-5.98 V 250.3 c 0,-5.79 -2.62,-9.52 -7.89,-11.05 -2.25,-0.65 -4.5,-1.28 -6.75,-1.89 v 52.88 c 2.25,0.62 4.5,1.25 6.75,1.9 z"
   id="path367"
   stroke="#061124"
   stroke-width="8"
   stroke-miterlimit="10"
   style="fill:url(#radialGradient1041)" />

       </g>
  <g
     id="g379">
         <text
   transform="translate(114.674,350.854)"
   id="text377"
   font-size="69.56px"
   font-family="AlfaSlabOne-Regular"
   fill="#06dafa"
   stroke="#061124"
   stroke-width="6"
   stroke-miterlimit="10"><tspan
     style="-inkscape-font-specification:'Alfa Slab One'"
     id="tspan12535"
     font-style="normal"
     font-variant="normal"
     font-weight="400"
     font-stretch="normal"
     font-family="'Alfa Slab One'">XIX</tspan></text>

       </g>
</g>

     </g>

   </g>
  </g>
  <g
     inkscape:groupmode="layer"
     id="layer3"
     inkscape:label="Lineas"
     sodipodi:insensitive="true">
    <g
       id="g48656"
       transform="matrix(0.90453877,0,0,0.90453877,10.291915,14.566825)">
      <rect
         style="opacity:1;fill:none;fill-opacity:1;stroke:#06d9fa;stroke-width:3;stroke-miterlimit:4;stroke-dasharray:none;stroke-opacity:1;filter:url(#filter39584)"
         id="rect26629"
         width="209.46904"
         height="295.92825"
         x="1.4210855e-14"
         y="0.28156245" />
      <rect
         style="opacity:1;fill:none;fill-opacity:1;stroke:#06d9fa;stroke-width:2.5;stroke-miterlimit:4;stroke-dasharray:none;stroke-opacity:1"
         id="rect39582"
         width="209.46904"
         height="295.92825"
         x="1.4210855e-14"
         y="0.28156245" />
      <rect
         style="opacity:1;fill:none;fill-opacity:1;stroke:#ffffff;stroke-width:0.8;stroke-miterlimit:4;stroke-dasharray:none;stroke-opacity:1"
         id="rect39588"
         width="209.46904"
         height="295.92825"
         x="1.4210855e-14"
         y="0.28156245" />
    </g>
    <g
       id="g48664"
       transform="matrix(0.90453877,0,0,0.30174427,10.291915,14.73655)">
      <rect
         style="opacity:1;fill:none;fill-opacity:1;stroke:#06d9fa;stroke-width:3;stroke-miterlimit:4;stroke-dasharray:none;stroke-opacity:1;filter:url(#filter39584)"
         id="rect48658"
         width="209.46904"
         height="295.92825"
         x="1.4210855e-14"
         y="0.28156245" />
      <rect
         style="opacity:1;fill:none;fill-opacity:1;stroke:#06d9fa;stroke-width:2.5;stroke-miterlimit:4;stroke-dasharray:none;stroke-opacity:1"
         id="rect48660"
         width="209.46904"
         height="295.92825"
         x="1.4210855e-14"
         y="0.28156245" />
      <rect
         style="opacity:1;fill:none;fill-opacity:1;stroke:#ffffff;stroke-width:0.8;stroke-miterlimit:4;stroke-dasharray:none;stroke-opacity:1"
         id="rect48662"
         width="209.46904"
         height="295.92825"
         x="1.4210855e-14"
         y="0.28156245" />
    </g>
    <g
       id="g48672"
       transform="matrix(0.90453877,0,0,0.30174427,10.291915,104.0312)">
      <rect
         style="opacity:1;fill:none;fill-opacity:1;stroke:#06d9fa;stroke-width:3;stroke-miterlimit:4;stroke-dasharray:none;stroke-opacity:1;filter:url(#filter39584)"
         id="rect48666"
         width="209.46904"
         height="295.92825"
         x="1.4210855e-14"
         y="0.28156245" />
      <rect
         style="opacity:1;fill:none;fill-opacity:1;stroke:#06d9fa;stroke-width:2.5;stroke-miterlimit:4;stroke-dasharray:none;stroke-opacity:1"
         id="rect48668"
         width="209.46904"
         height="295.92825"
         x="1.4210855e-14"
         y="0.28156245" />
      <rect
         style="opacity:1;fill:none;fill-opacity:1;stroke:#ffffff;stroke-width:0.8;stroke-miterlimit:4;stroke-dasharray:none;stroke-opacity:1"
         id="rect48670"
         width="209.46904"
         height="295.92825"
         x="1.4210855e-14"
         y="0.28156245" />
    </g>
    <g
       id="g48680"
       transform="matrix(0.90453877,0,0,0.30174427,10.291915,193.58054)">
      <rect
         style="opacity:1;fill:none;fill-opacity:1;stroke:#06d9fa;stroke-width:3;stroke-miterlimit:4;stroke-dasharray:none;stroke-opacity:1;filter:url(#filter39584)"
         id="rect48674"
         width="209.46904"
         height="295.92825"
         x="1.4210855e-14"
         y="0.28156245" />
      <rect
         style="opacity:1;fill:none;fill-opacity:1;stroke:#06d9fa;stroke-width:2.5;stroke-miterlimit:4;stroke-dasharray:none;stroke-opacity:1"
         id="rect48676"
         width="209.46904"
         height="295.92825"
         x="1.4210855e-14"
         y="0.28156245" />
      <rect
         style="opacity:1;fill:none;fill-opacity:1;stroke:#ffffff;stroke-width:0.8;stroke-miterlimit:4;stroke-dasharray:none;stroke-opacity:1"
         id="rect48678"
         width="209.46904"
         height="295.92825"
         x="1.4210855e-14"
         y="0.28156245" />
    </g>
  </g>
  <g
     inkscape:label="Formatos"
     inkscape:groupmode="layer"
     id="layer1"
     style="display:inline"
     sodipodi:insensitive="true">
    <g
       id="g850"
       transform="matrix(0.40517177,0,0,0.40517177,29.155461,122.42955)">
      <path
         d="M 65.033,0 C 37.891,0 29.953,0.028 28.41,0.156 c -5.57,0.463 -9.036,1.34 -12.812,3.22 -2.91,1.445 -5.205,3.12 -7.47,5.468 -4.125,4.282 -6.625,9.55 -7.53,15.812 -0.44,3.04 -0.568,3.66 -0.594,19.188 -0.01,5.176 0,11.988 0,21.125 0,27.12 0.03,35.05 0.16,36.59 0.45,5.42 1.3,8.83 3.1,12.56 3.44,7.14 10.01,12.5 17.75,14.5 2.68,0.69 5.64,1.07 9.44,1.25 1.61,0.07 18.02,0.12 34.44,0.12 16.42,0 32.84,-0.02 34.41,-0.1 4.4,-0.207 6.955,-0.55 9.78,-1.28 a 27.22,27.22 0 0 0 17.75,-14.53 c 1.765,-3.64 2.66,-7.18 3.065,-12.317 0.088,-1.12 0.125,-18.977 0.125,-36.81 0,-17.836 -0.04,-35.66 -0.128,-36.78 -0.41,-5.22 -1.305,-8.73 -3.127,-12.44 -1.495,-3.037 -3.155,-5.305 -5.565,-7.624 C 116.904,4 111.644,1.5 105.375,0.596 102.338,0.157 101.733,0.027 86.193,0 Z"
         fill="url(#c)"
         id="path22"
         style="fill:url(#c)" />
      <path
         d="M 65.033,0 C 37.891,0 29.953,0.028 28.41,0.156 c -5.57,0.463 -9.036,1.34 -12.812,3.22 -2.91,1.445 -5.205,3.12 -7.47,5.468 -4.125,4.282 -6.625,9.55 -7.53,15.812 -0.44,3.04 -0.568,3.66 -0.594,19.188 -0.01,5.176 0,11.988 0,21.125 0,27.12 0.03,35.05 0.16,36.59 0.45,5.42 1.3,8.83 3.1,12.56 3.44,7.14 10.01,12.5 17.75,14.5 2.68,0.69 5.64,1.07 9.44,1.25 1.61,0.07 18.02,0.12 34.44,0.12 16.42,0 32.84,-0.02 34.41,-0.1 4.4,-0.207 6.955,-0.55 9.78,-1.28 a 27.22,27.22 0 0 0 17.75,-14.53 c 1.765,-3.64 2.66,-7.18 3.065,-12.317 0.088,-1.12 0.125,-18.977 0.125,-36.81 0,-17.836 -0.04,-35.66 -0.128,-36.78 -0.41,-5.22 -1.305,-8.73 -3.127,-12.44 -1.495,-3.037 -3.155,-5.305 -5.565,-7.624 C 116.904,4 111.644,1.5 105.375,0.596 102.338,0.157 101.733,0.027 86.193,0 Z"
         fill="url(#d)"
         id="path24"
         style="fill:url(#d)" />
      <path
         d="m 65.003,17 c -13.036,0 -14.672,0.057 -19.792,0.29 -5.11,0.234 -8.598,1.043 -11.65,2.23 -3.157,1.226 -5.835,2.866 -8.503,5.535 -2.67,2.668 -4.31,5.346 -5.54,8.502 -1.19,3.053 -2,6.542 -2.23,11.65 C 17.06,50.327 17,51.964 17,65 c 0,13.036 0.058,14.667 0.29,19.787 0.235,5.11 1.044,8.598 2.23,11.65 1.227,3.157 2.867,5.835 5.536,8.503 2.667,2.67 5.345,4.314 8.5,5.54 3.054,1.187 6.543,1.996 11.652,2.23 5.12,0.233 6.755,0.29 19.79,0.29 13.037,0 14.668,-0.057 19.788,-0.29 5.11,-0.234 8.602,-1.043 11.656,-2.23 3.156,-1.226 5.83,-2.87 8.497,-5.54 2.67,-2.668 4.31,-5.346 5.54,-8.502 1.18,-3.053 1.99,-6.542 2.23,-11.65 0.23,-5.12 0.29,-6.752 0.29,-19.788 0,-13.036 -0.06,-14.672 -0.29,-19.792 -0.24,-5.11 -1.05,-8.598 -2.23,-11.65 -1.23,-3.157 -2.87,-5.835 -5.54,-8.503 -2.67,-2.67 -5.34,-4.31 -8.5,-5.535 -3.06,-1.187 -6.55,-1.996 -11.66,-2.23 C 79.659,17.057 78.029,17 64.989,17 Z m -4.306,8.65 c 1.278,-0.002 2.704,0 4.306,0 12.816,0 14.335,0.046 19.396,0.276 4.68,0.214 7.22,0.996 8.912,1.653 2.24,0.87 3.837,1.91 5.516,3.59 1.68,1.68 2.72,3.28 3.592,5.52 0.657,1.69 1.44,4.23 1.653,8.91 0.23,5.06 0.28,6.58 0.28,19.39 0,12.81 -0.05,14.33 -0.28,19.39 -0.214,4.68 -0.996,7.22 -1.653,8.91 -0.87,2.24 -1.912,3.835 -3.592,5.514 -1.68,1.68 -3.275,2.72 -5.516,3.59 -1.69,0.66 -4.232,1.44 -8.912,1.654 -5.06,0.23 -6.58,0.28 -19.396,0.28 -12.817,0 -14.336,-0.05 -19.396,-0.28 -4.68,-0.216 -7.22,-0.998 -8.913,-1.655 -2.24,-0.87 -3.84,-1.91 -5.52,-3.59 -1.68,-1.68 -2.72,-3.276 -3.592,-5.517 -0.657,-1.69 -1.44,-4.23 -1.653,-8.91 -0.23,-5.06 -0.276,-6.58 -0.276,-19.398 0,-12.818 0.046,-14.33 0.276,-19.39 0.214,-4.68 0.996,-7.22 1.653,-8.912 0.87,-2.24 1.912,-3.84 3.592,-5.52 1.68,-1.68 3.28,-2.72 5.52,-3.592 1.692,-0.66 4.233,-1.44 8.913,-1.655 4.428,-0.2 6.144,-0.26 15.09,-0.27 z m 29.928,7.97 a 5.76,5.76 0 1 0 5.76,5.758 c 0,-3.18 -2.58,-5.76 -5.76,-5.76 z m -25.622,6.73 c -13.613,0 -24.65,11.037 -24.65,24.65 0,13.613 11.037,24.645 24.65,24.645 C 78.616,89.645 89.65,78.613 89.65,65 89.65,51.387 78.615,40.35 65.002,40.35 Z m 0,8.65 c 8.836,0 16,7.163 16,16 0,8.836 -7.164,16 -16,16 -8.837,0 -16,-7.164 -16,-16 0,-8.837 7.163,-16 16,-16 z"
         fill="#ffffff"
         id="path26" />
    </g>
    <g
       id="g1786"
       transform="matrix(0.19308882,0,0,0.19308882,29.953257,33.924792)">
      <path
         style="fill:#f9fbfe;stroke-width:0.814103"
         d="m 0.08388658,203.72918 c 0.07400296,-53.68426 0.20902408,-59.94295 1.14598242,-53.1202 7.3641618,53.62439 47.340288,97.64639 100.251051,110.39719 5.01764,1.20919 8.92211,1.77543 9.34263,1.35491 0.40825,-0.40826 0.6309,-20.35094 0.51195,-45.85746 L 111.125,171.3686 94.842951,170.96155 78.560899,170.5545 v -19.13141 -19.13142 l 16.282052,-0.40705 16.282049,-0.40705 0.47397,-20.75961 c 0.44746,-19.598204 0.595,-21.127553 2.63713,-27.336274 5.16552,-15.704793 16.07282,-25.906853 32.30237,-30.213761 3.84374,-1.020032 8.41026,-1.396584 16.6891,-1.376172 11.39608,0.02809 26.30885,1.465212 27.49405,2.649549 0.34576,0.345514 0.52893,7.745503 0.40705,16.444418 l -0.22161,15.81621 -12.21154,0.431621 c -13.09698,0.462915 -16.48488,1.423019 -20.46087,5.798446 -4.42513,4.869701 -4.7666,6.521206 -4.77162,23.077623 l -0.005,15.46795 17.73841,0.21949 c 13.13097,0.16248 17.83402,0.47967 18.10653,1.22116 0.45157,1.22872 -4.95912,36.32853 -5.71756,37.09045 -0.29884,0.3002 -7.19975,0.729 -15.33536,0.95288 l -14.79202,0.40705 -0.21049,45.13502 c -0.11895,25.50652 0.10369,45.4492 0.51195,45.85746 0.42051,0.42052 4.32499,-0.14572 9.34262,-1.35491 52.91096,-12.7508 92.88709,-56.7728 100.25125,-110.39719 0.93696,-6.82275 1.07198,-0.56406 1.14598,53.1202 l 0.0839,60.85416 H 132.29167 0 Z m 0,-142.875007 L 0,4.9999999e-6 60.854168,0.08389158 C 114.53842,0.15789454 120.79711,0.29291566 113.97436,1.229874 55.690069,9.2339741 9.2339691,55.690074 1.229869,113.97437 0.29291066,120.79712 0.15788954,114.53843 0.08388658,60.854173 Z M 263.451,115.31103 c -0.29856,-3.29464 -1.44194,-9.70349 -2.54086,-14.2419 C 248.18056,48.497419 204.0712,8.5717652 150.60898,1.229874 143.78623,0.29291566 150.04492,0.15789454 203.72917,0.08389158 L 264.58334,5e-6 v 60.650643 c 0,33.357853 -0.13264,60.650642 -0.29476,60.650642 -0.16212,0 -0.53904,-2.69562 -0.83758,-5.99026 z"
         id="path1790"
         clip-path="url(#clipPath2173)" />
      <path
         style="fill:#1776f1;stroke-width:0.814103"
         d="M 99.727567,260.57683 C 46.966272,246.88668 8.3134047,203.4456 1.172332,149.81282 -9.3944939,70.451066 52.251018,0.03179172 132.29167,0.03179172 c 73.15811,0 132.25988,59.10177228 132.25988,132.25987828 0,61.24909 -41.8551,114.35312 -101.44913,128.7145 -5.01764,1.20919 -8.92211,1.77543 -9.34263,1.35491 -0.40825,-0.40826 -0.6309,-20.35094 -0.51195,-45.85746 l 0.2105,-45.13502 14.79201,-0.40705 c 8.13562,-0.22388 15.03653,-0.65268 15.33537,-0.95288 0.75843,-0.76192 6.16913,-35.86173 5.71755,-37.09045 -0.2725,-0.74149 -4.97555,-1.05868 -18.10652,-1.22116 l -17.73841,-0.21949 0.005,-15.46795 c 0.005,-16.556417 0.3465,-18.207922 4.77163,-23.077623 3.97599,-4.375427 7.36389,-5.335531 20.46086,-5.798446 l 12.21154,-0.431621 0.22162,-15.81621 c 0.12188,-8.698915 -0.0613,-16.098904 -0.40705,-16.444418 -1.1852,-1.184337 -16.09797,-2.621452 -27.49406,-2.649549 -8.27883,-0.02041 -12.84535,0.35614 -16.6891,1.376172 -16.22954,4.306908 -27.13685,14.508968 -32.30237,30.213761 -2.04213,6.208721 -2.18967,7.73807 -2.63712,27.336274 l -0.47397,20.75961 -16.282054,0.40705 -16.282051,0.40705 v 19.13142 19.13141 l 16.282051,0.40705 16.282054,0.40705 v 45.57859 c 0,39.88832 -0.15246,45.60199 -1.22116,45.76593 -0.67163,0.10303 -5.25096,-0.8583 -10.176278,-2.13629 z"
         id="path1788" />
    </g>
    <path
       style="fill:#1e9bef;stroke-width:0.22861"
       d="m 39.379381,260.6995 c -1.005885,-0.16997 -2.754753,-0.57665 -3.886373,-0.90375 -2.544219,-0.73541 -7.429828,-3.03004 -7.429828,-3.48958 0,-0.25424 0.184257,-0.29686 0.791223,-0.18298 1.107776,0.20782 5.203494,-0.24395 7.228603,-0.79734 1.922792,-0.52542 5.924183,-2.41457 6.954136,-3.2832 0.814175,-0.68666 0.61765,-0.9153 -0.974274,-1.1335 -2.666525,-0.36549 -6.241641,-2.95589 -7.635436,-5.53237 -1.058914,-1.95743 -1.040273,-1.99272 1.065576,-2.01763 2.669011,-0.0315 2.787501,-0.26258 0.653811,-1.27462 -2.963485,-1.40563 -5.04485,-3.66731 -6.041915,-6.56533 -0.513243,-1.49177 -0.83113,-3.7263 -0.53008,-3.72612 0.11161,6e-5 0.717303,0.19393 1.34598,0.43083 1.32277,0.49844 3.086239,0.83065 3.086239,0.58141 0,-0.094 -0.568687,-0.76709 -1.263745,-1.49579 -2.421059,-2.53823 -3.612619,-6.24174 -3.090627,-9.60606 0.231373,-1.49122 1.045282,-3.85572 1.327215,-3.85572 0.0644,0 1.213849,1.05961 2.554336,2.35468 3.886945,3.75529 8.159941,6.3366 13.076578,7.89958 2.49176,0.79212 6.151491,1.47526 7.310314,1.36458 l 0.775148,-0.074 -0.0766,-1.71457 c -0.214758,-4.80702 2.347327,-9.05418 6.712401,-11.12714 1.549746,-0.73597 2.011424,-0.84475 3.989661,-0.94001 3.37349,-0.16244 5.892864,0.62313 8.21181,2.56056 0.539422,0.45067 1.084777,0.8194 1.2119,0.8194 0.670059,0 3.248128,-0.8249 4.811433,-1.53951 0.97961,-0.44779 1.853847,-0.74142 1.94276,-0.65252 0.305019,0.30503 -1.19263,2.74788 -2.510102,4.09431 -0.724874,0.74079 -1.317947,1.38739 -1.317947,1.43688 0,0.22241 1.16223,0.0504 2.629746,-0.3891 2.25287,-0.67477 2.628291,-0.74649 2.628291,-0.50212 0,0.35786 -2.309431,2.90114 -3.797242,4.18173 l -1.396831,1.20228 -0.129772,2.77087 c -0.565735,12.07888 -7.478324,22.97736 -17.895149,28.21374 -2.26502,1.13859 -5.981502,2.32905 -8.75199,2.80344 -3.081888,0.5277 -8.725257,0.57094 -11.579247,0.0887 z"
       id="path4744" />
    <rect
       style="opacity:0.783959;fill:#e41d72;fill-opacity:1;stroke:#06d9fa;stroke-width:0.5;stroke-miterlimit:4;stroke-dasharray:none;stroke-opacity:1"
       id="rect2136"
       width="60.529255"
       height="31.777861"
       x="110.11839"
       y="23.622883" />
    <rect
       style="opacity:0.783959;fill:#e41d72;fill-opacity:1;stroke:#06d9fa;stroke-width:0.5;stroke-miterlimit:4;stroke-dasharray:none;stroke-opacity:1"
       id="rect6714"
       width="75.186874"
       height="28.607689"
       x="102.78957"
       y="66.092201" />
    <g
       id="g51475"
       transform="translate(-15.522802,8.3952574)"
       style="opacity:0.783959">
      <text
         xml:space="preserve"
         style="font-style:normal;font-weight:normal;font-size:17.8313px;line-height:1.25;font-family:sans-serif;fill:#ffffff;fill-opacity:1;stroke:none;stroke-width:0.445781"
         x="131.50531"
         y="32.639526"
         id="text5294"><tspan
           sodipodi:role="line"
           id="tspan5292"
           style="fill:#ffffff;stroke-width:0.445781"
           x="131.50531"
           y="32.639526">POST</tspan></text>
      <text
         xml:space="preserve"
         style="font-style:normal;font-weight:normal;font-size:9.78566px;line-height:1.25;font-family:sans-serif;fill:#ffffff;fill-opacity:1;stroke:none;stroke-width:0.244642"
         x="131.00685"
         y="42.68919"
         id="text6500"><tspan
           sodipodi:role="line"
           id="tspan6498"
           style="fill:#ffffff;stroke-width:0.244642"
           x="131.00685"
           y="42.68919">1200x630</tspan></text>
    </g>
    <g
       id="g55440"
       transform="matrix(0.93384514,0,0,0.93384514,-10.037808,14.298252)"
       style="opacity:0.783959">
      <text
         xml:space="preserve"
         style="font-style:normal;font-weight:normal;font-size:19.2847px;line-height:1.25;font-family:sans-serif;fill:#ffffff;fill-opacity:1;stroke:none;stroke-width:0.482117"
         x="127.27211"
         y="73.389069"
         id="text6798"><tspan
           sodipodi:role="line"
           id="tspan6796"
           style="fill:#ffffff;stroke-width:0.482117"
           x="127.27211"
           y="73.389069">COVER</tspan></text>
      <text
         xml:space="preserve"
         style="font-style:normal;font-weight:normal;font-size:10.5833px;line-height:1.25;font-family:sans-serif;fill:#ffffff;fill-opacity:1;stroke:none;stroke-width:0.264583"
         x="137.91553"
         y="82.013847"
         id="text7996"><tspan
           sodipodi:role="line"
           id="tspan7994"
           style="fill:#ffffff;stroke-width:0.264583"
           x="137.91553"
           y="82.013847">820x312</tspan></text>
    </g>
    <rect
       style="opacity:0.783959;fill:#e41d72;fill-opacity:1;stroke:#06d9fa;stroke-width:0.5;stroke-miterlimit:4;stroke-dasharray:none;stroke-opacity:1"
       id="rect8638"
       width="44.374683"
       height="44.374683"
       x="92.998421"
       y="126.57614" />
    <g
       id="g55464"
       transform="translate(-21.505221,4.0483423)"
       style="opacity:0.783959;fill:#ffffff">
      <text
         xml:space="preserve"
         style="font-style:normal;font-weight:normal;font-size:13.3945px;line-height:1.25;font-family:sans-serif;fill:#ffffff;fill-opacity:1;stroke:none;stroke-width:0.334863"
         x="118.36184"
         y="145.7291"
         id="text8722"><tspan
           sodipodi:role="line"
           id="tspan8720"
           style="fill:#ffffff;stroke-width:0.334863"
           x="118.36184"
           y="145.7291">POST</tspan></text>
      <text
         xml:space="preserve"
         style="font-style:normal;font-weight:normal;font-size:6.47804px;line-height:1.25;font-family:sans-serif;fill:#ffffff;fill-opacity:1;stroke:none;stroke-width:0.161951"
         x="118.14728"
         y="153.55069"
         id="text8726"><tspan
           sodipodi:role="line"
           id="tspan8724"
           style="fill:#ffffff;stroke-width:0.161951"
           x="118.14728"
           y="153.55069">1080x1080</tspan></text>
    </g>
    <rect
       style="opacity:0.783959;fill:#e41d72;fill-opacity:1;stroke:#06d9fa;stroke-width:0.436254;stroke-miterlimit:4;stroke-dasharray:none;stroke-opacity:1"
       id="rect9038"
       width="40.215229"
       height="71.493744"
       x="148.03278"
       y="113.01661" />
    <g
       id="g59507"
       transform="matrix(0.87250889,0,0,0.87250889,3.1934581,9.331857)"
       style="opacity:0.783959;fill:#ffffff">
      <text
         xml:space="preserve"
         style="font-style:normal;font-weight:normal;font-size:19.2847px;line-height:1.25;font-family:sans-serif;fill:#ffffff;fill-opacity:1;stroke:none;stroke-width:0.482117"
         x="127.57791"
         y="-187.13121"
         id="text9122"
         transform="rotate(90)"><tspan
           sodipodi:role="line"
           id="tspan9120"
           style="fill:#ffffff;stroke-width:0.482117"
           x="127.57791"
           y="-187.13121">STORY</tspan></text>
      <text
         xml:space="preserve"
         style="font-style:normal;font-weight:normal;font-size:10.5833px;line-height:1.25;font-family:sans-serif;fill:#ffffff;fill-opacity:1;stroke:none;stroke-width:0.264583"
         x="129.51018"
         y="-176.80379"
         id="text9612"
         transform="rotate(90)"><tspan
           sodipodi:role="line"
           id="tspan9610"
           style="fill:#ffffff;stroke-width:0.264583"
           x="129.51018"
           y="-176.80379">1080x1920</tspan></text>
    </g>
    <rect
       style="opacity:0.783959;fill:#e41d72;fill-opacity:1;stroke:#06d9fa;stroke-width:0.63521;stroke-miterlimit:4;stroke-dasharray:none;stroke-opacity:1"
       id="rect10232"
       width="53.180294"
       height="26.590147"
       x="106.48179"
       y="203.0332" />
    <g
       id="g63708"
       transform="matrix(1.2704209,0,0,1.2704209,-37.068439,-65.054356)"
       style="opacity:0.783959;fill:#ffffff">
      <text
         xml:space="preserve"
         style="font-style:normal;font-weight:normal;font-size:13.2266px;line-height:1.25;font-family:sans-serif;fill:#ffffff;fill-opacity:1;stroke:none;stroke-width:0.330664"
         x="115.82503"
         y="223.22328"
         id="text10236"><tspan
           sodipodi:role="line"
           id="tspan10234"
           style="fill:#ffffff;stroke-width:0.330664"
           x="115.82503"
           y="223.22328">POST</tspan></text>
      <text
         xml:space="preserve"
         style="font-style:normal;font-weight:normal;font-size:5.53486px;line-height:1.25;font-family:sans-serif;fill:#ffffff;fill-opacity:1;stroke:none;stroke-width:0.138372"
         x="119.83187"
         y="229.4904"
         id="text10240"><tspan
           sodipodi:role="line"
           id="tspan10238"
           style="fill:#ffffff;stroke-width:0.138372"
           x="119.83187"
           y="229.4904">1012x506</tspan></text>
    </g>
    <rect
       style="opacity:0.783959;fill:#e41d72;fill-opacity:1;stroke:#06d9fa;stroke-width:0.422914;stroke-miterlimit:4;stroke-dasharray:none;stroke-opacity:1"
       id="rect10242"
       width="81.888641"
       height="27.296215"
       x="92.127617"
       y="241.6763" />
    <g
       id="g66287"
       transform="matrix(0.72209859,0,0,0.72209859,23.138623,63.25613)"
       style="opacity:0.783959">
      <text
         xml:space="preserve"
         style="font-style:normal;font-weight:normal;font-size:19.2847px;line-height:1.25;font-family:sans-serif;fill:#ffffff;fill-opacity:1;stroke:none;stroke-width:0.482117"
         x="111.4168"
         y="267.64603"
         id="text10246"><tspan
           sodipodi:role="line"
           id="tspan10244"
           style="fill:#ffffff;stroke-width:0.482117"
           x="111.4168"
           y="267.64603">HEADER</tspan></text>
      <text
         xml:space="preserve"
         style="font-style:normal;font-weight:normal;font-size:10.5833px;line-height:1.25;font-family:sans-serif;fill:#ffffff;fill-opacity:1;stroke:none;stroke-width:0.264583"
         x="125.31292"
         y="278.2352"
         id="text10250"><tspan
           sodipodi:role="line"
           id="tspan10248"
           style="fill:#ffffff;stroke-width:0.264583"
           x="125.31292"
           y="278.2352">1500x500</tspan></text>
    </g>
  </g>
  <style
     type="text/css"
     id="style2">
     .st0,.st1{fill:none;stroke:#08d6ff;stroke-width:16;stroke-miterlimit:10}.st1{fill:#3c597a;stroke:#061124;stroke-width:8}.st6{fill:#54575b}.st8{fill:#061124}.st9{fill:#8a1c13;stroke:#333;stroke-width:.25;stroke-miterlimit:10}.st13{fill:#384356}.st14{fill:#576270}.st15,.st17{stroke:#061124;stroke-miterlimit:10}.st15{fill:#fff;stroke-width:.25}.st17{fill:#fdfdfd}.st18{opacity:.38}
   </style>
</svg>
