<?xml version="1.0" encoding="UTF-8" standalone="no"?>
<svg
   height="1000"
   width="1000"
   viewBox="-19.5036 -32.49725 140.85933 243.72938"
   version="1.1"
   id="svg28"
   sodipodi:docname="Instagram_Simple.svg"
   inkscape:version="1.1.2 (0a00cf5, 2022-02-04)"
   xmlns:inkscape="http://www.inkscape.org/namespaces/inkscape"
   xmlns:sodipodi="http://sodipodi.sourceforge.net/DTD/sodipodi-0.dtd"
   xmlns:xlink="http://www.w3.org/1999/xlink"
   xmlns="http://www.w3.org/2000/svg"
   xmlns:svg="http://www.w3.org/2000/svg">
  <sodipodi:namedview
     id="namedview30"
     pagecolor="#505050"
     bordercolor="#ffffff"
     borderopacity="1"
     inkscape:pageshadow="0"
     inkscape:pageopacity="0"
     inkscape:pagecheckerboard="1"
     showgrid="false"
     width="1000px"
     inkscape:zoom="0.34375"
     inkscape:cx="509.09091"
     inkscape:cy="631.27273"
     inkscape:window-width="1330"
     inkscape:window-height="768"
     inkscape:window-x="102"
     inkscape:window-y="125"
     inkscape:window-maximized="0"
     inkscape:current-layer="svg28">
    <sodipodi:guide
       position="0,243.72938"
       orientation="0,1000"
       id="guide852" />
    <sodipodi:guide
       position="140.85933,243.72938"
       orientation="1000,0"
       id="guide854" />
    <sodipodi:guide
       position="140.85933,0"
       orientation="0,-1000"
       id="guide856" />
    <sodipodi:guide
       position="0,0"
       orientation="-1000,0"
       id="guide858" />
  </sodipodi:namedview>
  <defs
     id="defs20">
    <radialGradient
       fy="578.08801"
       fx="158.429"
       gradientTransform="matrix(0,-3.6959192,3.438433,0,-1993.6109,814.11175)"
       gradientUnits="userSpaceOnUse"
       xlink:href="#a"
       r="65"
       cy="578.08801"
       cx="158.429"
       id="c" />
    <radialGradient
       fy="473.45499"
       fx="147.694"
       gradientTransform="matrix(0.32435655,1.6199553,-6.6792013,1.3373694,3003.4826,-887.47716)"
       gradientUnits="userSpaceOnUse"
       xlink:href="#b"
       r="65"
       cy="473.45499"
       cx="147.694"
       id="d" />
    <linearGradient
       id="b">
      <stop
         stop-color="#3771c8"
         offset="0"
         id="stop4" />
      <stop
         offset=".128"
         stop-color="#3771c8"
         id="stop6" />
      <stop
         stop-opacity="0"
         stop-color="#60f"
         offset="1"
         id="stop8" />
    </linearGradient>
    <linearGradient
       id="a">
      <stop
         stop-color="#fd5"
         offset="0"
         id="stop11" />
      <stop
         stop-color="#fd5"
         offset=".1"
         id="stop13" />
      <stop
         stop-color="#ff543e"
         offset=".5"
         id="stop15" />
      <stop
         stop-color="#c837ab"
         offset="1"
         id="stop17" />
    </linearGradient>
  </defs>
  <path
     d="m 51.36759,-32.49725 c -32.878085,0 -37.00424,0.14376 -49.9173758,0.731409 -12.8879252,0.590171 -21.6850102,2.63055 -29.3824542,5.62428 -7.962265,3.092093 -14.716444,7.228334 -21.445401,13.959815 -6.734013,6.7289601 -10.870245,13.4831401 -13.972431,21.4428837 -3.001303,7.6999683 -5.044195,16.4995693 -5.624284,29.3824503 -0.575032,12.913145 -0.726363,17.041821 -0.726363,49.919899 0,32.878083 0.146287,36.991623 0.731408,49.904773 0.592694,12.88792 2.633071,21.685 5.624284,29.38244 3.094612,7.96228 7.230857,14.71646 13.962341,21.44541 6.726427,6.73402 13.480608,10.88033 21.43784,13.97243 7.70249,2.99373 16.50209,5.03411 29.3874861,5.62427 12.9131489,0.58766 17.0367749,0.73143 49.9123309,0.73143 32.8806,0 36.994149,-0.14377 49.907299,-0.73143 12.88792,-0.59016 21.69508,-2.63054 29.39758,-5.62427 7.95975,-3.0921 14.70383,-7.23841 21.43027,-13.97243 6.734,-6.72894 10.87025,-13.48312 13.97242,-21.44287 2.97608,-7.69996 5.01898,-16.49959 5.62429,-29.38246 0.58008,-12.91314 0.7314,-17.02921 0.7314,-49.907292 0,-32.878079 -0.15132,-37.004232 -0.7314,-49.917378 -0.60531,-12.887924 -2.64821,-21.685004 -5.62429,-29.3824499 -3.10217,-7.962266 -7.23842,-14.7164446 -13.97242,-21.4454051 -6.73401,-6.734003 -13.46801,-10.870244 -21.43784,-13.959816 -7.71762,-2.99373 -16.51975,-5.034109 -29.40768,-5.62428 C 88.33147,-32.35349 84.22045,-32.49725 51.332276,-32.49725 Z m -10.860156,21.816154 c 3.223236,-0.005 6.81975,0 10.860156,0 32.323219,0 36.154284,0.116017 48.91862,0.6960986 11.80343,0.539729 18.20955,2.5120099 22.47696,4.1690288 5.64948,2.194227 9.67727,4.81720891 13.91189,9.0543353 4.23712,4.2371249 6.86011,8.2724833 9.05938,13.9219853 1.65701,4.262346 3.63182,10.668476 4.16902,22.471898 0.58008,12.76182 0.70619,16.595409 0.70619,48.903495 0,32.308095 -0.12606,36.141685 -0.70619,48.903505 -0.53973,11.80341 -2.51201,18.20954 -4.16902,22.47189 -2.19423,5.64949 -4.82226,9.67225 -9.05938,13.90684 -4.23713,4.23714 -8.25989,6.86011 -13.91189,9.05434 -4.26236,1.66459 -10.67353,3.63183 -22.47696,4.17156 -12.76182,0.58007 -16.595401,0.70618 -48.91862,0.70618 -32.325736,0 -36.156814,-0.12606 -48.918632,-0.70618 -11.8034194,-0.54477 -18.209546,-2.51706 -22.479458,-4.17408 -5.649508,-2.19422 -9.684869,-4.81721 -13.921984,-9.05433 -4.237127,-4.23713 -6.860122,-8.26239 -9.059388,-13.91442 -1.657009,-4.26235 -3.631815,-10.66848 -4.16903,-22.47189 -0.580075,-12.76182 -0.696094,-16.59541 -0.696094,-48.92368 0,-32.328262 0.116045,-36.141676 0.696094,-48.903494 0.539731,-11.803423 2.512021,-18.209554 4.16903,-22.476945 2.194236,-5.649501 4.822261,-9.6848579 9.059388,-13.9219843 4.237115,-4.2371262 8.272476,-6.8601082 13.921984,-9.0593787 4.267383,-1.6645846 10.6760386,-3.6318221 22.479458,-4.174072 11.16785,-0.504422 15.495771,-0.655746 38.058476,-0.680968 z M 115.9888,9.4200299 a 14.527289,14.527289 0 1 0 14.52728,14.5222461 c 0,-8.020275 -6.50701,-14.5272895 -14.52728,-14.5272895 z M 51.36759,26.393754 c -34.333326,0 -62.169732,27.836404 -62.169732,62.169733 0,34.333323 27.836406,62.157133 62.169732,62.157133 34.333326,0 62.16217,-27.82381 62.16217,-62.157133 0,-34.333329 -27.83136,-62.169733 -62.1647,-62.169733 z m 0,21.816154 c 22.285265,0 40.353582,18.065794 40.353582,40.353579 0,22.285263 -18.068317,40.353583 -40.353582,40.353583 -22.287795,0 -40.353583,-18.06832 -40.353583,-40.353583 0,-22.287785 18.065788,-40.353579 40.353583,-40.353579 z"
     fill="#ffffff"
     id="path26"
     style="stroke-width:2.5221" />
</svg>
