<?xml version="1.0" encoding="UTF-8" standalone="no"?>
<!-- Created with Inkscape (http://www.inkscape.org/) -->

<svg
   width="1000"
   height="1000"
   viewBox="0 0 264.58333 264.58334"
   version="1.1"
   id="svg5"
   inkscape:version="1.1.2 (0a00cf5, 2022-02-04)"
   sodipodi:docname="QR_Sponsors.svg"
   xmlns:inkscape="http://www.inkscape.org/namespaces/inkscape"
   xmlns:sodipodi="http://sodipodi.sourceforge.net/DTD/sodipodi-0.dtd"
   xmlns="http://www.w3.org/2000/svg"
   xmlns:svg="http://www.w3.org/2000/svg">
  <sodipodi:namedview
     id="namedview7"
     pagecolor="#505050"
     bordercolor="#ffffff"
     borderopacity="1"
     inkscape:pageshadow="0"
     inkscape:pageopacity="0"
     inkscape:pagecheckerboard="1"
     inkscape:document-units="mm"
     showgrid="false"
     units="px"
     width="1000px"
     inkscape:zoom="0.3464605"
     inkscape:cx="393.98431"
     inkscape:cy="469.02894"
     inkscape:window-width="1330"
     inkscape:window-height="743"
     inkscape:window-x="36"
     inkscape:window-y="0"
     inkscape:window-maximized="1"
     inkscape:current-layer="layer1">
    <sodipodi:guide
       position="0,264.58333"
       orientation="0,1000"
       id="guide1032" />
    <sodipodi:guide
       position="264.58333,264.58333"
       orientation="1000,0"
       id="guide1034" />
    <sodipodi:guide
       position="264.58333,0"
       orientation="0,-1000"
       id="guide1036" />
    <sodipodi:guide
       position="0,0"
       orientation="-1000,0"
       id="guide1038" />
  </sodipodi:namedview>
  <defs
     id="defs2" />
  <g
     inkscape:label="Capa 1"
     inkscape:groupmode="layer"
     id="layer1">
    <rect
       style="fill:#ffffff;stroke:none;stroke-width:0.264583"
       id="rect1040"
       width="264.58334"
       height="264.58334"
       x="0"
       y="4.9999999e-06" />
    <path
       style="fill:#010101;stroke:none;stroke-width:0.91583"
       d="M 8.6544337,8.6544438 V 47.119361 H 47.11935 V 8.6544438 H 8.6544337 m 49.4548923,0 V 36.129384 h -5.494988 v 10.989977 h 5.494988 V 36.129384 h 5.494988 v 10.989977 h 5.494988 v 5.494988 H 52.614338 v 5.494987 H 47.11935 V 52.614349 H 36.129374 v 5.494987 H 47.11935 v 5.494988 h -5.494989 v 5.494989 h -21.97995 v 5.494988 h 10.989976 v 10.989975 h -5.494988 v 10.989977 h 5.494988 v 5.494997 h -5.494988 v 5.49499 h -5.494988 v -5.49499 H 8.6544337 v 5.49499 H 19.644411 v 5.49498 h 5.494988 v -5.49498 h 5.494988 v -5.49499 h 5.494987 v 16.48496 H 25.139399 v 16.48496 h -5.494988 v -16.48496 h -5.494989 v -5.49499 H 8.6544337 v 10.98998 h 5.4949883 v 10.98997 H 8.6544337 v 5.49499 H 30.634387 v 5.49499 h -5.494988 v 5.49499 h 5.494988 v -5.49499 h 21.979951 v 5.49499 H 36.129374 v 5.49499 h -5.494987 v 5.49499 H 14.149422 v 5.49499 H 8.6544337 v 10.98998 h 5.4949883 v -5.49499 h 5.494989 v 16.48496 h 5.494988 v -10.98997 h 5.494988 v 10.98997 H 47.11935 v -5.49498 h 5.494988 v 5.49498 H 63.604314 V 173.5041 h 5.494988 v 5.49499 h 5.494988 v 5.49499 h 10.989976 v 5.49498 h -5.494988 v 16.48496 H 74.59429 v -5.49499 h -5.494988 v 5.49499 h 5.494988 v 16.48497 h 10.989976 v 5.49499 H 69.099302 v 5.49498 h 5.494988 v 5.49499 h -5.494988 v 5.49499 H 58.109326 v 5.49499 h -5.494988 v 5.49498 h 5.494988 v -5.49498 H 74.59429 v 5.49498 h 27.47494 v -5.49498 H 91.079255 v -5.49499 h -5.494989 v -5.49499 h 16.484964 v 5.49499 h 5.49499 v 5.49499 h 5.49498 v 5.49498 h 5.49499 v -5.49498 h 5.49499 v 5.49498 h 5.49499 v -5.49498 h -5.49499 v -10.98998 h 5.49499 v 5.49499 h 10.98998 v 10.98997 h 32.96993 v -5.49498 h -21.97996 v -5.49499 h -5.49499 v -5.49499 h -5.49498 v -5.49499 h 5.49498 V 217.464 h 5.49499 v 10.98998 h 5.49499 v 5.49498 h -5.49499 v 5.49499 h 5.49499 v 5.49499 h 21.97996 v -5.49499 h -5.49499 v -5.49499 h 5.49499 v -5.49498 h 5.49499 v 5.49498 h 16.48496 v 5.49499 h 5.49499 v 5.49499 h 5.495 v 5.49499 h 5.49498 v 5.49498 h 16.48496 v -5.49498 h 5.49499 v -10.98998 h 5.49499 v 5.49499 h 10.98998 v -5.49499 h -10.98998 v -5.49499 h -5.49499 v -5.49498 h -5.49499 v -5.49499 h 16.48497 v 5.49499 h 5.49499 v -5.49499 h -5.49499 V 217.464 h 5.49499 v -10.98998 h -5.49499 v -5.49499 h 5.49499 v -10.98997 h -5.49499 v -5.49498 h 5.49499 V 173.5041 h -5.49499 v -5.49499 h 5.49499 v -10.98998 h -5.49499 v -5.49499 h 5.49499 V 124.0492 h -5.49499 v -5.49499 h -5.49499 v 10.98998 h -5.49499 v 5.49498 h -5.49499 v -21.97995 h 10.98998 v -5.49498 h -5.49499 v -5.49499 h 10.98998 v -5.494997 h -16.48497 v 16.484967 h -10.98997 v 5.49499 h -10.98997 v -5.49499 h -5.495 v -10.98997 h -5.49499 v 10.98997 h -16.48496 v -10.98997 h 5.49498 v -5.494997 h 16.48497 v -5.494987 h 5.495 v -5.49499 h 5.49498 v -5.494987 h -5.49498 v -5.494988 h -16.48498 v -5.494988 h 10.98998 V 58.109336 h -5.49499 V 41.624372 h -5.49499 v -5.494988 h 16.48498 V 25.139409 h -5.495 V 14.149432 h 5.495 V 8.6544438 h -5.495 v 5.4949882 h -5.49499 v 16.484964 h -10.98998 v 5.494988 h -10.98997 v -5.494988 h 5.49499 v -5.494987 h 5.49498 V 19.64442 h 5.49499 V 8.6544438 h -5.49499 V 19.64442 h -5.49498 V 8.6544438 h -16.48498 v 5.4949882 h -5.49499 V 8.6544438 h -16.48496 v 5.4949882 h 5.49499 v 5.494988 h 5.49499 v 5.494989 h 5.49498 V 19.64442 h 5.49499 v 16.484964 h 10.98999 v 5.494988 h -5.49499 v 5.494989 h 5.49499 v 5.494988 h -16.48498 v -5.494988 h 5.49499 v -5.494989 h -5.49499 v 5.494989 h -5.49498 v -5.494989 h -5.49499 v -5.494988 h 5.49499 v -5.494988 h -10.98998 v -5.494987 h -5.49498 v 5.494987 h -10.98998 v -5.494987 h 5.49499 V 19.64442 h -5.49499 V 8.6544438 h -21.97995 v 5.4949882 h -5.49499 V 8.6544438 H 85.584266 V 25.139409 h -5.494988 v 5.494987 H 74.59429 v -5.494987 h -5.494988 v 5.494987 H 74.59429 V 47.119361 H 69.099302 V 36.129384 H 63.604314 V 19.64442 H 74.59429 v -5.494988 h 5.494988 V 8.6544438 H 58.109326 m 159.354664,0 V 47.119361 h 38.46492 V 8.6544438 H 217.46399 M 41.624361,14.149432 v 27.47494 H 14.149422 v -27.47494 h 27.474939 m 60.444869,0 v 5.494988 h 5.49499 v -5.494988 h 16.48496 v 5.494988 h -16.48496 v 5.494989 h 10.98997 v 10.989975 h -16.48496 v 5.494988 h 5.49499 v 5.494989 h -5.49499 V 41.624372 H 96.574242 V 52.614349 H 91.079255 V 41.624372 h -5.494989 v 16.484964 h 5.494989 V 74.594301 H 85.584266 V 58.109336 H 80.089278 V 52.614349 H 74.59429 v 5.494987 h -5.494988 v -5.494987 h 5.494988 v -5.494988 h 5.494988 V 36.129384 h 10.989977 v -5.494988 h -5.494989 v -5.494987 h 5.494989 V 19.64442 h 5.494987 v -5.494988 h 5.494988 m 60.44486,0 v 5.494988 h -5.49498 v -5.494988 h 5.49498 m 87.91983,0 v 27.47494 h -27.47494 v -27.47494 h 27.47494 M 19.644411,19.64442 V 36.129384 H 36.129374 V 19.64442 H 19.644411 m 76.929831,0 v 5.494989 h 5.494988 v 5.494987 h -5.494988 v 5.494988 h 5.494988 v -5.494988 h 5.49499 v -5.494987 h -5.49499 V 19.64442 h -5.494988 m 131.879728,0 v 16.484964 h 16.48496 V 19.64442 H 228.45397 M 140.53415,36.129384 V 52.614349 H 124.04918 V 36.129384 h 16.48497 m -21.97996,5.494988 v 5.494989 h -5.49499 v -5.494989 h 5.49499 m 10.98998,0 v 5.494989 h 5.49499 v -5.494989 h -5.49499 m 21.97995,0 v 5.494989 h -5.49499 v -5.494989 h 5.49499 m 32.96994,0 v 5.494989 h -5.49499 v -5.494989 h 5.49499 m 10.98997,0 v 16.484964 h 5.49499 v 5.494988 h -5.49499 v 5.494989 h -5.49499 v 5.494988 h -5.49498 v -5.494988 h 5.49498 V 58.109336 h -5.49498 v -5.494987 h 5.49498 V 41.624372 h 5.49499 m 10.98998,0 v 5.494989 h 5.495 v -5.494989 h -5.495 M 8.6544337,52.614349 V 63.604324 H 19.644411 V 58.109336 H 14.149422 V 52.614349 H 8.6544337 m 16.4849653,0 v 5.494987 h 5.494988 v -5.494987 h -5.494988 m 93.414791,0 v 16.484964 h -5.49499 v -5.494989 h -5.49498 v 5.494989 H 96.574242 v -5.494989 h 10.989978 v -5.494988 h -5.49499 v -5.494987 h 16.48496 m 32.96993,0 v 5.494987 h 5.49499 v -5.494987 h 5.49498 v 5.494987 h 16.48498 v 5.494988 h -5.49499 v 5.494989 h -10.98999 v 16.484963 h 10.98999 v -5.494987 h 5.49499 v 5.494987 h 10.98997 v -5.494987 h 5.49499 v 10.989977 h -21.97995 v 5.494987 h 10.98998 v 5.494997 h -5.49499 v 10.98997 h 5.49499 v 5.49499 h 5.49498 v 5.49499 h -5.49498 v -5.49499 h -5.49499 v -5.49499 h -16.48498 v 5.49499 h -10.98997 v 5.49499 h 27.47495 v 5.49499 h 5.49499 v 10.98997 h -5.49499 v 5.49499 h 5.49499 v 5.49499 h 5.49498 v -5.49499 h 5.49499 v -5.49499 h -5.49499 v -5.49499 h 5.49499 v 5.49499 h 5.49499 v -5.49499 h 5.49499 v 5.49499 h -5.49499 v 5.49499 h 5.49499 v 10.98998 h -10.98998 v 5.49499 h 10.98998 v 5.49499 h 5.495 v 5.49499 h 5.49498 v -10.98998 h 5.49499 v 5.49499 h 10.98997 v -5.49499 h -5.49498 v -5.49499 h 5.49498 v -10.98998 h 5.49499 v -10.98998 h 5.49499 v 10.98998 h 5.49499 v 5.49499 h -10.98998 v 5.49499 h 5.49499 v 5.49499 h 5.49499 v 5.49499 h -5.49499 v 10.98998 h 5.49499 v 5.49499 h -5.49499 v 10.98996 h 5.49499 v 5.49499 h -5.49499 v 10.98998 h 5.49499 v 5.49499 h -16.48497 v -10.98998 h -10.98997 v -10.98998 h -5.49499 v 5.49499 h -5.49498 v 5.49499 h -5.495 v 21.97996 H 195.48403 V 217.464 h 5.49499 v -10.98998 h 5.49499 v -5.49499 h 5.495 v -5.49499 h -5.495 v -10.98996 h -5.49499 V 173.5041 h -10.98998 v -16.48497 h -5.49498 v 10.98998 h -5.49499 v 10.98998 h 5.49499 v 5.49499 h 5.49498 v -5.49499 h 5.49499 v 5.49499 h -5.49499 v 5.49498 h -5.49498 v 5.49498 h -5.49499 v 10.98998 h 5.49499 v -5.49499 h 10.98997 v 5.49499 h -10.98997 v 5.49499 h 5.49498 v 10.98998 h -10.98997 v 5.49499 h -5.49499 v -5.49499 h -5.495 V 206.47402 H 157.01911 V 217.464 h -5.49499 v -5.49499 h -5.49499 v -5.49499 h -5.49498 v -10.98998 h -5.49499 v 10.98998 h -5.49499 v -5.49499 h -5.49499 v -10.98997 h 5.49499 v 5.49498 h 5.49499 v -5.49498 h 5.49499 v 5.49498 h 5.49498 v -5.49498 h 10.98998 v -5.49498 h -21.97995 v -5.49499 h -10.98998 v -5.49499 h -5.49499 v -5.49499 h 5.49499 v 5.49499 h 10.98998 v 5.49499 h 5.49499 v -5.49499 h 5.49498 v -10.98998 h -5.49498 v -10.98998 h 10.98997 v -10.98998 h 5.49499 v 10.98998 h -5.49499 v 21.97996 h 5.49499 v -16.48497 h 5.49498 v -5.49499 h 5.49499 v -5.49499 h 5.495 v -5.49499 h -5.495 v -5.49499 h -5.49499 v -5.49498 h -5.49498 v 5.49498 h -5.49499 v -5.49498 h -5.49499 v -10.98998 h -10.98997 v -5.49499 h -5.49499 v 5.49499 h -10.98998 v 10.98998 h -5.49499 v -10.98998 h 5.49499 v -5.49499 h -10.98997 v 21.97995 h 5.49498 v 5.49499 h 5.49499 v 5.49499 h -5.49499 v 5.49499 h 10.98998 v 10.98998 h -21.97995 v -10.98998 h -5.494988 v 16.48497 h 10.989978 v 5.49499 h 5.49498 v 10.98998 H 96.574242 v 21.97994 h 5.494988 v -5.49499 h 5.49499 v -10.98997 h 10.98997 v 5.49498 h -5.49499 v 5.49499 h -5.49498 v 5.49499 h 5.49498 v 16.48497 h 5.49499 v 5.49499 h -5.49499 v -5.49499 h -5.49498 v 16.48496 h 5.49498 v -5.49499 h 5.49499 v 5.49499 h -5.49499 v 5.49499 h -5.49498 v -5.49499 h -5.49499 v -10.98997 h -5.494988 v 5.49498 h -5.494987 v -5.49498 h 5.494987 V 217.464 h -5.494987 v -16.48497 h -5.494989 v -10.98997 h 5.494989 v -5.49498 H 85.584266 V 173.5041 h -5.494988 v 5.49499 H 74.59429 v -5.49499 h 5.494988 v -5.49499 h 5.494988 v -5.49499 h 5.494989 v -5.49499 h -5.494989 v -5.49499 h 5.494989 v -5.49499 h -5.494989 v -5.49499 h -5.494988 v -5.49499 H 74.59429 v 5.49499 h -5.494988 v -10.98997 h -5.494988 v 5.49498 h -5.494988 v -5.49498 h 5.494988 v -5.49499 h -5.494988 v -10.98998 h 5.494988 v -5.49498 H 74.59429 v -5.49499 H 63.604314 v -5.494997 h 5.494988 v -5.494987 h 10.989976 v -5.49499 h 5.494988 v -5.494987 h 10.989976 v 5.494987 H 113.0592 v -5.494987 h 10.98998 V 58.109336 h 16.48497 v 21.979953 h 5.49498 v -5.494988 h 5.49499 V 63.604324 h -5.49499 V 52.614349 h 5.49499 m 60.44489,0 v 10.989975 h 5.49498 V 52.614349 h -5.49498 m 10.98997,0 v 5.494987 h 5.49499 v 5.494988 h 5.49498 v 5.494989 h -5.49498 v 5.494988 h -5.49499 v -5.494988 h -5.49499 v 5.494988 h 5.49499 v 5.494988 h 10.98997 v 10.989977 h 5.49499 V 80.089289 h -5.49499 v -5.494988 h 5.49499 V 63.604324 h 5.49499 v -5.494988 h -5.49499 v 5.494988 h -5.49499 v -5.494988 h -5.49498 v -5.494987 h -5.49499 m 27.47494,5.494987 v 10.989977 h -5.49499 v 5.494988 h 10.98998 V 58.109336 h -5.49499 M 63.604314,63.604324 V 74.594301 H 58.109326 V 85.584276 H 52.614338 V 74.594301 H 41.624361 v -5.494988 h 5.494989 v -5.494989 h 16.484964 m 16.484964,0 v 5.494989 H 69.099302 v -5.494989 h 10.989976 m 76.929832,0 v 5.494989 h 5.49498 v -5.494989 h -5.49498 M 52.614338,69.099313 v 5.494988 h 5.494988 V 69.099313 H 52.614338 M 74.59429,74.594301 V 85.584276 H 69.099302 V 74.594301 h 5.494988 m 32.96993,0 v 5.494988 h -5.49499 v -5.494988 h 5.49499 m 43.9599,0 v 5.494988 h -5.49499 v 5.494987 h -5.49498 v -5.494987 h -5.49499 v 5.494987 h -10.98998 v 10.989977 h -5.49499 v 5.494997 H 113.0592 V 91.079266 h -5.49498 v 5.494987 h -5.49499 v -5.494987 h -5.494988 v -5.49499 h -5.494987 v 5.49499 H 85.584266 V 102.06925 H 80.089278 V 96.574253 H 74.59429 v 5.494997 h 5.494988 v 5.49499 H 74.59429 v 5.49498 H 63.604314 V 124.0492 H 74.59429 v -10.98998 h 32.96993 v -10.98997 h 5.49498 v 5.49499 h 5.49499 v 5.49498 h 5.49499 v -10.98997 h 21.97995 v -5.494997 h 10.98998 v 5.494997 h -5.49499 v 5.49499 h -16.48496 v 5.49498 h 10.98997 v 5.49499 h 5.49499 v -5.49499 h 10.98997 v -5.49498 h -5.49498 v -5.49499 h 5.49498 v -5.494997 h -5.49498 v -5.494987 h 5.49498 v -5.49499 h -10.98997 v -5.494987 h 5.49499 v -5.494988 h -5.49499 M 8.6544337,80.089289 V 96.574253 H 14.149422 V 85.584276 h 5.494989 V 80.089289 H 8.6544337 m 38.4649163,0 v 5.494987 H 36.129374 v 5.49499 H 47.11935 v 5.494987 h 10.989976 v 5.494997 H 47.11935 v 5.49499 h -5.494989 v -5.49499 H 36.129374 V 91.079266 h -5.494987 v -5.49499 h 5.494987 V 80.089289 H 47.11935 m 164.84966,0 v 5.494987 h -10.98999 v -5.494987 h 10.98999 m 38.46491,0 v 5.494987 h -5.49499 v 5.49499 h 5.49499 v -5.49499 h 5.49499 v -5.494987 h -5.49499 m -109.89977,5.494987 v 5.49499 h 5.49498 v -5.49499 h 5.49499 v 5.49499 h -5.49499 v 5.494987 h -16.48496 v -5.494987 h 5.49499 v -5.49499 h 5.49499 m 82.42483,0 v 5.49499 h -5.49499 v 10.989984 h -5.49498 v 5.49499 h 10.98997 v -5.49499 h 5.49499 V 85.584276 h -5.49499 M 41.624361,96.574253 v 5.494997 h 5.494989 v -5.494997 h -5.494989 m 60.444869,0 v 5.494997 h -5.494988 v 5.49499 H 91.079255 V 96.574253 h 10.989975 m 65.93985,0 v 10.989987 h 5.495 V 96.574253 h -5.495 m 82.42484,10.989987 v 5.49498 h 5.49499 v -5.49498 h -5.49499 m -197.819582,5.49498 v 5.49499 H 41.624361 v -5.49499 h 10.989977 m 153.859672,0 v 16.48497 h -10.98998 v -10.98998 h 5.49499 v -5.49499 h 5.49499 m -120.889744,5.49499 v 5.49499 h 5.494989 v 5.49499 H 80.089278 v 5.49498 h 10.989977 v -5.49498 h 5.494987 v 10.98997 h 10.989978 v 5.49499 h 5.49498 v -5.49499 h -5.49498 v -5.49499 h -5.49499 v -5.49498 h -5.494988 v -5.49499 h 5.494988 v -5.49499 H 85.584266 m -32.969928,5.49499 v 16.48496 H 36.129374 V 124.0492 h 16.484964 m 87.919812,0 v 16.48496 H 124.04918 V 124.0492 h 16.48497 m 87.91982,0 v 16.48496 H 211.96901 V 124.0492 h 16.48496 m -186.829609,5.49499 v 5.49498 h 5.494989 v -5.49498 h -5.494989 m 87.919809,0 v 5.49498 h 5.49499 v -5.49498 h -5.49499 m 38.46491,0 v 5.49498 h 5.495 v -5.49498 h -5.495 m 49.45491,0 v 5.49498 h 5.49499 v -5.49498 h -5.49499 M 63.604314,140.53416 v 10.98998 h 5.494988 v -5.49499 h 5.494988 v 5.49499 h -5.494988 v 10.98998 h 5.494988 v 5.49499 H 63.604314 V 157.01913 H 52.614338 v -5.49499 h 5.494988 v -10.98998 h 5.494988 m 71.434846,5.49499 v 10.98998 h -5.49499 v -10.98998 h 5.49499 m 60.44487,0 v 5.49499 h 5.49499 v -5.49499 h -5.49499 m 21.97996,0 v 5.49499 h 5.49499 v -5.49499 h 5.49499 v 5.49499 h -5.49499 v 5.49499 h -5.49499 v -5.49499 h -5.49498 v -5.49499 h 5.49498 m -203.314568,5.49499 v 5.49499 h 5.494989 v -5.49499 h -5.494989 m 93.414798,0 v 5.49499 h 5.49498 v -5.49499 h -5.49498 m 65.93986,0 v 5.49499 h -10.98999 v 5.49499 h 10.98999 v 5.49499 h 5.49499 v -5.49499 h -5.49499 v -5.49499 h 10.98998 v -5.49499 h -10.98998 m -126.38473,5.49499 v 5.49499 h 10.989976 v 5.49499 h -5.494988 v 5.49499 h 5.494988 v 10.98998 h -5.494988 v -5.49499 H 47.11935 v 5.49499 h -5.494989 v -5.49499 h -5.494987 v -5.49499 h -5.494987 v -5.49499 h 5.494987 V 157.01913 H 47.11935 m 186.8296,0 v 5.49499 h 5.49499 v -5.49499 h -5.49499 m -192.324589,5.49499 v 5.49499 h 5.494989 v -5.49499 h -5.494989 m 93.414799,0 v 5.49499 h -5.49499 v -5.49499 h 5.49499 m -109.899761,5.49499 v 5.49499 h -5.494988 v -5.49499 h 5.494988 m 60.444867,0 v 5.49499 h 5.494989 v 10.98998 h 5.494987 V 173.5041 h -5.494987 v -5.49499 h -5.494989 m 76.929824,0 v 5.49499 h -5.49498 v 10.98998 h 5.49498 v 5.49498 h -5.49498 v 5.49498 h -10.98998 v 5.49499 h 5.49499 v 5.49499 h 5.49499 v -5.49499 h 5.49498 v -10.98997 h 5.49499 v -5.49498 h -5.49499 v -5.49499 h 5.49499 v -10.98998 h -5.49499 m 38.46493,0 v 5.49499 h 5.49499 v -5.49499 h -5.49499 m 32.96993,0 v 5.49499 h -5.49498 v 5.49499 h -5.49499 v -5.49499 h -5.49499 v 10.98998 h 21.97995 v -16.48497 h -5.49499 M 41.624361,173.5041 v 5.49499 h 5.494989 v -5.49499 h -5.494989 m 104.404769,0 v 5.49499 h 5.49499 v -5.49499 h -5.49499 m 27.47495,5.49499 v 5.49499 h 5.49499 v -5.49499 h -5.49499 m 32.96993,0 v 5.49499 h 5.495 v -5.49499 h -5.495 M 8.6544337,184.49408 v 10.98996 H 14.149422 V 184.49408 H 8.6544337 m 60.4448683,5.49498 v 5.49498 h 5.494988 v -5.49498 h -5.494988 m 131.879718,0 v 5.49498 h -5.49499 v -5.49498 h 5.49499 m -170.344633,5.49498 v 5.49499 H 14.149422 v 5.49499 H 8.6544337 v 5.49499 h 5.4949883 v -5.49499 h 10.989977 v 5.49499 h 10.989975 v -16.48497 h -5.494987 m 10.989974,0 v 5.49499 h 10.989977 v -5.49499 H 41.624361 m 16.484965,0 v 10.98998 h 5.494988 v -10.98998 h -5.494988 m 170.344644,0 v 5.49499 h 5.49498 v 5.49499 h 5.49499 V 195.48404 H 228.45397 M 41.624361,206.47402 v 5.49499 h 5.494989 v -5.49499 h -5.494989 m 43.959905,0 V 217.464 h -5.494988 v -10.98998 h 5.494988 m -32.969928,5.49499 v 5.49499 h 10.989976 v -5.49499 H 52.614338 m 43.959904,0 v 5.49499 h 5.494988 v 5.49499 h 5.49499 V 211.96901 H 96.574242 m 43.959908,0 v 16.48497 h -16.48497 v -16.48497 h 16.48497 m 87.91982,0 v 16.48497 h -16.48496 v -16.48497 h 16.48496 M 8.6544337,217.464 v 38.46491 H 47.11935 V 217.464 H 8.6544337 m 120.8897363,0 v 5.49499 h 5.49499 V 217.464 h -5.49499 m 87.91982,0 v 5.49499 h 5.49499 V 217.464 h -5.49499 m -175.839629,5.49499 v 27.47494 H 14.149422 v -27.47494 h 27.474939 m 10.989977,0 v 5.49499 h 10.989976 v -5.49499 H 52.614338 m -32.969927,5.49499 v 16.48496 H 36.129374 V 228.45398 H 19.644411 m 148.364669,0 v 5.49498 h -5.49499 v 5.49499 h -5.49498 v -5.49499 h 5.49498 v -5.49498 h 5.49499 m -115.394742,5.49498 v 5.49499 h 5.494988 v -5.49499 h -5.494988 m 32.969928,0 v 5.49499 h -5.494988 v 5.49499 H 74.59429 v -5.49499 h 5.494988 v -5.49499 h 5.494988 m 49.454894,0 v 5.49499 h -5.49499 v -5.49499 h 5.49499 m 87.91982,0 v 5.49499 h -10.98997 v -5.49499 h 10.98997 m -38.46492,5.49499 v 10.98998 h -5.49499 v 5.49498 h 5.49499 v -5.49498 h 5.49498 v 5.49498 h 5.49499 v -5.49498 h 5.49499 v -5.49499 h -5.49499 v -5.49499 h -10.98997 m 43.95991,5.49499 v 5.49499 h -10.98998 v -5.49499 h 10.98998 m 16.48496,5.49499 v 5.49498 h 5.49499 v -5.49498 z"
       id="path910" />
  </g>
</svg>
